<?xml version="1.0"?>
<!DOCTYPE svg PUBLIC '-//W3C//DTD SVG 1.0//EN'
          'http://www.w3.org/TR/2001/REC-SVG-20010904/DTD/svg10.dtd'>
<svg xmlns:xlink="http://www.w3.org/1999/xlink" style="fill-opacity:1; color-rendering:auto; color-interpolation:auto; text-rendering:auto; stroke:black; stroke-linecap:square; stroke-miterlimit:10; shape-rendering:auto; stroke-opacity:1; fill:black; stroke-dasharray:none; font-weight:normal; stroke-width:1; font-family:'Dialog'; font-style:normal; stroke-linejoin:miter; font-size:12px; stroke-dashoffset:0; image-rendering:auto;" width="560" height="420" xmlns="http://www.w3.org/2000/svg"
><!--Generated by the Batik Graphics2D SVG Generator--><defs id="genericDefs"
  /><g
  ><defs id="defs1"
    ><clipPath clipPathUnits="userSpaceOnUse" id="clipPath1"
      ><path d="M0 0 L560 0 L560 420 L0 420 L0 0 Z"
      /></clipPath
      ><font horiz-adv-x="50.0" id="font1"
      ><font-face ascent="95.200005" descent="21.3" units-per-em="100" style="font-style:normal; font-family:Helvetica Neue; font-weight:normal;"
        /><missing-glyph horiz-adv-x="50.0" d="M40.9 66.6 L10.2 66.6 L10.2 4.7 L40.9 4.7 ZM46 71.2 L46 0.1 L5.1 0.1 L5.1 71.2 Z"
        /><glyph unicode="0" horiz-adv-x="55.6" d="M13.2 34.9 Q13.2 37.5 13.25 40.65 Q13.3 43.8 13.75 46.95 Q14.2 50.1 15.05 53.1 Q15.9 56.1 17.55 58.35 Q19.2 60.6 21.7 62 Q24.2 63.4 27.8 63.4 Q31.4 63.4 33.9 62 Q36.4 60.6 38.05 58.35 Q39.7 56.1 40.55 53.1 Q41.4 50.1 41.85 46.95 Q42.3 43.8 42.35 40.65 Q42.4 37.5 42.4 34.9 Q42.4 30.9 42.15 25.95 Q41.9 21 40.55 16.65 Q39.2 12.3 36.2 9.3 Q33.2 6.3 27.8 6.3 Q22.4 6.3 19.4 9.3 Q16.4 12.3 15.05 16.65 Q13.7 21 13.45 25.95 Q13.2 30.9 13.2 34.9 ZM4.2 34.8 Q4.2 30.9 4.4 26.7 Q4.6 22.5 5.4 18.5 Q6.2 14.5 7.7 10.95 Q9.2 7.4 11.8 4.7 Q14.4 2 18.35 0.45 Q22.3 -1.1 27.8 -1.1 Q33.4 -1.1 37.3 0.45 Q41.2 2 43.8 4.7 Q46.4 7.4 47.9 10.95 Q49.4 14.5 50.2 18.5 Q51 22.5 51.2 26.7 Q51.4 30.9 51.4 34.8 Q51.4 38.7 51.2 42.9 Q51 47.1 50.2 51.1 Q49.4 55.1 47.9 58.7 Q46.4 62.3 43.8 65 Q41.2 67.7 37.25 69.3 Q33.3 70.9 27.8 70.9 Q22.3 70.9 18.35 69.3 Q14.4 67.7 11.8 65 Q9.2 62.3 7.7 58.7 Q6.2 55.1 5.4 51.1 Q4.6 47.1 4.4 42.9 Q4.2 38.7 4.2 34.8 Z"
        /><glyph unicode="5" horiz-adv-x="55.6" d="M47 62.2 L47 69.7 L12 69.7 L5.4 32.9 L12.7 32.5 Q15.2 35.5 18.45 37.35 Q21.7 39.2 25.9 39.2 Q29.5 39.2 32.45 38 Q35.4 36.8 37.5 34.65 Q39.6 32.5 40.75 29.55 Q41.9 26.6 41.9 23.1 Q41.9 18.9 40.7 15.75 Q39.5 12.6 37.45 10.5 Q35.4 8.4 32.65 7.35 Q29.9 6.3 26.9 6.3 Q23.7 6.3 21.05 7.25 Q18.4 8.2 16.45 9.95 Q14.5 11.7 13.35 14.05 Q12.2 16.4 12 19.1 L3.5 19.1 Q3.6 14.3 5.4 10.5 Q7.2 6.7 10.3 4.15 Q13.4 1.6 17.45 0.25 Q21.5 -1.1 26.1 -1.1 Q32.3 -1.1 36.95 0.85 Q41.6 2.8 44.7 6.1 Q47.8 9.4 49.35 13.65 Q50.9 17.9 50.9 22.4 Q50.9 28.5 49.1 33.05 Q47.3 37.6 44.2 40.65 Q41.1 43.7 36.9 45.2 Q32.7 46.7 28 46.7 Q24.4 46.7 20.75 45.45 Q17.1 44.2 14.8 41.6 L14.6 41.8 L18.4 62.2 Z"
        /><glyph unicode="1" horiz-adv-x="55.6" d="M35.6 0 L35.6 70.9 L29.1 70.9 Q28.4 66.9 26.5 64.3 Q24.6 61.7 21.85 60.2 Q19.1 58.7 15.7 58.15 Q12.3 57.6 8.7 57.6 L8.7 50.8 L27.1 50.8 L27.1 0 Z"
        /><glyph unicode="2" horiz-adv-x="55.6" d="M4.4 45.8 L12.9 45.8 Q12.8 49 13.55 52.15 Q14.3 55.3 16 57.8 Q17.7 60.3 20.35 61.85 Q23 63.4 26.7 63.4 Q29.5 63.4 32 62.5 Q34.5 61.6 36.35 59.9 Q38.2 58.2 39.3 55.85 Q40.4 53.5 40.4 50.6 Q40.4 46.9 39.25 44.1 Q38.1 41.3 35.85 38.9 Q33.6 36.5 30.2 34.15 Q26.8 31.8 22.3 29 Q18.6 26.8 15.2 24.3 Q11.8 21.8 9.1 18.5 Q6.4 15.2 4.65 10.75 Q2.9 6.3 2.4 0 L48.7 0 L48.7 7.5 L12.3 7.5 Q12.9 10.8 14.85 13.35 Q16.8 15.9 19.55 18.1 Q22.3 20.3 25.6 22.25 Q28.9 24.2 32.2 26.2 Q35.5 28.3 38.6 30.6 Q41.7 32.9 44.1 35.75 Q46.5 38.6 47.95 42.2 Q49.4 45.8 49.4 50.5 Q49.4 55.5 47.65 59.3 Q45.9 63.1 42.9 65.65 Q39.9 68.2 35.85 69.55 Q31.8 70.9 27.2 70.9 Q21.6 70.9 17.2 69 Q12.8 67.1 9.85 63.75 Q6.9 60.4 5.5 55.8 Q4.1 51.2 4.4 45.8 Z"
        /><glyph unicode="3" horiz-adv-x="55.6" d="M21.8 40.5 L21.8 33.3 Q24.2 33.6 26.9 33.6 Q30.1 33.6 32.85 32.75 Q35.6 31.9 37.6 30.15 Q39.6 28.4 40.8 25.85 Q42 23.3 42 20 Q42 16.8 40.75 14.25 Q39.5 11.7 37.4 9.95 Q35.3 8.2 32.5 7.25 Q29.7 6.3 26.6 6.3 Q19.3 6.3 15.5 10.65 Q11.7 15 11.5 21.9 L3 21.9 Q2.9 16.4 4.55 12.1 Q6.2 7.8 9.3 4.85 Q12.4 1.9 16.8 0.4 Q21.2 -1.1 26.6 -1.1 Q31.6 -1.1 36.05 0.25 Q40.5 1.6 43.8 4.3 Q47.1 7 49.05 11.05 Q51 15.1 51 20.4 Q51 26.8 47.85 31.5 Q44.7 36.2 38.2 37.6 L38.2 37.8 Q42.4 39.7 45.2 43.4 Q48 47.1 48 51.9 Q48 56.8 46.35 60.4 Q44.7 64 41.8 66.3 Q38.9 68.6 34.95 69.75 Q31 70.9 26.4 70.9 Q21.1 70.9 17.05 69.2 Q13 67.5 10.3 64.5 Q7.6 61.5 6.15 57.3 Q4.7 53.1 4.5 48 L13 48 Q13 51.1 13.8 53.9 Q14.6 56.7 16.25 58.8 Q17.9 60.9 20.45 62.15 Q23 63.4 26.4 63.4 Q31.8 63.4 35.4 60.55 Q39 57.7 39 52 Q39 49.2 37.9 47 Q36.8 44.8 34.95 43.35 Q33.1 41.9 30.65 41.15 Q28.2 40.4 25.5 40.4 L23.7 40.4 Q23.2 40.4 22.7 40.4 Q22.3 40.4 21.8 40.5 Z"
        /><glyph unicode="4" horiz-adv-x="55.6" d="M33.9 24.1 L10.1 24.1 L33.7 58.8 L33.9 58.8 ZM41.9 24.1 L41.9 70.9 L35.1 70.9 L2.8 24.8 L2.8 16.6 L33.9 16.6 L33.9 0 L41.9 0 L41.9 16.6 L51.5 16.6 L51.5 24.1 Z"
        /><glyph unicode="s" horiz-adv-x="50.0" d="M11.6 16.3 L3.1 16.3 Q3.3 11.5 5.1 8.15 Q6.9 4.8 9.9 2.75 Q12.9 0.7 16.8 -0.2 Q20.7 -1.1 25 -1.1 Q28.9 -1.1 32.85 -0.35 Q36.8 0.4 39.95 2.3 Q43.1 4.2 45.05 7.3 Q47 10.4 47 15.1 Q47 18.8 45.55 21.3 Q44.1 23.8 41.75 25.45 Q39.4 27.1 36.35 28.1 Q33.3 29.1 30.1 29.8 Q27.1 30.5 24.1 31.15 Q21.1 31.8 18.7 32.75 Q16.3 33.7 14.75 35.15 Q13.2 36.6 13.2 38.8 Q13.2 40.8 14.2 42.05 Q15.2 43.3 16.8 44.05 Q18.4 44.8 20.35 45.1 Q22.3 45.4 24.2 45.4 Q26.3 45.4 28.35 44.95 Q30.4 44.5 32.1 43.5 Q33.8 42.5 34.9 40.85 Q36 39.2 36.2 36.7 L44.7 36.7 Q44.4 41.4 42.7 44.55 Q41 47.7 38.15 49.55 Q35.3 51.4 31.6 52.15 Q27.9 52.9 23.5 52.9 Q20.1 52.9 16.65 52.05 Q13.2 51.2 10.45 49.45 Q7.7 47.7 5.95 44.9 Q4.2 42.1 4.2 38.2 Q4.2 33.2 6.7 30.4 Q9.2 27.6 12.95 26.05 Q16.7 24.5 21.1 23.65 Q25.5 22.8 29.25 21.75 Q33 20.7 35.5 19 Q38 17.3 38 14 Q38 11.6 36.8 10.05 Q35.6 8.5 33.75 7.7 Q31.9 6.9 29.7 6.6 Q27.5 6.3 25.5 6.3 Q22.9 6.3 20.45 6.8 Q18 7.3 16.05 8.45 Q14.1 9.6 12.9 11.55 Q11.7 13.5 11.6 16.3 Z"
        /><glyph unicode="n" horiz-adv-x="55.6" d="M6.4 51.7 L6.4 0 L14.9 0 L14.9 29.2 Q14.9 32.7 15.85 35.65 Q16.8 38.6 18.7 40.8 Q20.6 43 23.45 44.2 Q26.3 45.4 30.2 45.4 Q35.1 45.4 37.9 42.6 Q40.7 39.8 40.7 35 L40.7 0 L49.2 0 L49.2 34 Q49.2 38.2 48.35 41.65 Q47.5 45.1 45.4 47.6 Q43.3 50.1 39.9 51.5 Q36.5 52.9 31.4 52.9 Q19.9 52.9 14.6 43.5 L14.4 43.5 L14.4 51.7 Z"
        /><glyph unicode="o" horiz-adv-x="57.4" d="M12.6 25.8 Q12.6 30.5 13.85 34.15 Q15.1 37.8 17.3 40.3 Q19.5 42.8 22.45 44.1 Q25.4 45.4 28.7 45.4 Q32 45.4 34.95 44.1 Q37.9 42.8 40.1 40.3 Q42.3 37.8 43.55 34.15 Q44.8 30.5 44.8 25.8 Q44.8 21.1 43.55 17.45 Q42.3 13.8 40.1 11.35 Q37.9 8.9 34.95 7.6 Q32 6.3 28.7 6.3 Q25.4 6.3 22.45 7.6 Q19.5 8.9 17.3 11.35 Q15.1 13.8 13.85 17.45 Q12.6 21.1 12.6 25.8 ZM3.6 25.8 Q3.6 20.1 5.2 15.2 Q6.8 10.3 10 6.65 Q13.2 3 17.9 0.95 Q22.6 -1.1 28.7 -1.1 Q34.9 -1.1 39.55 0.95 Q44.2 3 47.4 6.65 Q50.6 10.3 52.2 15.2 Q53.8 20.1 53.8 25.8 Q53.8 31.5 52.2 36.45 Q50.6 41.4 47.4 45.05 Q44.2 48.7 39.55 50.8 Q34.9 52.9 28.7 52.9 Q22.6 52.9 17.9 50.8 Q13.2 48.7 10 45.05 Q6.8 41.4 5.2 36.45 Q3.6 31.5 3.6 25.8 Z"
        /><glyph unicode="i" horiz-adv-x="22.2" d="M15.4 61 L15.4 71.4 L6.9 71.4 L6.9 61 ZM6.9 51.7 L6.9 0 L15.4 0 L15.4 51.7 Z"
        /><glyph unicode="a" horiz-adv-x="53.7" d="M52.2 0.2 Q50 -1.1 46.1 -1.1 Q42.8 -1.1 40.85 0.75 Q38.9 2.6 38.9 6.8 Q35.4 2.6 30.75 0.75 Q26.1 -1.1 20.7 -1.1 Q17.2 -1.1 14.05 -0.3 Q10.9 0.5 8.6 2.2 Q6.3 3.9 4.95 6.65 Q3.6 9.4 3.6 13.3 Q3.6 17.7 5.1 20.5 Q6.6 23.3 9.05 25.05 Q11.5 26.8 14.65 27.7 Q17.8 28.6 21.1 29.2 Q24.6 29.9 27.75 30.25 Q30.9 30.6 33.3 31.25 Q35.7 31.9 37.1 33.15 Q38.5 34.4 38.5 36.8 Q38.5 39.6 37.45 41.3 Q36.4 43 34.75 43.9 Q33.1 44.8 31.05 45.1 Q29 45.4 27 45.4 Q21.6 45.4 18 43.35 Q14.4 41.3 14.1 35.6 L5.6 35.6 Q5.8 40.4 7.6 43.7 Q9.4 47 12.4 49.05 Q15.4 51.1 19.25 52 Q23.1 52.9 27.5 52.9 Q31 52.9 34.45 52.4 Q37.9 51.9 40.7 50.35 Q43.5 48.8 45.2 46 Q46.9 43.2 46.9 38.7 L46.9 12.1 Q46.9 9.1 47.25 7.7 Q47.6 6.3 49.6 6.3 Q50.7 6.3 52.2 6.8 ZM38.4 26.7 Q36.8 25.5 34.2 24.95 Q31.6 24.4 28.75 24.05 Q25.9 23.7 23 23.25 Q20.1 22.8 17.8 21.8 Q15.5 20.8 14.05 18.95 Q12.6 17.1 12.6 13.9 Q12.6 11.8 13.45 10.35 Q14.3 8.9 15.65 8 Q17 7.1 18.8 6.7 Q20.6 6.3 22.6 6.3 Q26.8 6.3 29.8 7.45 Q32.8 8.6 34.7 10.35 Q36.6 12.1 37.5 14.15 Q38.4 16.2 38.4 18 Z"
        /><glyph unicode="r" horiz-adv-x="33.3" d="M6.1 51.7 L6.1 0 L14.6 0 L14.6 23 Q14.6 28 15.6 31.85 Q16.6 35.7 18.8 38.4 Q21 41.1 24.6 42.5 Q28.2 43.9 33.3 43.9 L33.3 52.9 Q26.4 53.1 21.9 50.1 Q17.4 47.1 14.3 40.8 L14.1 40.8 L14.1 51.7 Z"
        /><glyph unicode="e" horiz-adv-x="53.7" d="M42.3 30.8 L12.6 30.8 Q12.8 33.8 13.9 36.45 Q15 39.1 16.9 41.1 Q18.8 43.1 21.45 44.25 Q24.1 45.4 27.4 45.4 Q30.6 45.4 33.25 44.25 Q35.9 43.1 37.85 41.15 Q39.8 39.2 40.95 36.5 Q42.1 33.8 42.3 30.8 ZM50.5 16.4 L42.1 16.4 Q41 11.3 37.55 8.8 Q34.1 6.3 28.7 6.3 Q24.5 6.3 21.4 7.7 Q18.3 9.1 16.3 11.45 Q14.3 13.8 13.4 16.85 Q12.5 19.9 12.6 23.3 L51.3 23.3 Q51.5 28 50.45 33.2 Q49.4 38.4 46.65 42.8 Q43.9 47.2 39.35 50.05 Q34.8 52.9 27.9 52.9 Q22.6 52.9 18.15 50.9 Q13.7 48.9 10.45 45.3 Q7.2 41.7 5.4 36.8 Q3.6 31.9 3.6 26 Q3.8 20.1 5.35 15.1 Q6.9 10.1 10 6.5 Q13.1 2.9 17.65 0.9 Q22.2 -1.1 28.4 -1.1 Q37.2 -1.1 43 3.3 Q48.8 7.7 50.5 16.4 Z"
        /><glyph unicode="t" horiz-adv-x="31.5" d="M18.2 51.7 L18.2 67.2 L9.7 67.2 L9.7 51.7 L0.9 51.7 L0.9 44.2 L9.7 44.2 L9.7 11.3 Q9.7 7.7 10.4 5.5 Q11.1 3.3 12.55 2.1 Q14 0.9 16.35 0.45 Q18.7 0 22 0 L28.5 0 L28.5 7.5 L24.6 7.5 Q22.6 7.5 21.35 7.65 Q20.1 7.8 19.4 8.3 Q18.7 8.8 18.45 9.7 Q18.2 10.6 18.2 12.1 L18.2 44.2 L28.5 44.2 L28.5 51.7 Z"
        /><glyph unicode="I" horiz-adv-x="25.9" d="M8.2 71.4 L8.2 0 L17.7 0 L17.7 71.4 Z"
        /><glyph unicode=" " horiz-adv-x="27.8" d=""
        /><glyph unicode="N" horiz-adv-x="72.2" d="M7.7 71.4 L7.7 0 L16.7 0 L16.7 57.3 L16.9 57.3 L54.2 0 L64.6 0 L64.6 71.4 L55.6 71.4 L55.6 13.5 L55.4 13.5 L17.8 71.4 Z"
        /><glyph unicode="-" horiz-adv-x="38.9" d="M5 31.8 L5 23.8 L33.9 23.8 L33.9 31.8 Z"
        /><glyph unicode="9" horiz-adv-x="55.6" d="M13.4 17.1 L4.9 17.1 Q5.7 7.9 11.6 3.4 Q17.5 -1.1 26.4 -1.1 Q39.3 -1.1 45.15 8.75 Q51 18.6 51 37 Q51 47.1 49.05 53.65 Q47.1 60.2 43.8 64 Q40.5 67.8 36.1 69.35 Q31.7 70.9 26.7 70.9 Q21.6 70.9 17.3 69.2 Q13 67.5 9.9 64.45 Q6.8 61.4 5.1 57.15 Q3.4 52.9 3.4 47.8 Q3.4 42.6 4.85 38.2 Q6.3 33.8 9.15 30.7 Q12 27.6 16.2 25.85 Q20.4 24.1 25.8 24.1 Q31 24.1 35.4 26.75 Q39.8 29.4 42.2 33.9 L42.4 33.7 Q42 19.8 38.1 13.05 Q34.2 6.3 26.4 6.3 Q21.3 6.3 17.6 9.1 Q13.9 11.9 13.4 17.1 ZM40.9 47.2 Q40.9 44.1 39.9 41.25 Q38.9 38.4 37 36.25 Q35.1 34.1 32.4 32.85 Q29.7 31.6 26.4 31.6 Q23.3 31.6 20.75 32.85 Q18.2 34.1 16.35 36.2 Q14.5 38.3 13.45 41 Q12.4 43.7 12.4 46.6 Q12.4 49.9 13.15 52.9 Q13.9 55.9 15.55 58.25 Q17.2 60.6 19.85 62 Q22.5 63.4 26.3 63.4 Q29.9 63.4 32.6 62.1 Q35.3 60.8 37.15 58.55 Q39 56.3 39.95 53.4 Q40.9 50.5 40.9 47.2 Z"
        /><glyph unicode="8" horiz-adv-x="55.6" d="M15.5 52.5 Q15.5 55.2 16.5 57.2 Q17.5 59.2 19.15 60.6 Q20.8 62 23.1 62.7 Q25.4 63.4 27.9 63.4 Q33.1 63.4 36.45 60.65 Q39.8 57.9 39.8 52.5 Q39.8 47.1 36.5 44.1 Q33.2 41.1 28.1 41.1 Q25.5 41.1 23.2 41.8 Q20.9 42.5 19.2 43.9 Q17.5 45.3 16.5 47.45 Q15.5 49.6 15.5 52.5 ZM6.5 52.8 Q6.5 48 9.2 43.95 Q11.9 39.9 16.4 38.1 Q10.4 36 7.2 31.35 Q4 26.7 4 20.4 Q4 15 5.85 10.95 Q7.7 6.9 10.95 4.2 Q14.2 1.5 18.6 0.2 Q23 -1.1 28.1 -1.1 Q33 -1.1 37.3 0.3 Q41.6 1.7 44.75 4.45 Q47.9 7.2 49.75 11.2 Q51.6 15.2 51.6 20.4 Q51.6 27 48.5 31.55 Q45.4 36.1 39 38.1 Q43.5 40.1 46.15 44.05 Q48.8 48 48.8 52.8 Q48.8 56.2 47.6 59.45 Q46.4 62.7 43.85 65.25 Q41.3 67.8 37.2 69.35 Q33.1 70.9 27.3 70.9 Q23.2 70.9 19.45 69.7 Q15.7 68.5 12.8 66.2 Q9.9 63.9 8.2 60.55 Q6.5 57.2 6.5 52.8 ZM13 20 Q13 23.1 14.15 25.6 Q15.3 28.1 17.35 29.9 Q19.4 31.7 22.15 32.65 Q24.9 33.6 28 33.6 Q31 33.6 33.65 32.55 Q36.3 31.5 38.3 29.7 Q40.3 27.9 41.45 25.45 Q42.6 23 42.6 20.1 Q42.6 17.1 41.55 14.6 Q40.5 12.1 38.55 10.25 Q36.6 8.4 33.95 7.35 Q31.3 6.3 28.1 6.3 Q21.5 6.3 17.25 9.95 Q13 13.6 13 20 Z"
        /><glyph unicode=")" horiz-adv-x="25.9" d="M-0.9 -19.7 L5.5 -19.7 Q13.3 -9.4 17.25 2.55 Q21.2 14.5 21.2 26.3 Q21.2 32.9 20.1 38.9 Q19 44.9 16.95 50.65 Q14.9 56.4 12 61.95 Q9.1 67.5 5.5 73.1 L-0.9 73.1 Q6.1 61.6 9.15 50.25 Q12.2 38.9 12.2 26.3 Q12.2 14.1 9.2 2.85 Q6.2 -8.4 -0.9 -19.7 Z"
        /><glyph unicode="x" horiz-adv-x="51.8" d="M20.3 27.2 L0.9 0 L11.2 0 L25.6 21.4 L40 0 L50.9 0 L30.9 27.9 L48.7 51.7 L38.5 51.7 L25.6 33.6 L13.2 51.7 L2.3 51.7 Z"
        /><glyph unicode="(" horiz-adv-x="25.9" d="M20.4 -19.7 L26.9 -19.7 Q19.8 -8.2 16.75 3.1 Q13.7 14.4 13.7 27 Q13.7 39.3 16.7 50.5 Q19.7 61.7 26.9 73.1 L20.4 73.1 Q12.6 62.8 8.65 50.8 Q4.7 38.8 4.7 27 Q4.7 20.4 5.8 14.4 Q6.9 8.4 8.95 2.7 Q11 -3 13.9 -8.55 Q16.8 -14.1 20.4 -19.7 Z"
        /><glyph unicode="f" horiz-adv-x="29.6" d="M9.9 44.2 L9.9 0 L18.4 0 L18.4 44.2 L28.4 44.2 L28.4 51.7 L18.4 51.7 L18.4 58.9 Q18.4 62.3 20.1 63.5 Q21.8 64.7 24.9 64.7 Q26 64.7 27.3 64.55 Q28.6 64.4 29.7 64 L29.7 71.4 Q28.5 71.8 26.95 72 Q25.4 72.2 24.2 72.2 Q17.2 72.2 13.55 68.95 Q9.9 65.7 9.9 59.4 L9.9 51.7 L1.2 51.7 L1.2 44.2 Z"
        /><glyph unicode="M" horiz-adv-x="87.1" d="M8 71.4 L8 0 L17 0 L17 59.4 L17.2 59.4 L39.5 0 L47.6 0 L69.9 59.4 L70.1 59.4 L70.1 0 L79.1 0 L79.1 71.4 L66.1 71.4 L43.5 11.4 L21 71.4 Z"
        /><glyph unicode="A" horiz-adv-x="64.8" d="M20.1 29.5 L32.2 62.8 L32.4 62.8 L44.3 29.5 ZM27.2 71.4 L-0.6 0 L9.1 0 L17.1 21.5 L47.3 21.5 L55.1 0 L65.6 0 L37.7 71.4 Z"
        /><glyph unicode="S" horiz-adv-x="64.8" d="M49.1 50.5 L58.1 50.5 Q57.9 56.4 55.85 60.65 Q53.8 64.9 50.25 67.7 Q46.7 70.5 42 71.8 Q37.3 73.1 31.8 73.1 Q26.9 73.1 22.25 71.85 Q17.6 70.6 13.95 68.05 Q10.3 65.5 8.1 61.55 Q5.9 57.6 5.9 52.2 Q5.9 47.3 7.85 44.05 Q9.8 40.8 13.05 38.75 Q16.3 36.7 20.4 35.45 Q24.5 34.2 28.75 33.25 Q33 32.3 37.1 31.4 Q41.2 30.5 44.45 29.05 Q47.7 27.6 49.65 25.3 Q51.6 23 51.6 19.3 Q51.6 15.4 50 12.9 Q48.4 10.4 45.8 8.95 Q43.2 7.5 39.95 6.9 Q36.7 6.3 33.5 6.3 Q29.5 6.3 25.7 7.3 Q21.9 8.3 19.05 10.4 Q16.2 12.5 14.45 15.75 Q12.7 19 12.7 23.5 L3.7 23.5 Q3.7 17 6.05 12.25 Q8.4 7.5 12.45 4.45 Q16.5 1.4 21.85 -0.1 Q27.2 -1.6 33.2 -1.6 Q38.1 -1.6 43.05 -0.45 Q48 0.7 52 3.25 Q56 5.8 58.55 9.85 Q61.1 13.9 61.1 19.6 Q61.1 24.9 59.15 28.4 Q57.2 31.9 53.95 34.2 Q50.7 36.5 46.6 37.85 Q42.5 39.2 38.25 40.2 Q34 41.2 29.9 42.05 Q25.8 42.9 22.55 44.2 Q19.3 45.5 17.35 47.55 Q15.4 49.6 15.4 52.9 Q15.4 56.4 16.75 58.75 Q18.1 61.1 20.35 62.5 Q22.6 63.9 25.5 64.5 Q28.4 65.1 31.4 65.1 Q38.8 65.1 43.55 61.65 Q48.3 58.2 49.1 50.5 Z"
        /><glyph unicode="G" horiz-adv-x="75.9" d="M61.2 8.9 L63.7 0 L69.7 0 L69.7 37.6 L38.4 37.6 L38.4 29.6 L61.2 29.6 Q61.4 24.7 59.9 20.45 Q58.4 16.2 55.45 13.05 Q52.5 9.9 48.2 8.1 Q43.9 6.3 38.3 6.3 Q32.3 6.3 27.75 8.65 Q23.2 11 20.1 14.95 Q17 18.9 15.4 24.05 Q13.8 29.2 13.8 34.8 Q13.8 40.5 15.2 45.95 Q16.6 51.4 19.55 55.65 Q22.5 59.9 27.15 62.5 Q31.8 65.1 38.3 65.1 Q42.3 65.1 45.85 64.15 Q49.4 63.2 52.2 61.3 Q55 59.4 56.9 56.45 Q58.8 53.5 59.5 49.4 L69 49.4 Q68 55.7 65.25 60.15 Q62.5 64.6 58.45 67.5 Q54.4 70.4 49.25 71.75 Q44.1 73.1 38.3 73.1 Q29.8 73.1 23.45 69.95 Q17.1 66.8 12.85 61.5 Q8.6 56.2 6.45 49.15 Q4.3 42.1 4.3 34.3 Q4.3 27.3 6.6 20.8 Q8.9 14.3 13.3 9.3 Q17.7 4.3 24 1.35 Q30.3 -1.6 38.3 -1.6 Q44.6 -1.6 50.8 0.85 Q57 3.3 61.2 8.9 Z"
        /><glyph unicode="C" horiz-adv-x="72.2" d="M58 49.9 L67.5 49.9 Q66.7 55.6 64.1 59.95 Q61.5 64.3 57.6 67.2 Q53.7 70.1 48.7 71.6 Q43.7 73.1 38.1 73.1 Q29.9 73.1 23.55 70.15 Q17.2 67.2 12.95 62.1 Q8.7 57 6.5 50.15 Q4.3 43.3 4.3 35.5 Q4.3 27.7 6.35 20.9 Q8.4 14.1 12.5 9.1 Q16.6 4.1 22.8 1.25 Q29 -1.6 37.3 -1.6 Q51 -1.6 58.9 5.9 Q66.8 13.4 68.2 26.9 L58.7 26.9 Q58.4 22.5 56.9 18.7 Q55.4 14.9 52.75 12.15 Q50.1 9.4 46.45 7.85 Q42.8 6.3 38.1 6.3 Q31.7 6.3 27.1 8.7 Q22.5 11.1 19.55 15.15 Q16.6 19.2 15.2 24.65 Q13.8 30.1 13.8 36.2 Q13.8 41.8 15.2 47 Q16.6 52.2 19.55 56.25 Q22.5 60.3 27.05 62.7 Q31.6 65.1 38 65.1 Q45.5 65.1 50.95 61.3 Q56.4 57.5 58 49.9 Z"
      /></font
      ><font horiz-adv-x="50.0" id="font2"
      ><font-face ascent="97.5" descent="21.699999" units-per-em="100" style="font-style:normal; font-family:Helvetica Neue; font-weight:bold;"
        /><missing-glyph horiz-adv-x="50.0" d="M39.1 60.7 L11.1 60.7 L11.1 9.5 L39.1 9.5 ZM48.2 69.8 L48.2 0.3 L1.7 0.3 L1.7 69.8 Z"
        /><glyph unicode="0" horiz-adv-x="55.6" d="M16.3 35.3 Q16.3 37.1 16.35 39.65 Q16.4 42.2 16.7 44.9 Q17 47.6 17.7 50.25 Q18.4 52.9 19.65 55 Q20.9 57.1 22.85 58.4 Q24.8 59.7 27.7 59.7 Q30.6 59.7 32.6 58.4 Q34.6 57.1 35.9 55 Q37.2 52.9 37.85 50.25 Q38.5 47.6 38.85 44.9 Q39.2 42.2 39.25 39.65 Q39.3 37.1 39.3 35.3 Q39.3 32.3 39.1 28.05 Q38.9 23.8 37.85 19.85 Q36.8 15.9 34.45 13.1 Q32.1 10.3 27.7 10.3 Q23.4 10.3 21.1 13.1 Q18.8 15.9 17.75 19.85 Q16.7 23.8 16.5 28.05 Q16.3 32.3 16.3 35.3 ZM2.1 35.3 Q2.1 24.8 4.15 17.75 Q6.2 10.7 9.7 6.5 Q13.2 2.3 17.85 0.5 Q22.5 -1.3 27.7 -1.3 Q33 -1.3 37.65 0.5 Q42.3 2.3 45.85 6.5 Q49.4 10.7 51.45 17.75 Q53.5 24.8 53.5 35.3 Q53.5 45.5 51.45 52.45 Q49.4 59.4 45.85 63.6 Q42.3 67.8 37.65 69.6 Q33 71.4 27.7 71.4 Q22.5 71.4 17.85 69.6 Q13.2 67.8 9.7 63.6 Q6.2 59.4 4.15 52.45 Q2.1 45.5 2.1 35.3 Z"
        /><glyph unicode="1" horiz-adv-x="55.6" d="M39.2 0 L39.2 70 L27.9 70 Q27.3 66 25.4 63.3 Q23.5 60.6 20.75 58.95 Q18 57.3 14.55 56.65 Q11.1 56 7.4 56.1 L7.4 45.4 L25 45.4 L25 0 Z"
        /><glyph unicode="m" horiz-adv-x="90.6" d="M5.8 51.7 L5.8 0 L20 0 L20 30 Q20 33.8 21.1 36.15 Q22.2 38.5 23.75 39.75 Q25.3 41 26.95 41.45 Q28.6 41.9 29.6 41.9 Q33 41.9 34.75 40.75 Q36.5 39.6 37.25 37.7 Q38 35.8 38.1 33.55 Q38.2 31.3 38.2 29 L38.2 0 L52.4 0 L52.4 28.8 Q52.4 31.2 52.75 33.55 Q53.1 35.9 54.15 37.75 Q55.2 39.6 57.05 40.75 Q58.9 41.9 61.9 41.9 Q64.9 41.9 66.65 40.9 Q68.4 39.9 69.3 38.2 Q70.2 36.5 70.4 34.2 Q70.6 31.9 70.6 29.3 L70.6 0 L84.8 0 L84.8 34.6 Q84.8 39.6 83.4 43.15 Q82 46.7 79.5 48.9 Q77 51.1 73.5 52.1 Q70 53.1 65.9 53.1 Q60.5 53.1 56.55 50.5 Q52.6 47.9 50.3 44.5 Q48.2 49.3 44.15 51.2 Q40.1 53.1 35.2 53.1 Q30.1 53.1 26.15 50.9 Q22.2 48.7 19.4 44.7 L19.2 44.7 L19.2 51.7 Z"
        /><glyph unicode="e" horiz-adv-x="57.4" d="M40.2 31.4 L17.1 31.4 Q17.2 32.9 17.75 34.8 Q18.3 36.7 19.65 38.4 Q21 40.1 23.25 41.25 Q25.5 42.4 28.9 42.4 Q34.1 42.4 36.65 39.6 Q39.2 36.8 40.2 31.4 ZM17.1 22.4 L54.4 22.4 Q54.8 28.4 53.4 33.9 Q52 39.4 48.85 43.7 Q45.7 48 40.8 50.55 Q35.9 53.1 29.3 53.1 Q23.4 53.1 18.55 51 Q13.7 48.9 10.2 45.25 Q6.7 41.6 4.8 36.6 Q2.9 31.6 2.9 25.8 Q2.9 19.8 4.75 14.8 Q6.6 9.8 10 6.2 Q13.4 2.6 18.3 0.65 Q23.2 -1.3 29.3 -1.3 Q38.1 -1.3 44.3 2.7 Q50.5 6.7 53.5 16 L41 16 Q40.3 13.6 37.2 11.45 Q34.1 9.3 29.8 9.3 Q23.8 9.3 20.6 12.4 Q17.4 15.5 17.1 22.4 Z"
        /><glyph unicode="l" horiz-adv-x="25.8" d="M5.8 71.4 L5.8 0 L20 0 L20 71.4 Z"
        /><glyph unicode="b" horiz-adv-x="61.1" d="M43.3 25.8 Q43.3 22.6 42.6 19.6 Q41.9 16.6 40.4 14.3 Q38.9 12 36.65 10.65 Q34.4 9.3 31.2 9.3 Q28.1 9.3 25.8 10.65 Q23.5 12 22 14.3 Q20.5 16.6 19.8 19.6 Q19.1 22.6 19.1 25.8 Q19.1 29.1 19.8 32.1 Q20.5 35.1 22 37.4 Q23.5 39.7 25.8 41.05 Q28.1 42.4 31.2 42.4 Q34.4 42.4 36.65 41.05 Q38.9 39.7 40.4 37.4 Q41.9 35.1 42.6 32.1 Q43.3 29.1 43.3 25.8 ZM5.4 71.4 L5.4 0 L18.9 0 L18.9 6.6 L19.1 6.6 Q21.4 2.3 25.9 0.5 Q30.4 -1.3 36.1 -1.3 Q40 -1.3 43.8 0.3 Q47.6 1.9 50.65 5.2 Q53.7 8.5 55.6 13.65 Q57.5 18.8 57.5 25.9 Q57.5 33 55.6 38.15 Q53.7 43.3 50.65 46.6 Q47.6 49.9 43.8 51.5 Q40 53.1 36.1 53.1 Q31.3 53.1 26.85 51.25 Q22.4 49.4 19.8 45.4 L19.6 45.4 L19.6 71.4 Z"
        /><glyph unicode="o" horiz-adv-x="61.1" d="M18 25.8 Q18 28.9 18.6 31.9 Q19.2 34.9 20.65 37.2 Q22.1 39.5 24.5 40.95 Q26.9 42.4 30.5 42.4 Q34.1 42.4 36.55 40.95 Q39 39.5 40.45 37.2 Q41.9 34.9 42.5 31.9 Q43.1 28.9 43.1 25.8 Q43.1 22.7 42.5 19.75 Q41.9 16.8 40.45 14.45 Q39 12.1 36.55 10.7 Q34.1 9.3 30.5 9.3 Q26.9 9.3 24.5 10.7 Q22.1 12.1 20.65 14.45 Q19.2 16.8 18.6 19.75 Q18 22.7 18 25.8 ZM3.8 25.8 Q3.8 19.6 5.7 14.6 Q7.6 9.6 11.1 6.05 Q14.6 2.5 19.5 0.6 Q24.4 -1.3 30.5 -1.3 Q36.6 -1.3 41.55 0.6 Q46.5 2.5 50 6.05 Q53.5 9.6 55.4 14.6 Q57.3 19.6 57.3 25.8 Q57.3 32 55.4 37.05 Q53.5 42.1 50 45.65 Q46.5 49.2 41.55 51.15 Q36.6 53.1 30.5 53.1 Q24.4 53.1 19.5 51.15 Q14.6 49.2 11.1 45.65 Q7.6 42.1 5.7 37.05 Q3.8 32 3.8 25.8 Z"
        /><glyph unicode="r" horiz-adv-x="38.9" d="M5.4 51.7 L5.4 0 L19.6 0 L19.6 23.3 Q19.6 26.8 20.3 29.8 Q21 32.8 22.65 35.05 Q24.3 37.3 27 38.6 Q29.7 39.9 33.6 39.9 Q34.9 39.9 36.3 39.75 Q37.7 39.6 38.7 39.4 L38.7 52.6 Q37 53.1 35.6 53.1 Q32.9 53.1 30.4 52.3 Q27.9 51.5 25.7 50.05 Q23.5 48.6 21.8 46.55 Q20.1 44.5 19.1 42.1 L18.9 42.1 L18.9 51.7 Z"
        /><glyph unicode="P" horiz-adv-x="66.7" d="M22.6 37.8 L22.6 59.2 L34.8 59.2 Q37.5 59.2 40 58.8 Q42.5 58.4 44.4 57.25 Q46.3 56.1 47.45 54 Q48.6 51.9 48.6 48.5 Q48.6 45.1 47.45 43 Q46.3 40.9 44.4 39.75 Q42.5 38.6 40 38.2 Q37.5 37.8 34.8 37.8 ZM6.9 71.4 L6.9 0 L22.6 0 L22.6 25.6 L39.1 25.6 Q45.8 25.6 50.5 27.55 Q55.2 29.5 58.15 32.7 Q61.1 35.9 62.45 40.05 Q63.8 44.2 63.8 48.5 Q63.8 52.9 62.45 57 Q61.1 61.1 58.15 64.3 Q55.2 67.5 50.5 69.45 Q45.8 71.4 39.1 71.4 Z"
      /></font
    ></defs
    ><g style="fill:white; stroke:white;"
    ><rect x="0" y="0" width="560" style="clip-path:url(#clipPath1); stroke:none;" height="420"
    /></g
    ><g style="fill:white; text-rendering:optimizeSpeed; color-rendering:optimizeSpeed; image-rendering:optimizeSpeed; shape-rendering:crispEdges; stroke:white; color-interpolation:sRGB;"
    ><rect x="0" width="560" height="420" y="0" style="stroke:none;"
      /><path style="stroke:none;" d="M73 374 L507 374 L507 31 L73 31 Z"
    /></g
    ><g style="fill:rgb(38,38,38); text-rendering:geometricPrecision; image-rendering:optimizeQuality; color-rendering:optimizeQuality; stroke-linejoin:round; stroke:rgb(38,38,38); color-interpolation:linearRGB; stroke-width:0.5;"
    ><line y2="374" style="fill:none;" x1="73" x2="507" y1="374"
      /><line y2="369.66" style="fill:none;" x1="73" x2="73" y1="374"
      /><line y2="369.66" style="fill:none;" x1="116.4" x2="116.4" y1="374"
      /><line y2="369.66" style="fill:none;" x1="159.8" x2="159.8" y1="374"
      /><line y2="369.66" style="fill:none;" x1="203.2" x2="203.2" y1="374"
      /><line y2="369.66" style="fill:none;" x1="246.6" x2="246.6" y1="374"
      /><line y2="369.66" style="fill:none;" x1="290" x2="290" y1="374"
      /><line y2="369.66" style="fill:none;" x1="333.4" x2="333.4" y1="374"
      /><line y2="369.66" style="fill:none;" x1="376.8" x2="376.8" y1="374"
      /><line y2="369.66" style="fill:none;" x1="420.2" x2="420.2" y1="374"
      /><line y2="369.66" style="fill:none;" x1="463.6" x2="463.6" y1="374"
      /><line y2="369.66" style="fill:none;" x1="507" x2="507" y1="374"
    /></g
    ><g transform="translate(73,378)" style="font-size:10px; fill:rgb(38,38,38); text-rendering:geometricPrecision; image-rendering:optimizeQuality; color-rendering:optimizeQuality; font-family:'Helvetica Neue'; stroke:rgb(38,38,38); color-interpolation:linearRGB;"
    ><text x="-3" xml:space="preserve" y="10" style="stroke:none;"
      >0</text
    ></g
    ><g transform="translate(116.4,378)" style="font-size:10px; fill:rgb(38,38,38); text-rendering:geometricPrecision; image-rendering:optimizeQuality; color-rendering:optimizeQuality; font-family:'Helvetica Neue'; stroke:rgb(38,38,38); color-interpolation:linearRGB;"
    ><text x="-6" xml:space="preserve" y="10" style="stroke:none;"
      >50</text
    ></g
    ><g transform="translate(159.8,378)" style="font-size:10px; fill:rgb(38,38,38); text-rendering:geometricPrecision; image-rendering:optimizeQuality; color-rendering:optimizeQuality; font-family:'Helvetica Neue'; stroke:rgb(38,38,38); color-interpolation:linearRGB;"
    ><text x="-8.5" xml:space="preserve" y="10" style="stroke:none;"
      >100</text
    ></g
    ><g transform="translate(203.2,378)" style="font-size:10px; fill:rgb(38,38,38); text-rendering:geometricPrecision; image-rendering:optimizeQuality; color-rendering:optimizeQuality; font-family:'Helvetica Neue'; stroke:rgb(38,38,38); color-interpolation:linearRGB;"
    ><text x="-8.5" xml:space="preserve" y="10" style="stroke:none;"
      >150</text
    ></g
    ><g transform="translate(246.6,378)" style="font-size:10px; fill:rgb(38,38,38); text-rendering:geometricPrecision; image-rendering:optimizeQuality; color-rendering:optimizeQuality; font-family:'Helvetica Neue'; stroke:rgb(38,38,38); color-interpolation:linearRGB;"
    ><text x="-8.5" xml:space="preserve" y="10" style="stroke:none;"
      >200</text
    ></g
    ><g transform="translate(290,378)" style="font-size:10px; fill:rgb(38,38,38); text-rendering:geometricPrecision; image-rendering:optimizeQuality; color-rendering:optimizeQuality; font-family:'Helvetica Neue'; stroke:rgb(38,38,38); color-interpolation:linearRGB;"
    ><text x="-8.5" xml:space="preserve" y="10" style="stroke:none;"
      >250</text
    ></g
    ><g transform="translate(333.4,378)" style="font-size:10px; fill:rgb(38,38,38); text-rendering:geometricPrecision; image-rendering:optimizeQuality; color-rendering:optimizeQuality; font-family:'Helvetica Neue'; stroke:rgb(38,38,38); color-interpolation:linearRGB;"
    ><text x="-8.5" xml:space="preserve" y="10" style="stroke:none;"
      >300</text
    ></g
    ><g transform="translate(376.8,378)" style="font-size:10px; fill:rgb(38,38,38); text-rendering:geometricPrecision; image-rendering:optimizeQuality; color-rendering:optimizeQuality; font-family:'Helvetica Neue'; stroke:rgb(38,38,38); color-interpolation:linearRGB;"
    ><text x="-8.5" xml:space="preserve" y="10" style="stroke:none;"
      >350</text
    ></g
    ><g transform="translate(420.2,378)" style="font-size:10px; fill:rgb(38,38,38); text-rendering:geometricPrecision; image-rendering:optimizeQuality; color-rendering:optimizeQuality; font-family:'Helvetica Neue'; stroke:rgb(38,38,38); color-interpolation:linearRGB;"
    ><text x="-8.5" xml:space="preserve" y="10" style="stroke:none;"
      >400</text
    ></g
    ><g transform="translate(463.6,378)" style="font-size:10px; fill:rgb(38,38,38); text-rendering:geometricPrecision; image-rendering:optimizeQuality; color-rendering:optimizeQuality; font-family:'Helvetica Neue'; stroke:rgb(38,38,38); color-interpolation:linearRGB;"
    ><text x="-8.5" xml:space="preserve" y="10" style="stroke:none;"
      >450</text
    ></g
    ><g transform="translate(507,378)" style="font-size:10px; fill:rgb(38,38,38); text-rendering:geometricPrecision; image-rendering:optimizeQuality; color-rendering:optimizeQuality; font-family:'Helvetica Neue'; stroke:rgb(38,38,38); color-interpolation:linearRGB;"
    ><text x="-8.5" xml:space="preserve" y="10" style="stroke:none;"
      >500</text
    ></g
    ><g transform="translate(290.0002,392)" style="font-size:11px; fill:rgb(38,38,38); text-rendering:geometricPrecision; image-rendering:optimizeQuality; color-rendering:optimizeQuality; font-family:'Helvetica Neue'; stroke:rgb(38,38,38); color-interpolation:linearRGB;"
    ><text x="-28.5" xml:space="preserve" y="11" style="stroke:none;"
      >N Iterations</text
    ></g
    ><g style="fill:rgb(38,38,38); text-rendering:geometricPrecision; image-rendering:optimizeQuality; color-rendering:optimizeQuality; stroke-linejoin:round; stroke:rgb(38,38,38); color-interpolation:linearRGB; stroke-width:0.5;"
    ><line y2="31" style="fill:none;" x1="73" x2="73" y1="374"
      /><line y2="374" style="fill:none;" x1="73" x2="77.34" y1="374"
      /><line y2="316.8333" style="fill:none;" x1="73" x2="77.34" y1="316.8333"
      /><line y2="259.6667" style="fill:none;" x1="73" x2="77.34" y1="259.6667"
      /><line y2="202.5" style="fill:none;" x1="73" x2="77.34" y1="202.5"
      /><line y2="145.3333" style="fill:none;" x1="73" x2="77.34" y1="145.3333"
      /><line y2="88.1667" style="fill:none;" x1="73" x2="77.34" y1="88.1667"
      /><line y2="31" style="fill:none;" x1="73" x2="77.34" y1="31"
    /></g
    ><g transform="translate(69,374)" style="font-size:10px; fill:rgb(38,38,38); text-rendering:geometricPrecision; image-rendering:optimizeQuality; color-rendering:optimizeQuality; font-family:'Helvetica Neue'; stroke:rgb(38,38,38); color-interpolation:linearRGB;"
    ><text x="-16" xml:space="preserve" y="3.5" style="stroke:none;"
      >-14</text
    ></g
    ><g transform="translate(69,316.8333)" style="font-size:10px; fill:rgb(38,38,38); text-rendering:geometricPrecision; image-rendering:optimizeQuality; color-rendering:optimizeQuality; font-family:'Helvetica Neue'; stroke:rgb(38,38,38); color-interpolation:linearRGB;"
    ><text x="-16" xml:space="preserve" y="3.5" style="stroke:none;"
      >-13</text
    ></g
    ><g transform="translate(69,259.6667)" style="font-size:10px; fill:rgb(38,38,38); text-rendering:geometricPrecision; image-rendering:optimizeQuality; color-rendering:optimizeQuality; font-family:'Helvetica Neue'; stroke:rgb(38,38,38); color-interpolation:linearRGB;"
    ><text x="-16" xml:space="preserve" y="3.5" style="stroke:none;"
      >-12</text
    ></g
    ><g transform="translate(69,202.5)" style="font-size:10px; fill:rgb(38,38,38); text-rendering:geometricPrecision; image-rendering:optimizeQuality; color-rendering:optimizeQuality; font-family:'Helvetica Neue'; stroke:rgb(38,38,38); color-interpolation:linearRGB;"
    ><text x="-16" xml:space="preserve" y="3.5" style="stroke:none;"
      >-11</text
    ></g
    ><g transform="translate(69,145.3333)" style="font-size:10px; fill:rgb(38,38,38); text-rendering:geometricPrecision; image-rendering:optimizeQuality; color-rendering:optimizeQuality; font-family:'Helvetica Neue'; stroke:rgb(38,38,38); color-interpolation:linearRGB;"
    ><text x="-16" xml:space="preserve" y="3.5" style="stroke:none;"
      >-10</text
    ></g
    ><g transform="translate(69,88.1667)" style="font-size:10px; fill:rgb(38,38,38); text-rendering:geometricPrecision; image-rendering:optimizeQuality; color-rendering:optimizeQuality; font-family:'Helvetica Neue'; stroke:rgb(38,38,38); color-interpolation:linearRGB;"
    ><text x="-10" xml:space="preserve" y="3.5" style="stroke:none;"
      >-9</text
    ></g
    ><g transform="translate(69,31)" style="font-size:10px; fill:rgb(38,38,38); text-rendering:geometricPrecision; image-rendering:optimizeQuality; color-rendering:optimizeQuality; font-family:'Helvetica Neue'; stroke:rgb(38,38,38); color-interpolation:linearRGB;"
    ><text x="-10" xml:space="preserve" y="3.5" style="stroke:none;"
      >-8</text
    ></g
    ><g transform="translate(50,202.4998) rotate(-90)" style="font-size:11px; fill:rgb(38,38,38); text-rendering:geometricPrecision; image-rendering:optimizeQuality; color-rendering:optimizeQuality; font-family:'Helvetica Neue'; stroke:rgb(38,38,38); color-interpolation:linearRGB;"
    ><text x="-23" xml:space="preserve" y="-3" style="stroke:none;"
      >Mean f(x)</text
    ></g
    ><g transform="translate(290.0003,28.25)" style="font-size:11px; text-rendering:geometricPrecision; image-rendering:optimizeQuality; color-rendering:optimizeQuality; font-family:'Helvetica Neue'; color-interpolation:linearRGB; font-weight:bold;"
    ><text x="-28.5" xml:space="preserve" y="-3" style="stroke:none;"
      >Problem10</text
    ></g
    ><g style="stroke-linecap:butt; fill:lime; text-rendering:geometricPrecision; image-rendering:optimizeQuality; color-rendering:optimizeQuality; stroke-linejoin:round; stroke:lime; color-interpolation:linearRGB; stroke-width:3;"
    ><path d="M73.868 123.2464 L74.736 130.1624 L75.604 133.2072 L76.472 148.9131 L77.34 157.604 L78.208 171.5452 L79.076 182.6358 L79.944 198.94 L80.812 213.878 L81.68 220.5045 L82.548 227.4417 L83.416 237.6601 L84.284 252.0927 L85.152 260.1185 L86.02 263.4485 L86.888 267.8655 L87.756 274.261 L88.624 280.5345 L89.492 282.3349 L90.36 282.3349 L91.228 282.3349 L92.096 285.5937 L92.964 285.5937 L93.832 288.1927 L94.7 288.9409 L95.568 288.9409 L96.436 288.9409 L97.304 289.6016 L98.172 290.3424 L99.04 290.3424 L99.908 292.7973 L100.776 294.436 L101.644 295.6403 L102.512 296.9536 L103.38 301.5377 L104.248 301.5377 L105.116 304.215 L105.984 304.3444 L106.852 304.3444 L107.72 306.7061 L108.588 306.7061 L109.456 306.7061 L110.324 306.7061 L111.192 306.7061 L112.06 309.0964 L112.928 309.0964 L113.796 309.0964 L114.664 309.0964 L115.532 311.2429 L116.4 311.2429 L117.268 312.2439 L118.136 312.2439 L119.004 312.2439 L119.872 312.2439 L120.74 312.2439 L121.608 312.2439 L122.476 313.4513 L123.344 313.4513 L124.212 313.4513 L125.08 313.4513 L125.948 313.4513 L126.816 313.7287 L127.684 313.8077 L128.552 313.8077 L129.42 313.8077 L130.288 313.8077 L131.156 313.8077 L132.024 313.8077 L132.892 313.8077 L133.76 314.3737 L134.628 315.6435 L135.496 316.7709 L136.364 317.2511 L137.232 317.2511 L138.1 317.2511 L138.968 317.3282 L139.836 317.3282 L140.704 317.8113 L141.572 320.8218 L142.44 320.8218 L143.308 320.8218 L144.176 320.8218 L145.044 320.8218 L145.912 320.8218 L146.78 320.8218 L147.648 320.8218 L148.516 320.8218 L149.384 320.8218 L150.252 323.1037 L151.12 323.307 L151.988 323.307 L152.856 323.307 L153.724 323.307 L154.592 323.307 L155.46 323.307 L156.328 324.9559 L157.196 324.9559 L158.064 324.9559 L158.932 324.9559 L159.8 324.9559 L160.668 324.9559 L161.536 324.9559 L162.404 324.9559 L163.272 324.9559 L164.14 324.9559 L165.008 324.9559 L165.876 324.9559 L166.744 324.9559 L167.612 326.2783 L168.48 326.2783 L169.348 326.9495 L170.216 326.9495 L171.084 326.9495 L171.952 326.9495 L172.82 326.9495 L173.688 326.9495 L174.556 326.9495 L175.424 326.9495 L176.292 327.2575 L177.16 327.2575 L178.028 327.2575 L178.896 327.5261 L179.764 327.5261 L180.632 328.7179 L181.5 328.7179 L182.368 328.7179 L183.236 328.7749 L184.104 328.7749 L184.972 328.7749 L185.84 328.7749 L186.708 328.9238 L187.576 329.1815 L188.444 329.1815 L189.312 329.1815 L190.18 329.1815 L191.048 329.1815 L191.916 329.1815 L192.784 329.1815 L193.652 329.1815 L194.52 330.1361 L195.388 330.1361 L196.256 330.1361 L197.124 330.1361 L197.992 331.0978 L198.86 331.0978 L199.728 331.0978 L200.596 331.0978 L201.464 331.0978 L202.332 331.0978 L203.2 331.0978 L204.068 331.0978 L204.936 331.0978 L205.804 331.0978 L206.672 331.0978 L207.54 331.0978 L208.408 331.0978 L209.276 331.0978 L210.144 331.0978 L211.012 331.0978 L211.88 331.0978 L212.748 331.0978 L213.616 331.0978 L214.484 331.0978 L215.352 331.0978 L216.22 331.0978 L217.088 331.1881 L217.956 331.1881 L218.824 331.1881 L219.692 331.1881 L220.56 331.2798 L221.428 332.3311 L222.296 332.4225 L223.164 332.4225 L224.032 332.4225 L224.9 332.4225 L225.768 332.4225 L226.636 333.4823 L227.504 333.4823 L228.372 333.4823 L229.24 334.2421 L230.108 334.2421 L230.976 334.2421 L231.844 334.2421 L232.712 334.2421 L233.58 334.3131 L234.448 334.3131 L235.316 334.6865 L236.184 334.6865 L237.052 335.4948 L237.92 335.4948 L238.788 335.4948 L239.656 335.4948 L240.524 335.4948 L241.392 335.4948 L242.26 335.4948 L243.128 335.4948 L243.996 335.6237 L244.864 335.6237 L245.732 335.6237 L246.6 335.6237 L247.468 335.6237 L248.336 335.6237 L249.204 335.6237 L250.072 335.6237 L250.94 335.6237 L251.808 335.6237 L252.676 335.6237 L253.544 335.6237 L254.412 335.6237 L255.28 335.6237 L256.148 335.6237 L257.016 335.6237 L257.884 335.6237 L258.752 335.6237 L259.62 335.6237 L260.488 335.6237 L261.356 335.6237 L262.224 335.6237 L263.092 335.7145 L263.96 335.7145 L264.828 335.7145 L265.696 335.9227 L266.564 335.9227 L267.432 335.9227 L268.3 336.0519 L269.168 336.0519 L270.036 336.0519 L270.904 336.0519 L271.772 336.0519 L272.64 336.0519 L273.508 336.0519 L274.376 336.0519 L275.244 336.0946 L276.112 336.0946 L276.98 336.0946 L277.848 336.1728 L278.716 336.2284 L279.584 336.2284 L280.452 336.353 L281.32 336.353 L282.188 336.3599 L283.056 336.3599 L283.924 336.3599 L284.792 336.3599 L285.66 336.3599 L286.528 336.3599 L287.396 336.3599 L288.264 336.4091 L289.132 336.4091 L290 336.4091 L290.868 336.4091 L291.736 336.4091 L292.604 336.4091 L293.472 336.4091 L294.34 336.4765 L295.208 336.4765 L296.076 336.4765 L296.944 336.4778 L297.812 336.5507 L298.68 336.5507 L299.548 336.5507 L300.416 336.5507 L301.284 336.7692 L302.152 336.7692 L303.02 336.7692 L303.888 336.7692 L304.756 336.7692 L305.624 336.7692 L306.492 336.7692 L307.36 336.7692 L308.228 336.7692 L309.096 336.7692 L309.964 336.7692 L310.832 336.7923 L311.7 336.9224 L312.568 336.9224 L313.436 336.9224 L314.304 336.9224 L315.172 336.9224 L316.04 336.9224 L316.908 336.9224 L317.776 336.9224 L318.644 336.9224 L319.512 336.9224 L320.38 336.9224 L321.248 336.9224 L322.116 336.9224 L322.984 336.9224 L323.852 336.9224 L324.72 336.9224 L325.588 336.9224 L326.456 336.9224 L327.324 336.9224 L328.192 336.9224 L329.06 337.0732 L329.928 337.0732 L330.796 337.0732 L331.664 337.0845 L332.532 337.0845 L333.4 337.0845 L334.268 337.0845 L335.136 337.0845 L336.004 337.0845 L336.872 337.0845 L337.74 337.1969 L338.608 337.7137 L339.476 337.7245 L340.344 337.7245 L341.212 337.8011 L342.08 337.8011 L342.948 337.8011 L343.816 337.8011 L344.684 338.1064 L345.552 338.1064 L346.42 338.5158 L347.288 338.5158 L348.156 338.5158 L349.024 338.5809 L349.892 338.6006 L350.76 339.0989 L351.628 339.0989 L352.496 339.1269 L353.364 339.5632 L354.232 339.5632 L355.1 339.5632 L355.968 339.5715 L356.836 339.687 L357.704 339.7583 L358.572 339.7585 L359.44 339.7819 L360.308 339.7819 L361.176 339.7882 L362.044 339.8412 L362.912 339.8508 L363.78 339.8983 L364.648 339.9479 L365.516 340.4938 L366.384 340.5199 L367.252 340.5199 L368.12 340.5492 L368.988 340.5492 L369.856 340.5789 L370.724 340.5982 L371.592 340.6301 L372.46 340.6301 L373.328 340.6301 L374.196 340.6301 L375.064 340.6814 L375.932 340.6814 L376.8 340.6814 L377.668 340.7248 L378.536 341.309 L379.404 341.3163 L380.272 341.3193 L381.14 341.3296 L382.008 341.3795 L382.876 341.3795 L383.744 341.3795 L384.612 341.3795 L385.48 341.3845 L386.348 341.397 L387.216 341.397 L388.084 341.4703 L388.952 341.5021 L389.82 341.5021 L390.688 341.5081 L391.556 341.5161 L392.424 341.5161 L393.292 341.5227 L394.16 341.5496 L395.028 341.5496 L395.896 341.5639 L396.764 341.5639 L397.632 342.0047 L398.5 342.0047 L399.368 342.027 L400.236 342.0643 L401.104 342.0646 L401.972 342.093 L402.84 342.1223 L403.708 342.1382 L404.576 342.1382 L405.444 342.1382 L406.312 342.1553 L407.18 342.181 L408.048 342.1941 L408.916 342.1962 L409.784 342.1962 L410.652 342.1962 L411.52 342.211 L412.388 342.211 L413.256 342.2138 L414.124 342.2138 L414.992 342.2188 L415.86 342.2321 L416.728 342.2667 L417.596 342.2873 L418.464 342.2986 L419.332 342.3059 L420.2 342.337 L421.068 342.3454 L421.936 342.3673 L422.804 342.3852 L423.672 342.4001 L424.54 342.4063 L425.408 342.4673 L426.276 342.4835 L427.144 342.4943 L428.012 342.5148 L428.88 342.5369 L429.748 342.5583 L430.616 342.615 L431.484 342.6379 L432.352 342.6574 L433.22 342.6706 L434.088 342.6951 L434.956 342.7085 L435.824 342.7239 L436.692 342.7329 L437.56 342.7472 L438.428 342.753 L439.296 342.7673 L440.164 342.7794 L441.032 342.781 L441.9 342.781 L442.768 342.7853 L443.636 342.7919 L444.504 342.809 L445.372 342.8124 L446.24 342.8184 L447.108 342.8338 L447.976 342.8707 L448.844 342.8798 L449.712 342.8911 L450.58 342.9069 L451.448 342.911 L452.316 342.9257 L453.184 342.936 L454.052 342.9507 L454.92 342.9616 L455.788 342.9838 L456.656 342.9874 L457.524 342.9962 L458.392 343.0046 L459.26 343.012 L460.128 343.0262 L460.996 343.0335 L461.864 343.0471 L462.732 343.0551 L463.6 343.0634 L464.468 343.0775 L465.336 343.097 L466.204 343.1071 L467.072 343.1189 L467.94 343.13 L468.808 343.1373 L469.676 343.1487 L470.544 343.1604 L471.412 343.1725 L472.28 343.1822 L473.148 343.1945 L474.016 343.2119 L474.884 343.2225 L475.752 343.228 L476.62 343.2414 L477.488 343.2539 L478.356 343.2585 L479.224 343.263 L480.092 343.2713 L480.96 343.2776 L481.828 343.2821 L482.696 343.2842 L483.564 343.2912 L484.432 343.2966 L485.3 343.2996 L486.168 343.3049 L487.036 343.3102 L487.904 343.3127 L488.772 343.3165 L489.64 343.3231 L490.508 343.3234 L491.376 343.3254 L492.244 343.3264 L493.112 343.3291 L493.98 343.3306 L494.848 343.3311 L495.716 343.3335 L496.584 343.3364 L497.452 343.3373 L498.32 343.3389 L499.188 343.3409 L500.056 343.3415 L500.924 343.3438 L501.792 343.3457 L502.66 343.3469 L503.528 343.3478 L504.396 343.3493 L505.264 343.3501 L506.132 343.3503 L507 343.3507" style="fill:none; fill-rule:evenodd;"
    /></g
    ><g style="stroke-linecap:butt; fill:blue; text-rendering:geometricPrecision; image-rendering:optimizeQuality; color-rendering:optimizeQuality; stroke-linejoin:bevel; stroke-dasharray:12,12; stroke:blue; color-interpolation:linearRGB; stroke-width:3; stroke-miterlimit:1;"
    ><path d="M73.868 46.8488 L74.736 60.4482 L75.604 66.8269 L76.472 87.0673 L77.34 102.8504 L78.208 126.4915 L79.076 140.747 L79.944 158.1563 L80.812 175.5453 L81.68 187.236 L82.548 201.7805 L83.416 207.3859 L84.284 216.2336 L85.152 219.9053 L86.02 228.6168 L86.888 232.8122 L87.756 240.8509 L88.624 243.7619 L89.492 250.1779 L90.36 252.5463 L91.228 255.7279 L92.096 258.3071 L92.964 262.9572 L93.832 264.1466 L94.7 266.5786 L95.568 268.3089 L96.436 270.9701 L97.304 271.949 L98.172 273.2756 L99.04 274.9962 L99.908 275.6686 L100.776 276.9385 L101.644 278.2756 L102.512 279.5554 L103.38 280.8609 L104.248 281.3156 L105.116 282.1079 L105.984 282.3336 L106.852 284.3016 L107.72 284.9794 L108.588 285.43 L109.456 285.8624 L110.324 286.3078 L111.192 286.3078 L112.06 286.5847 L112.928 286.692 L113.796 286.692 L114.664 286.8225 L115.532 287.237 L116.4 287.6716 L117.268 287.8171 L118.136 288.4523 L119.004 288.6758 L119.872 288.9529 L120.74 289.4363 L121.608 289.5612 L122.476 290.1393 L123.344 290.1549 L124.212 290.3102 L125.08 290.6737 L125.948 290.6862 L126.816 291.2061 L127.684 291.4732 L128.552 291.6644 L129.42 291.8125 L130.288 292.0962 L131.156 292.4205 L132.024 292.5566 L132.892 293.2227 L133.76 293.408 L134.628 293.5025 L135.496 293.5488 L136.364 294.0236 L137.232 294.0236 L138.1 294.1199 L138.968 294.1199 L139.836 294.1819 L140.704 294.3955 L141.572 294.4816 L142.44 294.8665 L143.308 295.0481 L144.176 295.1564 L145.044 295.3213 L145.912 295.3987 L146.78 295.6042 L147.648 295.6906 L148.516 296.0991 L149.384 296.3117 L150.252 296.4943 L151.12 296.6211 L151.988 296.6211 L152.856 296.7669 L153.724 296.9627 L154.592 297.1469 L155.46 297.197 L156.328 297.2039 L157.196 297.8943 L158.064 298.0586 L158.932 298.2773 L159.8 298.475 L160.668 298.6767 L161.536 298.8386 L162.404 298.8587 L163.272 298.9468 L164.14 299.0802 L165.008 299.1064 L165.876 299.2862 L166.744 299.4595 L167.612 299.46 L168.48 299.6261 L169.348 299.6882 L170.216 299.7453 L171.084 299.787 L171.952 299.8094 L172.82 299.8314 L173.688 299.8699 L174.556 299.9089 L175.424 300.2062 L176.292 300.3038 L177.16 300.4125 L178.028 300.4229 L178.896 300.5042 L179.764 300.5831 L180.632 300.6025 L181.5 300.7476 L182.368 300.9067 L183.236 300.9626 L184.104 300.9974 L184.972 301.096 L185.84 301.1212 L186.708 301.1361 L187.576 301.2276 L188.444 301.279 L189.312 301.3918 L190.18 301.4297 L191.048 301.5444 L191.916 301.5941 L192.784 301.6757 L193.652 301.6826 L194.52 301.6897 L195.388 301.7055 L196.256 301.8524 L197.124 301.9086 L197.992 301.9524 L198.86 302.007 L199.728 302.0282 L200.596 302.125 L201.464 302.167 L202.332 302.1768 L203.2 302.1888 L204.068 302.3116 L204.936 302.3281 L205.804 302.3439 L206.672 302.364 L207.54 302.3761 L208.408 302.4529 L209.276 302.4716 L210.144 302.4836 L211.012 302.4991 L211.88 302.5111 L212.748 302.5117 L213.616 302.5297 L214.484 302.5378 L215.352 302.5533 L216.22 302.562 L217.088 302.5699 L217.956 302.5706 L218.824 302.6065 L219.692 302.6275 L220.56 302.6615 L221.428 302.6715 L222.296 302.6935 L223.164 302.7271 L224.032 302.7323 L224.9 302.7484 L225.768 302.7759 L226.636 302.7859 L227.504 302.8049 L228.372 302.8254 L229.24 302.8386 L230.108 302.8457 L230.976 302.8604 L231.844 302.8686 L232.712 302.8826 L233.58 302.8885 L234.448 302.8944 L235.316 302.9016 L236.184 302.9049 L237.052 302.9132 L237.92 302.9142 L238.788 302.9227 L239.656 302.9233 L240.524 302.9301 L241.392 302.9406 L242.26 302.9474 L243.128 302.9482 L243.996 302.9542 L244.864 302.9605 L245.732 302.9658 L246.6 302.9751 L247.468 302.9785 L248.336 302.9785 L249.204 302.9856 L250.072 302.9891 L250.94 302.9914 L251.808 302.9996 L252.676 303.0009 L253.544 303.0038 L254.412 303.0086 L255.28 303.0116 L256.148 303.0166 L257.016 303.0189 L257.884 303.0216 L258.752 303.0232 L259.62 303.0261 L260.488 303.0287 L261.356 303.0295 L262.224 303.0317 L263.092 303.0366 L263.96 303.0388 L264.828 303.0419 L265.696 303.0432 L266.564 303.0448 L267.432 303.0473 L268.3 303.048 L269.168 303.0509 L270.036 303.0525 L270.904 303.0529 L271.772 303.0561 L272.64 303.0574 L273.508 303.0588 L274.376 303.0603 L275.244 303.062 L276.112 303.0629 L276.98 303.0643 L277.848 303.0669 L278.716 303.0682 L279.584 303.0703 L280.452 303.0719 L281.32 303.0728 L282.188 303.0754 L283.056 303.0761 L283.924 303.0776 L284.792 303.0784 L285.66 303.0799 L286.528 303.0805 L287.396 303.0808 L288.264 303.0822 L289.132 303.0831 L290 303.0837 L290.868 303.0853 L291.736 303.0864 L292.604 303.0873 L293.472 303.088 L294.34 303.0883 L295.208 303.0885 L296.076 303.0887 L296.944 303.089 L297.812 303.0894 L298.68 303.0896 L299.548 303.09 L300.416 303.0907 L301.284 303.091 L302.152 303.0913 L303.02 303.0919 L303.888 303.0927 L304.756 303.0933 L305.624 303.0936 L306.492 303.0943 L307.36 303.0946 L308.228 303.0954 L309.096 303.0956 L309.964 303.0957 L310.832 303.0961 L311.7 303.0964 L312.568 303.0966 L313.436 303.0969 L314.304 303.0971 L315.172 303.0975 L316.04 303.0977 L316.908 303.098 L317.776 303.0984 L318.644 303.0984 L319.512 303.0987 L320.38 303.099 L321.248 303.0991 L322.116 303.0993 L322.984 303.0994 L323.852 303.0995 L324.72 303.0997 L325.588 303.1 L326.456 303.1 L327.324 303.1002 L328.192 303.1003 L329.06 303.1004 L329.928 303.1005 L330.796 303.1006 L331.664 303.1007 L332.532 303.1007 L333.4 303.1009 L334.268 303.101 L335.136 303.101 L336.004 303.101 L336.872 303.1011 L337.74 303.1012 L338.608 303.1013 L339.476 303.1013 L340.344 303.1014 L341.212 303.1015 L342.08 303.1015 L342.948 303.1015 L343.816 303.1016 L344.684 303.1016 L345.552 303.1017 L346.42 303.1018 L347.288 303.1018 L348.156 303.1018 L349.024 303.1019 L349.892 303.102 L350.76 303.102 L351.628 303.1021 L352.496 303.1021 L353.364 303.1022 L354.232 303.1022 L355.1 303.1023 L355.968 303.1023 L356.836 303.1023 L357.704 303.1024 L358.572 303.1024 L359.44 303.1024 L360.308 303.1024 L361.176 303.1025 L362.044 303.1025 L362.912 303.1025 L363.78 303.1026 L364.648 303.1026 L365.516 303.1027 L366.384 303.1027 L367.252 303.1027 L368.12 303.1027 L368.988 303.1027 L369.856 303.1027 L370.724 303.1027 L371.592 303.1028 L372.46 303.1028 L373.328 303.1028 L374.196 303.1028 L375.064 303.1028 L375.932 303.1028 L376.8 303.1028 L377.668 303.1028 L378.536 303.1028 L379.404 303.1028 L380.272 303.1028 L381.14 303.1029 L382.008 303.1029 L382.876 303.1029 L383.744 303.1029 L384.612 303.1029 L385.48 303.1029 L386.348 303.1029 L387.216 303.1029 L388.084 303.1029 L388.952 303.1029 L389.82 303.1029 L390.688 303.103 L391.556 303.103 L392.424 303.103 L393.292 303.103 L394.16 303.103 L395.028 303.103 L395.896 303.103 L396.764 303.103 L397.632 303.103 L398.5 303.103 L399.368 303.103 L400.236 303.103 L401.104 303.103 L401.972 303.103 L402.84 303.103 L403.708 303.103 L404.576 303.103 L405.444 303.103 L406.312 303.103 L407.18 303.103 L408.048 303.103 L408.916 303.103 L409.784 303.103 L410.652 303.103 L411.52 303.103 L412.388 303.103 L413.256 303.103 L414.124 303.103 L414.992 303.103 L415.86 303.103 L416.728 303.103 L417.596 303.1031 L418.464 303.1031 L419.332 303.1031 L420.2 303.1031 L421.068 303.1031 L421.936 303.1031 L422.804 303.1031 L423.672 303.1031 L424.54 303.1031 L425.408 303.1031 L426.276 303.1031 L427.144 303.1031 L428.012 303.1031 L428.88 303.1031 L429.748 303.1031 L430.616 303.1031 L431.484 303.1031 L432.352 303.1031 L433.22 303.1031 L434.088 303.1031 L434.956 303.1031 L435.824 303.1031 L436.692 303.1031 L437.56 303.1031 L438.428 303.1031 L439.296 303.1031 L440.164 303.1031 L441.032 303.1031 L441.9 303.1031 L442.768 303.1031 L443.636 303.1031 L444.504 303.1031 L445.372 303.1031 L446.24 303.1031 L447.108 303.1031 L447.976 303.1031 L448.844 303.1031 L449.712 303.1031 L450.58 303.1031 L451.448 303.1031 L452.316 303.1031 L453.184 303.1031 L454.052 303.1031 L454.92 303.1031 L455.788 303.1031 L456.656 303.1031 L457.524 303.1031 L458.392 303.1031 L459.26 303.1031 L460.128 303.1031 L460.996 303.1031 L461.864 303.1031 L462.732 303.1031 L463.6 303.1031 L464.468 303.1031 L465.336 303.1031 L466.204 303.1031 L467.072 303.1031 L467.94 303.1031 L468.808 303.1031 L469.676 303.1031 L470.544 303.1031 L471.412 303.1031 L472.28 303.1031 L473.148 303.1031 L474.016 303.1031 L474.884 303.1031 L475.752 303.1031 L476.62 303.1031 L477.488 303.1031 L478.356 303.1031 L479.224 303.1031 L480.092 303.1031 L480.96 303.1031 L481.828 303.1031 L482.696 303.1031 L483.564 303.1031 L484.432 303.1031 L485.3 303.1031 L486.168 303.1031 L487.036 303.1031 L487.904 303.1031 L488.772 303.1031 L489.64 303.1031 L490.508 303.1031 L491.376 303.1031 L492.244 303.1031 L493.112 303.1031 L493.98 303.1031 L494.848 303.1031 L495.716 303.1031 L496.584 303.1031 L497.452 303.1031 L498.32 303.1031 L499.188 303.1031 L500.056 303.1031 L500.924 303.1031 L501.792 303.1031 L502.66 303.1031 L503.528 303.1031 L504.396 303.1031 L505.264 303.1031 L506.132 303.1031 L507 303.1031" style="fill:none; fill-rule:evenodd;"
    /></g
    ><g style="stroke-linecap:butt; fill:red; text-rendering:geometricPrecision; image-rendering:optimizeQuality; color-rendering:optimizeQuality; stroke-linejoin:bevel; stroke-dasharray:10,6; stroke:red; color-interpolation:linearRGB; stroke-width:0.5; stroke-miterlimit:1;"
    ><path d="M73.868 56.7094 L74.736 65.2515 L75.604 69.1917 L76.472 85.8212 L77.34 112.113 L78.208 130.1171 L79.076 153.6012 L79.944 165.2964 L80.812 175.588 L81.68 186.2353 L82.548 201.3614 L83.416 205.8733 L84.284 217.0428 L85.152 223.9384 L86.02 233.1161 L86.888 241.6096 L87.756 248.2649 L88.624 255.1058 L89.492 257.7768 L90.36 260.3104 L91.228 265.5089 L92.096 268.4278 L92.964 269.4981 L93.832 272.9586 L94.7 273.4732 L95.568 274.4453 L96.436 274.4453 L97.304 275.413 L98.172 275.8056 L99.04 276.9008 L99.908 277.4824 L100.776 279.5084 L101.644 280.4366 L102.512 281.1623 L103.38 281.6653 L104.248 282.3964 L105.116 283.0304 L105.984 283.2906 L106.852 285.0143 L107.72 285.3211 L108.588 285.6305 L109.456 286.3372 L110.324 286.5748 L111.192 287.1644 L112.06 287.3249 L112.928 288.1909 L113.796 288.6002 L114.664 288.6678 L115.532 289.5776 L116.4 290.3225 L117.268 291.0134 L118.136 291.1431 L119.004 292.2505 L119.872 292.4243 L120.74 292.5929 L121.608 292.7568 L122.476 293.4742 L123.344 293.9805 L124.212 294.6443 L125.08 294.6443 L125.948 295.1241 L126.816 295.2495 L127.684 295.327 L128.552 296.1413 L129.42 296.3176 L130.288 296.4831 L131.156 296.7596 L132.024 297.1891 L132.892 297.8609 L133.76 298.23 L134.628 298.44 L135.496 298.9053 L136.364 299.2001 L137.232 299.4749 L138.1 299.5119 L138.968 299.6641 L139.836 299.6822 L140.704 299.9889 L141.572 300.1131 L142.44 300.165 L143.308 300.2197 L144.176 300.2614 L145.044 300.5848 L145.912 300.9205 L146.78 300.9671 L147.648 301.4767 L148.516 301.5311 L149.384 301.7122 L150.252 302.019 L151.12 302.5482 L151.988 302.8096 L152.856 302.8878 L153.724 302.8878 L154.592 302.9682 L155.46 303.2076 L156.328 303.2076 L157.196 303.2128 L158.064 303.5517 L158.932 304.1082 L159.8 304.1605 L160.668 304.4521 L161.536 304.8247 L162.404 304.9323 L163.272 305.1002 L164.14 305.205 L165.008 305.306 L165.876 305.5639 L166.744 305.7107 L167.612 305.7642 L168.48 305.8521 L169.348 306.0244 L170.216 306.0244 L171.084 306.1542 L171.952 306.1755 L172.82 306.2444 L173.688 306.3174 L174.556 306.6741 L175.424 306.8565 L176.292 306.8565 L177.16 306.9001 L178.028 307.0488 L178.896 307.2721 L179.764 307.2721 L180.632 307.4328 L181.5 307.4759 L182.368 307.4759 L183.236 307.481 L184.104 307.6082 L184.972 307.6911 L185.84 307.7722 L186.708 307.9215 L187.576 307.9382 L188.444 308.1328 L189.312 308.2237 L190.18 308.4568 L191.048 308.6009 L191.916 308.6009 L192.784 308.6009 L193.652 308.9727 L194.52 309.0471 L195.388 309.1432 L196.256 309.2262 L197.124 309.2997 L197.992 309.4618 L198.86 309.4618 L199.728 309.4618 L200.596 309.4618 L201.464 309.5346 L202.332 309.5515 L203.2 309.7341 L204.068 310.3687 L204.936 310.5199 L205.804 310.6611 L206.672 310.6611 L207.54 310.6873 L208.408 310.7683 L209.276 310.7683 L210.144 310.8368 L211.012 311.3154 L211.88 311.3269 L212.748 311.4879 L213.616 311.5642 L214.484 311.7269 L215.352 311.7663 L216.22 311.9882 L217.088 312.008 L217.956 312.008 L218.824 312.008 L219.692 312.008 L220.56 312.0188 L221.428 312.0188 L222.296 312.1068 L223.164 312.295 L224.032 312.3009 L224.9 312.5346 L225.768 312.9069 L226.636 312.955 L227.504 313.0439 L228.372 313.0497 L229.24 313.3999 L230.108 313.4579 L230.976 313.5447 L231.844 313.6895 L232.712 314.0947 L233.58 314.2686 L234.448 314.3313 L235.316 314.4749 L236.184 314.4958 L237.052 314.6666 L237.92 314.6931 L238.788 314.887 L239.656 314.9919 L240.524 315.2006 L241.392 315.2036 L242.26 315.2925 L243.128 315.4268 L243.996 315.534 L244.864 315.7792 L245.732 315.8071 L246.6 315.8283 L247.468 315.8476 L248.336 315.8607 L249.204 316.0636 L250.072 316.2164 L250.94 316.2164 L251.808 316.3577 L252.676 316.3891 L253.544 316.4923 L254.412 316.4923 L255.28 316.4923 L256.148 316.4923 L257.016 316.4923 L257.884 316.6434 L258.752 316.6949 L259.62 316.8394 L260.488 316.8544 L261.356 316.8932 L262.224 316.9703 L263.092 316.9703 L263.96 317.0655 L264.828 317.2385 L265.696 317.2672 L266.564 317.4639 L267.432 317.6895 L268.3 317.7663 L269.168 317.7939 L270.036 318.0034 L270.904 318.0936 L271.772 318.254 L272.64 318.5768 L273.508 318.6733 L274.376 318.847 L275.244 319.0692 L276.112 319.2292 L276.98 319.4559 L277.848 319.7812 L278.716 319.9088 L279.584 320.1774 L280.452 320.2286 L281.32 320.2964 L282.188 320.4867 L283.056 320.4867 L283.924 320.5504 L284.792 320.5504 L285.66 320.5531 L286.528 320.5975 L287.396 320.8239 L288.264 320.9698 L289.132 321.2193 L290 321.3325 L290.868 321.4419 L291.736 321.5078 L292.604 321.828 L293.472 321.9076 L294.34 322.1188 L295.208 322.3222 L296.076 322.5504 L296.944 322.5545 L297.812 322.6322 L298.68 322.6722 L299.548 322.6722 L300.416 322.674 L301.284 322.7258 L302.152 322.7682 L303.02 322.7682 L303.888 322.8766 L304.756 322.8865 L305.624 322.9709 L306.492 323.0702 L307.36 323.2196 L308.228 323.2434 L309.096 323.3664 L309.964 323.4637 L310.832 323.716 L311.7 323.766 L312.568 323.8027 L313.436 323.9272 L314.304 324.07 L315.172 324.07 L316.04 324.1026 L316.908 324.1026 L317.776 324.1392 L318.644 324.2194 L319.512 324.236 L320.38 324.2483 L321.248 324.3282 L322.116 324.4002 L322.984 324.5175 L323.852 324.5295 L324.72 324.6191 L325.588 324.7149 L326.456 324.7353 L327.324 324.7958 L328.192 324.8045 L329.06 324.922 L329.928 325.0067 L330.796 325.0551 L331.664 325.095 L332.532 325.2445 L333.4 325.3131 L334.268 325.3131 L335.136 325.3504 L336.004 325.3656 L336.872 325.5421 L337.74 325.7091 L338.608 325.8339 L339.476 325.9427 L340.344 325.9815 L341.212 326.0085 L342.08 326.1034 L342.948 326.1797 L343.816 326.2055 L344.684 326.2579 L345.552 326.2614 L346.42 326.3122 L347.288 326.4146 L348.156 326.4654 L349.024 326.6077 L349.892 326.6201 L350.76 326.6714 L351.628 326.73 L352.496 326.7422 L353.364 326.8659 L354.232 326.9936 L355.1 327.0705 L355.968 327.1809 L356.836 327.3307 L357.704 327.5014 L358.572 327.6042 L359.44 327.6539 L360.308 327.7718 L361.176 327.9415 L362.044 328.1426 L362.912 328.3734 L363.78 328.5342 L364.648 328.6371 L365.516 328.7379 L366.384 328.9471 L367.252 328.9729 L368.12 329.3189 L368.988 329.3946 L369.856 329.4575 L370.724 329.6338 L371.592 329.7723 L372.46 329.9288 L373.328 329.9569 L374.196 330.0674 L375.064 330.1519 L375.932 330.2468 L376.8 330.2568 L377.668 330.3765 L378.536 330.451 L379.404 330.6033 L380.272 330.7399 L381.14 330.8018 L382.008 330.8961 L382.876 331.0133 L383.744 331.0931 L384.612 331.2244 L385.48 331.3474 L386.348 331.4473 L387.216 331.4729 L388.084 331.5191 L388.952 331.5721 L389.82 331.6724 L390.688 331.8089 L391.556 331.8878 L392.424 331.9395 L393.292 331.9783 L394.16 332.0612 L395.028 332.1349 L395.896 332.2346 L396.764 332.3452 L397.632 332.4219 L398.5 332.4737 L399.368 332.5529 L400.236 332.6087 L401.104 332.6983 L401.972 332.8189 L402.84 332.8633 L403.708 332.9296 L404.576 332.9484 L405.444 332.9758 L406.312 333.0252 L407.18 333.0914 L408.048 333.1186 L408.916 333.1713 L409.784 333.2043 L410.652 333.2191 L411.52 333.2616 L412.388 333.2733 L413.256 333.3149 L414.124 333.351 L414.992 333.3902 L415.86 333.4124 L416.728 333.5178 L417.596 333.5753 L418.464 333.6719 L419.332 333.733 L420.2 333.8108 L421.068 333.8747 L421.936 333.9618 L422.804 334.0126 L423.672 334.0698 L424.54 334.1353 L425.408 334.2081 L426.276 334.252 L427.144 334.3211 L428.012 334.3478 L428.88 334.439 L429.748 334.4802 L430.616 334.4991 L431.484 334.5269 L432.352 334.587 L433.22 334.6119 L434.088 334.6161 L434.956 334.647 L435.824 334.6677 L436.692 334.6846 L437.56 334.7438 L438.428 334.7747 L439.296 334.8019 L440.164 334.8622 L441.032 334.891 L441.9 334.9033 L442.768 334.956 L443.636 334.996 L444.504 335.0494 L445.372 335.0525 L446.24 335.0916 L447.108 335.1121 L447.976 335.1671 L448.844 335.2135 L449.712 335.2586 L450.58 335.2927 L451.448 335.3207 L452.316 335.3597 L453.184 335.4075 L454.052 335.4572 L454.92 335.4874 L455.788 335.5396 L456.656 335.5845 L457.524 335.6155 L458.392 335.6558 L459.26 335.6848 L460.128 335.7238 L460.996 335.7492 L461.864 335.7812 L462.732 335.8193 L463.6 335.8505 L464.468 335.8953 L465.336 335.9371 L466.204 335.9709 L467.072 336.0083 L467.94 336.0303 L468.808 336.0615 L469.676 336.0977 L470.544 336.1405 L471.412 336.1684 L472.28 336.1927 L473.148 336.2254 L474.016 336.252 L474.884 336.2877 L475.752 336.3135 L476.62 336.3293 L477.488 336.359 L478.356 336.3763 L479.224 336.4066 L480.092 336.4253 L480.96 336.4438 L481.828 336.4645 L482.696 336.4849 L483.564 336.5088 L484.432 336.5272 L485.3 336.5468 L486.168 336.5547 L487.036 336.5663 L487.904 336.571 L488.772 336.5804 L489.64 336.5907 L490.508 336.5956 L491.376 336.6072 L492.244 336.6152 L493.112 336.6266 L493.98 336.6371 L494.848 336.6453 L495.716 336.6527 L496.584 336.6609 L497.452 336.6668 L498.32 336.6751 L499.188 336.6828 L500.056 336.6893 L500.924 336.6939 L501.792 336.6997 L502.66 336.7033 L503.528 336.7075 L504.396 336.7103 L505.264 336.7133 L506.132 336.7155 L507 336.7168" style="fill:none; fill-rule:evenodd;"
    /></g
    ><g transform="translate(73.868,56.7094)" style="stroke-linecap:butt; fill:red; text-rendering:geometricPrecision; color-rendering:optimizeQuality; image-rendering:optimizeQuality; color-interpolation:linearRGB; stroke:red;"
    ><circle r="3" style="fill:none;" cx="0" cy="0"
      /><circle r="3" style="fill:none;" cx="0" transform="translate(17.36,208.7994)" cy="0"
      /><circle r="3" style="fill:none;" cx="0" transform="translate(34.72,228.921)" cy="0"
      /><circle r="3" style="fill:none;" cx="0" transform="translate(52.08,238.4147)" cy="0"
      /><circle r="3" style="fill:none;" cx="0" transform="translate(69.44,243.5102)" cy="0"
      /><circle r="3" style="fill:none;" cx="0" transform="translate(86.8,247.7426)" cy="0"
      /><circle r="3" style="fill:none;" cx="0" transform="translate(104.16,250.3393)" cy="0"
      /><circle r="3" style="fill:none;" cx="0" transform="translate(121.52,252.4338)" cy="0"
      /><circle r="3" style="fill:none;" cx="0" transform="translate(138.88,254.7784)" cy="0"
      /><circle r="3" style="fill:none;" cx="0" transform="translate(156.24,256.7485)" cy="0"
      /><circle r="3" style="fill:none;" cx="0" transform="translate(173.6,259.1381)" cy="0"
      /><circle r="3" style="fill:none;" cx="0" transform="translate(190.96,260.5291)" cy="0"
      /><circle r="3" style="fill:none;" cx="0" transform="translate(208.32,263.7773)" cy="0"
      /><circle r="3" style="fill:none;" cx="0" transform="translate(225.68,265.9628)" cy="0"
      /><circle r="3" style="fill:none;" cx="0" transform="translate(243.04,267.3932)" cy="0"
      /><circle r="3" style="fill:none;" cx="0" transform="translate(260.4,268.6036)" cy="0"
      /><circle r="3" style="fill:none;" cx="0" transform="translate(277.76,270.0206)" cy="0"
      /><circle r="3" style="fill:none;" cx="0" transform="translate(295.12,272.6851)" cy="0"
      /><circle r="3" style="fill:none;" cx="0" transform="translate(312.48,274.7379)" cy="0"
      /><circle r="3" style="fill:none;" cx="0" transform="translate(329.84,276.2201)" cy="0"
      /><circle r="3" style="fill:none;" cx="0" transform="translate(347.2,277.1652)" cy="0"
      /><circle r="3" style="fill:none;" cx="0" transform="translate(364.56,278.0653)" cy="0"
      /><circle r="3" style="fill:none;" cx="0" transform="translate(381.92,278.8301)" cy="0"
      /><circle r="3" style="fill:none;" cx="0" transform="translate(399.28,279.5159)" cy="0"
      /><circle r="3" style="fill:none;" cx="0" transform="translate(416.64,279.8861)" cy="0"
    /></g
    ><g style="stroke-linecap:butt; text-rendering:geometricPrecision; image-rendering:optimizeQuality; color-rendering:optimizeQuality; stroke-linejoin:bevel; stroke-dasharray:10,6; color-interpolation:linearRGB; stroke-width:0.5; stroke-miterlimit:1;"
    ><path d="M73.868 108.8653 L74.736 120.0298 L75.604 122.212 L76.472 143.4402 L77.34 164.6524 L78.208 188.6919 L79.076 205.5628 L79.944 217.5133 L80.812 225.2042 L81.68 241.9487 L82.548 244.1897 L83.416 245.9345 L84.284 260.2618 L85.152 260.2618 L86.02 268.4627 L86.888 268.4627 L87.756 272.2769 L88.624 278.8434 L89.492 279.9348 L90.36 282.2893 L91.228 282.2893 L92.096 284.2097 L92.964 287.6349 L93.832 289.3181 L94.7 292.1055 L95.568 292.8136 L96.436 293.3629 L97.304 296.213 L98.172 299.7948 L99.04 302.0874 L99.908 304.1863 L100.776 304.1863 L101.644 306.2716 L102.512 306.7903 L103.38 307.6174 L104.248 307.9844 L105.116 308.9312 L105.984 308.9312 L106.852 309.9649 L107.72 310.4253 L108.588 310.4253 L109.456 310.8047 L110.324 310.8047 L111.192 310.8047 L112.06 310.8047 L112.928 311.3167 L113.796 311.3167 L114.664 312.2087 L115.532 315.9583 L116.4 316.5222 L117.268 316.5222 L118.136 316.5222 L119.004 316.5222 L119.872 316.5222 L120.74 316.5222 L121.608 316.5222 L122.476 316.5222 L123.344 316.5222 L124.212 316.5222 L125.08 316.7861 L125.948 316.7861 L126.816 316.7861 L127.684 316.7861 L128.552 316.7861 L129.42 316.7861 L130.288 316.7861 L131.156 316.7861 L132.024 316.7861 L132.892 317.1395 L133.76 317.1395 L134.628 317.1395 L135.496 319.1625 L136.364 319.1625 L137.232 319.3817 L138.1 319.3817 L138.968 319.3817 L139.836 319.3817 L140.704 319.3817 L141.572 319.3817 L142.44 319.3817 L143.308 319.3817 L144.176 319.3817 L145.044 319.3817 L145.912 319.3817 L146.78 319.3817 L147.648 319.3817 L148.516 320.001 L149.384 320.001 L150.252 320.001 L151.12 320.001 L151.988 320.9985 L152.856 320.9985 L153.724 320.9985 L154.592 320.9985 L155.46 320.9985 L156.328 320.9985 L157.196 320.9985 L158.064 320.9985 L158.932 320.9985 L159.8 320.9985 L160.668 320.9985 L161.536 320.9985 L162.404 320.9985 L163.272 320.9985 L164.14 320.9985 L165.008 320.9985 L165.876 321.1081 L166.744 321.1081 L167.612 321.1081 L168.48 321.1081 L169.348 321.1081 L170.216 321.1081 L171.084 321.1081 L171.952 321.1081 L172.82 321.1081 L173.688 321.1081 L174.556 321.1081 L175.424 321.1081 L176.292 321.1081 L177.16 321.1081 L178.028 321.1081 L178.896 321.1081 L179.764 321.1081 L180.632 321.1081 L181.5 321.1081 L182.368 321.1081 L183.236 321.1137 L184.104 321.1137 L184.972 321.7905 L185.84 321.7905 L186.708 321.7905 L187.576 321.804 L188.444 321.804 L189.312 321.804 L190.18 321.8077 L191.048 321.8203 L191.916 321.8321 L192.784 321.8386 L193.652 321.8864 L194.52 321.8864 L195.388 321.8864 L196.256 321.8864 L197.124 321.8899 L197.992 321.8951 L198.86 321.918 L199.728 321.918 L200.596 321.918 L201.464 321.9331 L202.332 321.9401 L203.2 321.9942 L204.068 321.9942 L204.936 321.9942 L205.804 321.9942 L206.672 321.9969 L207.54 322.0031 L208.408 322.9828 L209.276 322.9828 L210.144 322.9849 L211.012 323.0063 L211.88 323.0063 L212.748 323.0063 L213.616 323.0063 L214.484 323.0063 L215.352 323.0096 L216.22 323.0096 L217.088 323.0108 L217.956 323.0108 L218.824 323.0118 L219.692 323.0184 L220.56 323.0224 L221.428 323.0224 L222.296 323.0224 L223.164 323.0245 L224.032 323.0245 L224.9 323.0245 L225.768 323.0245 L226.636 323.0282 L227.504 323.0328 L228.372 323.0328 L229.24 323.0353 L230.108 323.0353 L230.976 323.0353 L231.844 323.0353 L232.712 323.0353 L233.58 323.0364 L234.448 323.0375 L235.316 323.0375 L236.184 323.0375 L237.052 323.0375 L237.92 323.0375 L238.788 323.0375 L239.656 323.0375 L240.524 323.0386 L241.392 323.0386 L242.26 323.0386 L243.128 323.0416 L243.996 323.0427 L244.864 323.0427 L245.732 323.045 L246.6 323.0457 L247.468 323.0466 L248.336 323.0467 L249.204 323.0467 L250.072 323.0504 L250.94 323.054 L251.808 323.0542 L252.676 323.0543 L253.544 323.0552 L254.412 323.0562 L255.28 323.0567 L256.148 323.0579 L257.016 323.0579 L257.884 323.0579 L258.752 323.0582 L259.62 323.0598 L260.488 323.0609 L261.356 323.0609 L262.224 323.0616 L263.092 323.0621 L263.96 323.0621 L264.828 323.0621 L265.696 323.0632 L266.564 323.0632 L267.432 323.0632 L268.3 323.0632 L269.168 323.0633 L270.036 323.0633 L270.904 323.0638 L271.772 323.0638 L272.64 323.0638 L273.508 323.0638 L274.376 323.0638 L275.244 323.0638 L276.112 323.064 L276.98 323.064 L277.848 323.064 L278.716 323.064 L279.584 323.064 L280.452 323.0642 L281.32 323.0642 L282.188 323.0642 L283.056 323.0645 L283.924 323.0646 L284.792 323.0646 L285.66 323.0647 L286.528 323.0652 L287.396 323.0652 L288.264 323.0653 L289.132 323.0654 L290 323.0654 L290.868 323.0654 L291.736 323.0654 L292.604 323.0654 L293.472 323.0654 L294.34 323.0655 L295.208 323.0655 L296.076 323.0655 L296.944 323.0658 L297.812 323.0662 L298.68 323.0662 L299.548 323.0662 L300.416 323.0663 L301.284 323.0663 L302.152 323.0664 L303.02 323.0664 L303.888 323.0664 L304.756 323.0664 L305.624 323.0664 L306.492 323.0664 L307.36 323.0664 L308.228 323.0664 L309.096 323.0665 L309.964 323.0665 L310.832 323.0666 L311.7 323.0667 L312.568 323.0667 L313.436 323.0669 L314.304 323.0669 L315.172 323.0669 L316.04 323.067 L316.908 323.0671 L317.776 323.0671 L318.644 323.0671 L319.512 323.0671 L320.38 323.0671 L321.248 323.0671 L322.116 323.0671 L322.984 323.0671 L323.852 323.0672 L324.72 323.0672 L325.588 323.0672 L326.456 323.0672 L327.324 323.0672 L328.192 323.0672 L329.06 323.0672 L329.928 323.0672 L330.796 323.0672 L331.664 323.0672 L332.532 323.0672 L333.4 323.0672 L334.268 323.0672 L335.136 323.0672 L336.004 323.0672 L336.872 323.0672 L337.74 323.0672 L338.608 323.0672 L339.476 323.0672 L340.344 323.0672 L341.212 323.0672 L342.08 323.0672 L342.948 323.0672 L343.816 323.0672 L344.684 323.0672 L345.552 323.0672 L346.42 323.0672 L347.288 323.0672 L348.156 323.0672 L349.024 323.0673 L349.892 323.0673 L350.76 323.0673 L351.628 323.0673 L352.496 323.0673 L353.364 323.0673 L354.232 323.0673 L355.1 323.0673 L355.968 323.0673 L356.836 323.0673 L357.704 323.0673 L358.572 323.0673 L359.44 323.0673 L360.308 323.0673 L361.176 323.0673 L362.044 323.0673 L362.912 323.0673 L363.78 323.0673 L364.648 323.0673 L365.516 323.0673 L366.384 323.0673 L367.252 323.0673 L368.12 323.0673 L368.988 323.0673 L369.856 323.0674 L370.724 323.0674 L371.592 323.0674 L372.46 323.0674 L373.328 323.0674 L374.196 323.0674 L375.064 323.0674 L375.932 323.0674 L376.8 323.0674 L377.668 323.0674 L378.536 323.0674 L379.404 323.0674 L380.272 323.0674 L381.14 323.0674 L382.008 323.0674 L382.876 323.0674 L383.744 323.0674 L384.612 323.0674 L385.48 323.0674 L386.348 323.0674 L387.216 323.0674 L388.084 323.0674 L388.952 323.0674 L389.82 323.0674 L390.688 323.0674 L391.556 323.0674 L392.424 323.0674 L393.292 323.0674 L394.16 323.0674 L395.028 323.0674 L395.896 323.0674 L396.764 323.0674 L397.632 323.0674 L398.5 323.0674 L399.368 323.0674 L400.236 323.0674 L401.104 323.0674 L401.972 323.0674 L402.84 323.0674 L403.708 323.0674 L404.576 323.0674 L405.444 323.0674 L406.312 323.0674 L407.18 323.0674 L408.048 323.0674 L408.916 323.0674 L409.784 323.0674 L410.652 323.0674 L411.52 323.0674 L412.388 323.0674 L413.256 323.0674 L414.124 323.0674 L414.992 323.0674 L415.86 323.0674 L416.728 323.0674 L417.596 323.0674 L418.464 323.0674 L419.332 323.0674 L420.2 323.0674 L421.068 323.0674 L421.936 323.0674 L422.804 323.0674 L423.672 323.0674 L424.54 323.0674 L425.408 323.0674 L426.276 323.0674 L427.144 323.0674 L428.012 323.0674 L428.88 323.0674 L429.748 323.0674 L430.616 323.0674 L431.484 323.0674 L432.352 323.0674 L433.22 323.0674 L434.088 323.0674 L434.956 323.0674 L435.824 323.0674 L436.692 323.0674 L437.56 323.0674 L438.428 323.0674 L439.296 323.0674 L440.164 323.0674 L441.032 323.0674 L441.9 323.0674 L442.768 323.0674 L443.636 323.0674 L444.504 323.0674 L445.372 323.0674 L446.24 323.0674 L447.108 323.0674 L447.976 323.0674 L448.844 323.0674 L449.712 323.0674 L450.58 323.0674 L451.448 323.0674 L452.316 323.0674 L453.184 323.0674 L454.052 323.0674 L454.92 323.0674 L455.788 323.0674 L456.656 323.0674 L457.524 323.0674 L458.392 323.0674 L459.26 323.0674 L460.128 323.0674 L460.996 323.0674 L461.864 323.0674 L462.732 323.0674 L463.6 323.0674 L464.468 323.0674 L465.336 323.0674 L466.204 323.0674 L467.072 323.0674 L467.94 323.0674 L468.808 323.0674 L469.676 323.0674 L470.544 323.0674 L471.412 323.0674 L472.28 323.0674 L473.148 323.0674 L474.016 323.0674 L474.884 323.0674 L475.752 323.0674 L476.62 323.0674 L477.488 323.0674 L478.356 323.0674 L479.224 323.0674 L480.092 323.0674 L480.96 323.0674 L481.828 323.0674 L482.696 323.0674 L483.564 323.0674 L484.432 323.0674 L485.3 323.0674 L486.168 323.0674 L487.036 323.0674 L487.904 323.0674 L488.772 323.0674 L489.64 323.0674 L490.508 323.0674 L491.376 323.0674 L492.244 323.0674 L493.112 323.0674 L493.98 323.0674 L494.848 323.0674 L495.716 323.0674 L496.584 323.0674 L497.452 323.0674 L498.32 323.0674 L499.188 323.0674 L500.056 323.0674 L500.924 323.0674 L501.792 323.0674 L502.66 323.0674 L503.528 323.0674 L504.396 323.0674 L505.264 323.0674 L506.132 323.0674 L507 323.0674" style="fill:none; fill-rule:evenodd;"
    /></g
    ><g transform="translate(73.868,108.8653)" style="text-rendering:geometricPrecision; color-rendering:optimizeQuality; color-interpolation:linearRGB; stroke-linecap:butt; image-rendering:optimizeQuality;"
    ><path style="fill:none;" d="M-3 0 L0 3.99 L3 0 L0 -3.99 Z"
      /><path d="M-3 0 L0 3.99 L3 0 L0 -3.99 Z" style="fill:none;" transform="translate(17.36,173.424)"
      /><path d="M-3 0 L0 3.99 L3 0 L0 -3.99 Z" style="fill:none;" transform="translate(34.72,201.56)"
      /><path d="M-3 0 L0 3.99 L3 0 L0 -3.99 Z" style="fill:none;" transform="translate(52.08,207.9208)"
      /><path d="M-3 0 L0 3.99 L3 0 L0 -3.99 Z" style="fill:none;" transform="translate(69.44,210.5164)"
      /><path d="M-3 0 L0 3.99 L3 0 L0 -3.99 Z" style="fill:none;" transform="translate(86.8,212.1331)"
      /><path d="M-3 0 L0 3.99 L3 0 L0 -3.99 Z" style="fill:none;" transform="translate(104.16,212.2428)"
      /><path d="M-3 0 L0 3.99 L3 0 L0 -3.99 Z" style="fill:none;" transform="translate(121.52,213.0211)"
      /><path d="M-3 0 L0 3.99 L3 0 L0 -3.99 Z" style="fill:none;" transform="translate(138.88,214.141)"
      /><path d="M-3 0 L0 3.99 L3 0 L0 -3.99 Z" style="fill:none;" transform="translate(156.24,214.1699)"
      /><path d="M-3 0 L0 3.99 L3 0 L0 -3.99 Z" style="fill:none;" transform="translate(173.6,214.1812)"
      /><path d="M-3 0 L0 3.99 L3 0 L0 -3.99 Z" style="fill:none;" transform="translate(190.96,214.1967)"
      /><path d="M-3 0 L0 3.99 L3 0 L0 -3.99 Z" style="fill:none;" transform="translate(208.32,214.1988)"
      /><path d="M-3 0 L0 3.99 L3 0 L0 -3.99 Z" style="fill:none;" transform="translate(225.68,214.2008)"
      /><path d="M-3 0 L0 3.99 L3 0 L0 -3.99 Z" style="fill:none;" transform="translate(243.04,214.2017)"
      /><path d="M-3 0 L0 3.99 L3 0 L0 -3.99 Z" style="fill:none;" transform="translate(260.4,214.2018)"
      /><path d="M-3 0 L0 3.99 L3 0 L0 -3.99 Z" style="fill:none;" transform="translate(277.76,214.202)"
      /><path d="M-3 0 L0 3.99 L3 0 L0 -3.99 Z" style="fill:none;" transform="translate(295.12,214.202)"
      /><path d="M-3 0 L0 3.99 L3 0 L0 -3.99 Z" style="fill:none;" transform="translate(312.48,214.202)"
      /><path d="M-3 0 L0 3.99 L3 0 L0 -3.99 Z" style="fill:none;" transform="translate(329.84,214.202)"
      /><path d="M-3 0 L0 3.99 L3 0 L0 -3.99 Z" style="fill:none;" transform="translate(347.2,214.202)"
      /><path d="M-3 0 L0 3.99 L3 0 L0 -3.99 Z" style="fill:none;" transform="translate(364.56,214.202)"
      /><path d="M-3 0 L0 3.99 L3 0 L0 -3.99 Z" style="fill:none;" transform="translate(381.92,214.202)"
      /><path d="M-3 0 L0 3.99 L3 0 L0 -3.99 Z" style="fill:none;" transform="translate(399.28,214.202)"
      /><path d="M-3 0 L0 3.99 L3 0 L0 -3.99 Z" style="fill:none;" transform="translate(416.64,214.202)"
    /></g
    ><g style="fill:white; text-rendering:optimizeSpeed; color-rendering:optimizeSpeed; image-rendering:optimizeSpeed; shape-rendering:crispEdges; stroke:white; color-interpolation:sRGB;"
    ><path style="stroke:none;" d="M497 90 L497 41 L423 41 L423 90 Z"
    /></g
    ><g transform="translate(460,48.4242)" style="font-size:9px; text-rendering:geometricPrecision; color-rendering:optimizeQuality; image-rendering:optimizeQuality; font-family:'Helvetica Neue'; color-interpolation:linearRGB;"
    ><text x="0" xml:space="preserve" y="3.5" style="stroke:none;"
      >MCGSA</text
    ></g
    ><g style="stroke-linecap:butt; fill:lime; text-rendering:geometricPrecision; image-rendering:optimizeQuality; color-rendering:optimizeQuality; stroke-linejoin:round; stroke:lime; color-interpolation:linearRGB; stroke-width:3;"
    ><line y2="48.4242" style="fill:none;" x1="427" x2="457" y1="48.4242"
    /></g
    ><g transform="translate(460,59.8081)" style="font-size:9px; text-rendering:geometricPrecision; color-rendering:optimizeQuality; image-rendering:optimizeQuality; font-family:'Helvetica Neue'; color-interpolation:linearRGB;"
    ><text x="0" xml:space="preserve" y="3.5" style="stroke:none;"
      >GSA</text
    ></g
    ><g style="stroke-linecap:butt; fill:blue; text-rendering:geometricPrecision; image-rendering:optimizeQuality; color-rendering:optimizeQuality; stroke-linejoin:bevel; stroke-dasharray:12,12; stroke:blue; color-interpolation:linearRGB; stroke-width:3; stroke-miterlimit:1;"
    ><line y2="59.8081" style="fill:none;" x1="427" x2="457" y1="59.8081"
    /></g
    ><g transform="translate(460,71.1919)" style="font-size:9px; text-rendering:geometricPrecision; color-rendering:optimizeQuality; image-rendering:optimizeQuality; font-family:'Helvetica Neue'; color-interpolation:linearRGB;"
    ><text x="0" xml:space="preserve" y="3.5" style="stroke:none;"
      >CGSA</text
    ></g
    ><g style="stroke-linecap:butt; fill:red; text-rendering:geometricPrecision; image-rendering:optimizeQuality; color-rendering:optimizeQuality; stroke-linejoin:bevel; stroke-dasharray:10,6; stroke:red; color-interpolation:linearRGB; stroke-width:0.5; stroke-miterlimit:1;"
    ><line y2="71.1919" style="fill:none;" x1="427" x2="457" y1="71.1919"
    /></g
    ><g transform="translate(442,71.1919)" style="stroke-linecap:butt; fill:red; text-rendering:geometricPrecision; color-rendering:optimizeQuality; image-rendering:optimizeQuality; color-interpolation:linearRGB; stroke:red;"
    ><circle r="3" style="fill:none;" cx="0" cy="0"
    /></g
    ><g transform="translate(460,82.5758)" style="font-size:9px; text-rendering:geometricPrecision; color-rendering:optimizeQuality; image-rendering:optimizeQuality; font-family:'Helvetica Neue'; color-interpolation:linearRGB;"
    ><text x="0" xml:space="preserve" y="3.5" style="stroke:none;"
      >MGSA</text
    ></g
    ><g style="stroke-linecap:butt; text-rendering:geometricPrecision; image-rendering:optimizeQuality; color-rendering:optimizeQuality; stroke-linejoin:bevel; stroke-dasharray:10,6; color-interpolation:linearRGB; stroke-width:0.5; stroke-miterlimit:1;"
    ><line y2="82.5758" style="fill:none;" x1="427" x2="457" y1="82.5758"
    /></g
    ><g transform="translate(442,82.5758)" style="text-rendering:geometricPrecision; color-rendering:optimizeQuality; color-interpolation:linearRGB; stroke-linecap:butt; image-rendering:optimizeQuality;"
    ><path style="fill:none;" d="M-3 0 L0 3.99 L3 0 L0 -3.99 Z"
      /><path transform="translate(-442,-82.5758)" style="fill:none; stroke-width:0.5; fill-rule:evenodd; stroke:rgb(38,38,38);" d="M423 90 L423 41 L497 41 L497 90 Z"
    /></g
  ></g
></svg
>
