<?xml version="1.0"?>
<!DOCTYPE svg PUBLIC '-//W3C//DTD SVG 1.0//EN'
          'http://www.w3.org/TR/2001/REC-SVG-20010904/DTD/svg10.dtd'>
<svg xmlns:xlink="http://www.w3.org/1999/xlink" style="fill-opacity:1; color-rendering:auto; color-interpolation:auto; text-rendering:auto; stroke:black; stroke-linecap:square; stroke-miterlimit:10; shape-rendering:auto; stroke-opacity:1; fill:black; stroke-dasharray:none; font-weight:normal; stroke-width:1; font-family:'Dialog'; font-style:normal; stroke-linejoin:miter; font-size:12px; stroke-dashoffset:0; image-rendering:auto;" width="560" height="420" xmlns="http://www.w3.org/2000/svg"
><!--Generated by the Batik Graphics2D SVG Generator--><defs id="genericDefs"
  /><g
  ><defs id="defs1"
    ><clipPath clipPathUnits="userSpaceOnUse" id="clipPath1"
      ><path d="M0 0 L560 0 L560 420 L0 420 L0 0 Z"
      /></clipPath
      ><font horiz-adv-x="50.0" id="font1"
      ><font-face ascent="95.200005" descent="21.3" units-per-em="100" style="font-style:normal; font-family:Helvetica Neue; font-weight:normal;"
        /><missing-glyph horiz-adv-x="50.0" d="M40.9 66.6 L10.2 66.6 L10.2 4.7 L40.9 4.7 ZM46 71.2 L46 0.1 L5.1 0.1 L5.1 71.2 Z"
        /><glyph unicode="0" horiz-adv-x="55.6" d="M13.2 34.9 Q13.2 37.5 13.25 40.65 Q13.3 43.8 13.75 46.95 Q14.2 50.1 15.05 53.1 Q15.9 56.1 17.55 58.35 Q19.2 60.6 21.7 62 Q24.2 63.4 27.8 63.4 Q31.4 63.4 33.9 62 Q36.4 60.6 38.05 58.35 Q39.7 56.1 40.55 53.1 Q41.4 50.1 41.85 46.95 Q42.3 43.8 42.35 40.65 Q42.4 37.5 42.4 34.9 Q42.4 30.9 42.15 25.95 Q41.9 21 40.55 16.65 Q39.2 12.3 36.2 9.3 Q33.2 6.3 27.8 6.3 Q22.4 6.3 19.4 9.3 Q16.4 12.3 15.05 16.65 Q13.7 21 13.45 25.95 Q13.2 30.9 13.2 34.9 ZM4.2 34.8 Q4.2 30.9 4.4 26.7 Q4.6 22.5 5.4 18.5 Q6.2 14.5 7.7 10.95 Q9.2 7.4 11.8 4.7 Q14.4 2 18.35 0.45 Q22.3 -1.1 27.8 -1.1 Q33.4 -1.1 37.3 0.45 Q41.2 2 43.8 4.7 Q46.4 7.4 47.9 10.95 Q49.4 14.5 50.2 18.5 Q51 22.5 51.2 26.7 Q51.4 30.9 51.4 34.8 Q51.4 38.7 51.2 42.9 Q51 47.1 50.2 51.1 Q49.4 55.1 47.9 58.7 Q46.4 62.3 43.8 65 Q41.2 67.7 37.25 69.3 Q33.3 70.9 27.8 70.9 Q22.3 70.9 18.35 69.3 Q14.4 67.7 11.8 65 Q9.2 62.3 7.7 58.7 Q6.2 55.1 5.4 51.1 Q4.6 47.1 4.4 42.9 Q4.2 38.7 4.2 34.8 Z"
        /><glyph unicode="5" horiz-adv-x="55.6" d="M47 62.2 L47 69.7 L12 69.7 L5.4 32.9 L12.7 32.5 Q15.2 35.5 18.45 37.35 Q21.7 39.2 25.9 39.2 Q29.5 39.2 32.45 38 Q35.4 36.8 37.5 34.65 Q39.6 32.5 40.75 29.55 Q41.9 26.6 41.9 23.1 Q41.9 18.9 40.7 15.75 Q39.5 12.6 37.45 10.5 Q35.4 8.4 32.65 7.35 Q29.9 6.3 26.9 6.3 Q23.7 6.3 21.05 7.25 Q18.4 8.2 16.45 9.95 Q14.5 11.7 13.35 14.05 Q12.2 16.4 12 19.1 L3.5 19.1 Q3.6 14.3 5.4 10.5 Q7.2 6.7 10.3 4.15 Q13.4 1.6 17.45 0.25 Q21.5 -1.1 26.1 -1.1 Q32.3 -1.1 36.95 0.85 Q41.6 2.8 44.7 6.1 Q47.8 9.4 49.35 13.65 Q50.9 17.9 50.9 22.4 Q50.9 28.5 49.1 33.05 Q47.3 37.6 44.2 40.65 Q41.1 43.7 36.9 45.2 Q32.7 46.7 28 46.7 Q24.4 46.7 20.75 45.45 Q17.1 44.2 14.8 41.6 L14.6 41.8 L18.4 62.2 Z"
        /><glyph unicode="1" horiz-adv-x="55.6" d="M35.6 0 L35.6 70.9 L29.1 70.9 Q28.4 66.9 26.5 64.3 Q24.6 61.7 21.85 60.2 Q19.1 58.7 15.7 58.15 Q12.3 57.6 8.7 57.6 L8.7 50.8 L27.1 50.8 L27.1 0 Z"
        /><glyph unicode="2" horiz-adv-x="55.6" d="M4.4 45.8 L12.9 45.8 Q12.8 49 13.55 52.15 Q14.3 55.3 16 57.8 Q17.7 60.3 20.35 61.85 Q23 63.4 26.7 63.4 Q29.5 63.4 32 62.5 Q34.5 61.6 36.35 59.9 Q38.2 58.2 39.3 55.85 Q40.4 53.5 40.4 50.6 Q40.4 46.9 39.25 44.1 Q38.1 41.3 35.85 38.9 Q33.6 36.5 30.2 34.15 Q26.8 31.8 22.3 29 Q18.6 26.8 15.2 24.3 Q11.8 21.8 9.1 18.5 Q6.4 15.2 4.65 10.75 Q2.9 6.3 2.4 0 L48.7 0 L48.7 7.5 L12.3 7.5 Q12.9 10.8 14.85 13.35 Q16.8 15.9 19.55 18.1 Q22.3 20.3 25.6 22.25 Q28.9 24.2 32.2 26.2 Q35.5 28.3 38.6 30.6 Q41.7 32.9 44.1 35.75 Q46.5 38.6 47.95 42.2 Q49.4 45.8 49.4 50.5 Q49.4 55.5 47.65 59.3 Q45.9 63.1 42.9 65.65 Q39.9 68.2 35.85 69.55 Q31.8 70.9 27.2 70.9 Q21.6 70.9 17.2 69 Q12.8 67.1 9.85 63.75 Q6.9 60.4 5.5 55.8 Q4.1 51.2 4.4 45.8 Z"
        /><glyph unicode="3" horiz-adv-x="55.6" d="M21.8 40.5 L21.8 33.3 Q24.2 33.6 26.9 33.6 Q30.1 33.6 32.85 32.75 Q35.6 31.9 37.6 30.15 Q39.6 28.4 40.8 25.85 Q42 23.3 42 20 Q42 16.8 40.75 14.25 Q39.5 11.7 37.4 9.95 Q35.3 8.2 32.5 7.25 Q29.7 6.3 26.6 6.3 Q19.3 6.3 15.5 10.65 Q11.7 15 11.5 21.9 L3 21.9 Q2.9 16.4 4.55 12.1 Q6.2 7.8 9.3 4.85 Q12.4 1.9 16.8 0.4 Q21.2 -1.1 26.6 -1.1 Q31.6 -1.1 36.05 0.25 Q40.5 1.6 43.8 4.3 Q47.1 7 49.05 11.05 Q51 15.1 51 20.4 Q51 26.8 47.85 31.5 Q44.7 36.2 38.2 37.6 L38.2 37.8 Q42.4 39.7 45.2 43.4 Q48 47.1 48 51.9 Q48 56.8 46.35 60.4 Q44.7 64 41.8 66.3 Q38.9 68.6 34.95 69.75 Q31 70.9 26.4 70.9 Q21.1 70.9 17.05 69.2 Q13 67.5 10.3 64.5 Q7.6 61.5 6.15 57.3 Q4.7 53.1 4.5 48 L13 48 Q13 51.1 13.8 53.9 Q14.6 56.7 16.25 58.8 Q17.9 60.9 20.45 62.15 Q23 63.4 26.4 63.4 Q31.8 63.4 35.4 60.55 Q39 57.7 39 52 Q39 49.2 37.9 47 Q36.8 44.8 34.95 43.35 Q33.1 41.9 30.65 41.15 Q28.2 40.4 25.5 40.4 L23.7 40.4 Q23.2 40.4 22.7 40.4 Q22.3 40.4 21.8 40.5 Z"
        /><glyph unicode="4" horiz-adv-x="55.6" d="M33.9 24.1 L10.1 24.1 L33.7 58.8 L33.9 58.8 ZM41.9 24.1 L41.9 70.9 L35.1 70.9 L2.8 24.8 L2.8 16.6 L33.9 16.6 L33.9 0 L41.9 0 L41.9 16.6 L51.5 16.6 L51.5 24.1 Z"
        /><glyph unicode="s" horiz-adv-x="50.0" d="M11.6 16.3 L3.1 16.3 Q3.3 11.5 5.1 8.15 Q6.9 4.8 9.9 2.75 Q12.9 0.7 16.8 -0.2 Q20.7 -1.1 25 -1.1 Q28.9 -1.1 32.85 -0.35 Q36.8 0.4 39.95 2.3 Q43.1 4.2 45.05 7.3 Q47 10.4 47 15.1 Q47 18.8 45.55 21.3 Q44.1 23.8 41.75 25.45 Q39.4 27.1 36.35 28.1 Q33.3 29.1 30.1 29.8 Q27.1 30.5 24.1 31.15 Q21.1 31.8 18.7 32.75 Q16.3 33.7 14.75 35.15 Q13.2 36.6 13.2 38.8 Q13.2 40.8 14.2 42.05 Q15.2 43.3 16.8 44.05 Q18.4 44.8 20.35 45.1 Q22.3 45.4 24.2 45.4 Q26.3 45.4 28.35 44.95 Q30.4 44.5 32.1 43.5 Q33.8 42.5 34.9 40.85 Q36 39.2 36.2 36.7 L44.7 36.7 Q44.4 41.4 42.7 44.55 Q41 47.7 38.15 49.55 Q35.3 51.4 31.6 52.15 Q27.9 52.9 23.5 52.9 Q20.1 52.9 16.65 52.05 Q13.2 51.2 10.45 49.45 Q7.7 47.7 5.95 44.9 Q4.2 42.1 4.2 38.2 Q4.2 33.2 6.7 30.4 Q9.2 27.6 12.95 26.05 Q16.7 24.5 21.1 23.65 Q25.5 22.8 29.25 21.75 Q33 20.7 35.5 19 Q38 17.3 38 14 Q38 11.6 36.8 10.05 Q35.6 8.5 33.75 7.7 Q31.9 6.9 29.7 6.6 Q27.5 6.3 25.5 6.3 Q22.9 6.3 20.45 6.8 Q18 7.3 16.05 8.45 Q14.1 9.6 12.9 11.55 Q11.7 13.5 11.6 16.3 Z"
        /><glyph unicode="n" horiz-adv-x="55.6" d="M6.4 51.7 L6.4 0 L14.9 0 L14.9 29.2 Q14.9 32.7 15.85 35.65 Q16.8 38.6 18.7 40.8 Q20.6 43 23.45 44.2 Q26.3 45.4 30.2 45.4 Q35.1 45.4 37.9 42.6 Q40.7 39.8 40.7 35 L40.7 0 L49.2 0 L49.2 34 Q49.2 38.2 48.35 41.65 Q47.5 45.1 45.4 47.6 Q43.3 50.1 39.9 51.5 Q36.5 52.9 31.4 52.9 Q19.9 52.9 14.6 43.5 L14.4 43.5 L14.4 51.7 Z"
        /><glyph unicode="o" horiz-adv-x="57.4" d="M12.6 25.8 Q12.6 30.5 13.85 34.15 Q15.1 37.8 17.3 40.3 Q19.5 42.8 22.45 44.1 Q25.4 45.4 28.7 45.4 Q32 45.4 34.95 44.1 Q37.9 42.8 40.1 40.3 Q42.3 37.8 43.55 34.15 Q44.8 30.5 44.8 25.8 Q44.8 21.1 43.55 17.45 Q42.3 13.8 40.1 11.35 Q37.9 8.9 34.95 7.6 Q32 6.3 28.7 6.3 Q25.4 6.3 22.45 7.6 Q19.5 8.9 17.3 11.35 Q15.1 13.8 13.85 17.45 Q12.6 21.1 12.6 25.8 ZM3.6 25.8 Q3.6 20.1 5.2 15.2 Q6.8 10.3 10 6.65 Q13.2 3 17.9 0.95 Q22.6 -1.1 28.7 -1.1 Q34.9 -1.1 39.55 0.95 Q44.2 3 47.4 6.65 Q50.6 10.3 52.2 15.2 Q53.8 20.1 53.8 25.8 Q53.8 31.5 52.2 36.45 Q50.6 41.4 47.4 45.05 Q44.2 48.7 39.55 50.8 Q34.9 52.9 28.7 52.9 Q22.6 52.9 17.9 50.8 Q13.2 48.7 10 45.05 Q6.8 41.4 5.2 36.45 Q3.6 31.5 3.6 25.8 Z"
        /><glyph unicode="i" horiz-adv-x="22.2" d="M15.4 61 L15.4 71.4 L6.9 71.4 L6.9 61 ZM6.9 51.7 L6.9 0 L15.4 0 L15.4 51.7 Z"
        /><glyph unicode="a" horiz-adv-x="53.7" d="M52.2 0.2 Q50 -1.1 46.1 -1.1 Q42.8 -1.1 40.85 0.75 Q38.9 2.6 38.9 6.8 Q35.4 2.6 30.75 0.75 Q26.1 -1.1 20.7 -1.1 Q17.2 -1.1 14.05 -0.3 Q10.9 0.5 8.6 2.2 Q6.3 3.9 4.95 6.65 Q3.6 9.4 3.6 13.3 Q3.6 17.7 5.1 20.5 Q6.6 23.3 9.05 25.05 Q11.5 26.8 14.65 27.7 Q17.8 28.6 21.1 29.2 Q24.6 29.9 27.75 30.25 Q30.9 30.6 33.3 31.25 Q35.7 31.9 37.1 33.15 Q38.5 34.4 38.5 36.8 Q38.5 39.6 37.45 41.3 Q36.4 43 34.75 43.9 Q33.1 44.8 31.05 45.1 Q29 45.4 27 45.4 Q21.6 45.4 18 43.35 Q14.4 41.3 14.1 35.6 L5.6 35.6 Q5.8 40.4 7.6 43.7 Q9.4 47 12.4 49.05 Q15.4 51.1 19.25 52 Q23.1 52.9 27.5 52.9 Q31 52.9 34.45 52.4 Q37.9 51.9 40.7 50.35 Q43.5 48.8 45.2 46 Q46.9 43.2 46.9 38.7 L46.9 12.1 Q46.9 9.1 47.25 7.7 Q47.6 6.3 49.6 6.3 Q50.7 6.3 52.2 6.8 ZM38.4 26.7 Q36.8 25.5 34.2 24.95 Q31.6 24.4 28.75 24.05 Q25.9 23.7 23 23.25 Q20.1 22.8 17.8 21.8 Q15.5 20.8 14.05 18.95 Q12.6 17.1 12.6 13.9 Q12.6 11.8 13.45 10.35 Q14.3 8.9 15.65 8 Q17 7.1 18.8 6.7 Q20.6 6.3 22.6 6.3 Q26.8 6.3 29.8 7.45 Q32.8 8.6 34.7 10.35 Q36.6 12.1 37.5 14.15 Q38.4 16.2 38.4 18 Z"
        /><glyph unicode="r" horiz-adv-x="33.3" d="M6.1 51.7 L6.1 0 L14.6 0 L14.6 23 Q14.6 28 15.6 31.85 Q16.6 35.7 18.8 38.4 Q21 41.1 24.6 42.5 Q28.2 43.9 33.3 43.9 L33.3 52.9 Q26.4 53.1 21.9 50.1 Q17.4 47.1 14.3 40.8 L14.1 40.8 L14.1 51.7 Z"
        /><glyph unicode="e" horiz-adv-x="53.7" d="M42.3 30.8 L12.6 30.8 Q12.8 33.8 13.9 36.45 Q15 39.1 16.9 41.1 Q18.8 43.1 21.45 44.25 Q24.1 45.4 27.4 45.4 Q30.6 45.4 33.25 44.25 Q35.9 43.1 37.85 41.15 Q39.8 39.2 40.95 36.5 Q42.1 33.8 42.3 30.8 ZM50.5 16.4 L42.1 16.4 Q41 11.3 37.55 8.8 Q34.1 6.3 28.7 6.3 Q24.5 6.3 21.4 7.7 Q18.3 9.1 16.3 11.45 Q14.3 13.8 13.4 16.85 Q12.5 19.9 12.6 23.3 L51.3 23.3 Q51.5 28 50.45 33.2 Q49.4 38.4 46.65 42.8 Q43.9 47.2 39.35 50.05 Q34.8 52.9 27.9 52.9 Q22.6 52.9 18.15 50.9 Q13.7 48.9 10.45 45.3 Q7.2 41.7 5.4 36.8 Q3.6 31.9 3.6 26 Q3.8 20.1 5.35 15.1 Q6.9 10.1 10 6.5 Q13.1 2.9 17.65 0.9 Q22.2 -1.1 28.4 -1.1 Q37.2 -1.1 43 3.3 Q48.8 7.7 50.5 16.4 Z"
        /><glyph unicode="t" horiz-adv-x="31.5" d="M18.2 51.7 L18.2 67.2 L9.7 67.2 L9.7 51.7 L0.9 51.7 L0.9 44.2 L9.7 44.2 L9.7 11.3 Q9.7 7.7 10.4 5.5 Q11.1 3.3 12.55 2.1 Q14 0.9 16.35 0.45 Q18.7 0 22 0 L28.5 0 L28.5 7.5 L24.6 7.5 Q22.6 7.5 21.35 7.65 Q20.1 7.8 19.4 8.3 Q18.7 8.8 18.45 9.7 Q18.2 10.6 18.2 12.1 L18.2 44.2 L28.5 44.2 L28.5 51.7 Z"
        /><glyph unicode="I" horiz-adv-x="25.9" d="M8.2 71.4 L8.2 0 L17.7 0 L17.7 71.4 Z"
        /><glyph unicode=" " horiz-adv-x="27.8" d=""
        /><glyph unicode="N" horiz-adv-x="72.2" d="M7.7 71.4 L7.7 0 L16.7 0 L16.7 57.3 L16.9 57.3 L54.2 0 L64.6 0 L64.6 71.4 L55.6 71.4 L55.6 13.5 L55.4 13.5 L17.8 71.4 Z"
        /><glyph unicode="6" horiz-adv-x="55.6" d="M41.4 52.8 L49.9 52.8 Q49.1 61.6 43.9 66.25 Q38.7 70.9 29.9 70.9 Q22.3 70.9 17.3 67.7 Q12.3 64.5 9.3 59.2 Q6.3 53.9 5.05 47.05 Q3.8 40.2 3.8 32.9 Q3.8 27.3 4.65 21.3 Q5.5 15.3 8.1 10.3 Q10.7 5.3 15.5 2.1 Q20.3 -1.1 28.2 -1.1 Q34.9 -1.1 39.45 1.15 Q44 3.4 46.75 6.85 Q49.5 10.3 50.7 14.5 Q51.9 18.7 51.9 22.6 Q51.9 27.5 50.4 31.7 Q48.9 35.9 46.15 39 Q43.4 42.1 39.35 43.85 Q35.3 45.6 30.2 45.6 Q24.4 45.6 19.95 43.4 Q15.5 41.2 12.5 36.3 L12.3 36.5 Q12.4 40.6 13.1 45.3 Q13.8 50 15.65 54.05 Q17.5 58.1 20.8 60.75 Q24.1 63.4 29.5 63.4 Q34.6 63.4 37.7 60.5 Q40.8 57.6 41.4 52.8 ZM28.6 38.1 Q32.2 38.1 34.9 36.8 Q37.6 35.5 39.4 33.35 Q41.2 31.2 42.05 28.25 Q42.9 25.3 42.9 22 Q42.9 18.9 41.95 16.05 Q41 13.2 39.2 11 Q37.4 8.8 34.75 7.55 Q32.1 6.3 28.6 6.3 Q25.1 6.3 22.35 7.55 Q19.6 8.8 17.75 10.9 Q15.9 13 14.9 15.9 Q13.9 18.8 13.9 22.1 Q13.9 25.4 14.85 28.35 Q15.8 31.3 17.7 33.45 Q19.6 35.6 22.3 36.85 Q25 38.1 28.6 38.1 Z"
        /><glyph unicode="7" horiz-adv-x="55.6" d="M50.9 62.4 L50.9 69.7 L5 69.7 L5 61.7 L42.2 61.7 Q36.6 55.8 31.75 48.8 Q26.9 41.8 23.2 33.95 Q19.5 26.1 17.15 17.55 Q14.8 9 14.2 0 L23.7 0 Q24.2 8.3 26.5 17.1 Q28.8 25.9 32.45 34.2 Q36.1 42.5 40.8 49.8 Q45.5 57.1 50.9 62.4 Z"
        /><glyph unicode="8" horiz-adv-x="55.6" d="M15.5 52.5 Q15.5 55.2 16.5 57.2 Q17.5 59.2 19.15 60.6 Q20.8 62 23.1 62.7 Q25.4 63.4 27.9 63.4 Q33.1 63.4 36.45 60.65 Q39.8 57.9 39.8 52.5 Q39.8 47.1 36.5 44.1 Q33.2 41.1 28.1 41.1 Q25.5 41.1 23.2 41.8 Q20.9 42.5 19.2 43.9 Q17.5 45.3 16.5 47.45 Q15.5 49.6 15.5 52.5 ZM6.5 52.8 Q6.5 48 9.2 43.95 Q11.9 39.9 16.4 38.1 Q10.4 36 7.2 31.35 Q4 26.7 4 20.4 Q4 15 5.85 10.95 Q7.7 6.9 10.95 4.2 Q14.2 1.5 18.6 0.2 Q23 -1.1 28.1 -1.1 Q33 -1.1 37.3 0.3 Q41.6 1.7 44.75 4.45 Q47.9 7.2 49.75 11.2 Q51.6 15.2 51.6 20.4 Q51.6 27 48.5 31.55 Q45.4 36.1 39 38.1 Q43.5 40.1 46.15 44.05 Q48.8 48 48.8 52.8 Q48.8 56.2 47.6 59.45 Q46.4 62.7 43.85 65.25 Q41.3 67.8 37.2 69.35 Q33.1 70.9 27.3 70.9 Q23.2 70.9 19.45 69.7 Q15.7 68.5 12.8 66.2 Q9.9 63.9 8.2 60.55 Q6.5 57.2 6.5 52.8 ZM13 20 Q13 23.1 14.15 25.6 Q15.3 28.1 17.35 29.9 Q19.4 31.7 22.15 32.65 Q24.9 33.6 28 33.6 Q31 33.6 33.65 32.55 Q36.3 31.5 38.3 29.7 Q40.3 27.9 41.45 25.45 Q42.6 23 42.6 20.1 Q42.6 17.1 41.55 14.6 Q40.5 12.1 38.55 10.25 Q36.6 8.4 33.95 7.35 Q31.3 6.3 28.1 6.3 Q21.5 6.3 17.25 9.95 Q13 13.6 13 20 Z"
        /><glyph unicode="9" horiz-adv-x="55.6" d="M13.4 17.1 L4.9 17.1 Q5.7 7.9 11.6 3.4 Q17.5 -1.1 26.4 -1.1 Q39.3 -1.1 45.15 8.75 Q51 18.6 51 37 Q51 47.1 49.05 53.65 Q47.1 60.2 43.8 64 Q40.5 67.8 36.1 69.35 Q31.7 70.9 26.7 70.9 Q21.6 70.9 17.3 69.2 Q13 67.5 9.9 64.45 Q6.8 61.4 5.1 57.15 Q3.4 52.9 3.4 47.8 Q3.4 42.6 4.85 38.2 Q6.3 33.8 9.15 30.7 Q12 27.6 16.2 25.85 Q20.4 24.1 25.8 24.1 Q31 24.1 35.4 26.75 Q39.8 29.4 42.2 33.9 L42.4 33.7 Q42 19.8 38.1 13.05 Q34.2 6.3 26.4 6.3 Q21.3 6.3 17.6 9.1 Q13.9 11.9 13.4 17.1 ZM40.9 47.2 Q40.9 44.1 39.9 41.25 Q38.9 38.4 37 36.25 Q35.1 34.1 32.4 32.85 Q29.7 31.6 26.4 31.6 Q23.3 31.6 20.75 32.85 Q18.2 34.1 16.35 36.2 Q14.5 38.3 13.45 41 Q12.4 43.7 12.4 46.6 Q12.4 49.9 13.15 52.9 Q13.9 55.9 15.55 58.25 Q17.2 60.6 19.85 62 Q22.5 63.4 26.3 63.4 Q29.9 63.4 32.6 62.1 Q35.3 60.8 37.15 58.55 Q39 56.3 39.95 53.4 Q40.9 50.5 40.9 47.2 Z"
        /><glyph unicode=")" horiz-adv-x="25.9" d="M-0.9 -19.7 L5.5 -19.7 Q13.3 -9.4 17.25 2.55 Q21.2 14.5 21.2 26.3 Q21.2 32.9 20.1 38.9 Q19 44.9 16.95 50.65 Q14.9 56.4 12 61.95 Q9.1 67.5 5.5 73.1 L-0.9 73.1 Q6.1 61.6 9.15 50.25 Q12.2 38.9 12.2 26.3 Q12.2 14.1 9.2 2.85 Q6.2 -8.4 -0.9 -19.7 Z"
        /><glyph unicode="x" horiz-adv-x="51.8" d="M20.3 27.2 L0.9 0 L11.2 0 L25.6 21.4 L40 0 L50.9 0 L30.9 27.9 L48.7 51.7 L38.5 51.7 L25.6 33.6 L13.2 51.7 L2.3 51.7 Z"
        /><glyph unicode="(" horiz-adv-x="25.9" d="M20.4 -19.7 L26.9 -19.7 Q19.8 -8.2 16.75 3.1 Q13.7 14.4 13.7 27 Q13.7 39.3 16.7 50.5 Q19.7 61.7 26.9 73.1 L20.4 73.1 Q12.6 62.8 8.65 50.8 Q4.7 38.8 4.7 27 Q4.7 20.4 5.8 14.4 Q6.9 8.4 8.95 2.7 Q11 -3 13.9 -8.55 Q16.8 -14.1 20.4 -19.7 Z"
        /><glyph unicode="f" horiz-adv-x="29.6" d="M9.9 44.2 L9.9 0 L18.4 0 L18.4 44.2 L28.4 44.2 L28.4 51.7 L18.4 51.7 L18.4 58.9 Q18.4 62.3 20.1 63.5 Q21.8 64.7 24.9 64.7 Q26 64.7 27.3 64.55 Q28.6 64.4 29.7 64 L29.7 71.4 Q28.5 71.8 26.95 72 Q25.4 72.2 24.2 72.2 Q17.2 72.2 13.55 68.95 Q9.9 65.7 9.9 59.4 L9.9 51.7 L1.2 51.7 L1.2 44.2 Z"
        /><glyph unicode="M" horiz-adv-x="87.1" d="M8 71.4 L8 0 L17 0 L17 59.4 L17.2 59.4 L39.5 0 L47.6 0 L69.9 59.4 L70.1 59.4 L70.1 0 L79.1 0 L79.1 71.4 L66.1 71.4 L43.5 11.4 L21 71.4 Z"
        /><glyph unicode="A" horiz-adv-x="64.8" d="M20.1 29.5 L32.2 62.8 L32.4 62.8 L44.3 29.5 ZM27.2 71.4 L-0.6 0 L9.1 0 L17.1 21.5 L47.3 21.5 L55.1 0 L65.6 0 L37.7 71.4 Z"
        /><glyph unicode="S" horiz-adv-x="64.8" d="M49.1 50.5 L58.1 50.5 Q57.9 56.4 55.85 60.65 Q53.8 64.9 50.25 67.7 Q46.7 70.5 42 71.8 Q37.3 73.1 31.8 73.1 Q26.9 73.1 22.25 71.85 Q17.6 70.6 13.95 68.05 Q10.3 65.5 8.1 61.55 Q5.9 57.6 5.9 52.2 Q5.9 47.3 7.85 44.05 Q9.8 40.8 13.05 38.75 Q16.3 36.7 20.4 35.45 Q24.5 34.2 28.75 33.25 Q33 32.3 37.1 31.4 Q41.2 30.5 44.45 29.05 Q47.7 27.6 49.65 25.3 Q51.6 23 51.6 19.3 Q51.6 15.4 50 12.9 Q48.4 10.4 45.8 8.95 Q43.2 7.5 39.95 6.9 Q36.7 6.3 33.5 6.3 Q29.5 6.3 25.7 7.3 Q21.9 8.3 19.05 10.4 Q16.2 12.5 14.45 15.75 Q12.7 19 12.7 23.5 L3.7 23.5 Q3.7 17 6.05 12.25 Q8.4 7.5 12.45 4.45 Q16.5 1.4 21.85 -0.1 Q27.2 -1.6 33.2 -1.6 Q38.1 -1.6 43.05 -0.45 Q48 0.7 52 3.25 Q56 5.8 58.55 9.85 Q61.1 13.9 61.1 19.6 Q61.1 24.9 59.15 28.4 Q57.2 31.9 53.95 34.2 Q50.7 36.5 46.6 37.85 Q42.5 39.2 38.25 40.2 Q34 41.2 29.9 42.05 Q25.8 42.9 22.55 44.2 Q19.3 45.5 17.35 47.55 Q15.4 49.6 15.4 52.9 Q15.4 56.4 16.75 58.75 Q18.1 61.1 20.35 62.5 Q22.6 63.9 25.5 64.5 Q28.4 65.1 31.4 65.1 Q38.8 65.1 43.55 61.65 Q48.3 58.2 49.1 50.5 Z"
        /><glyph unicode="G" horiz-adv-x="75.9" d="M61.2 8.9 L63.7 0 L69.7 0 L69.7 37.6 L38.4 37.6 L38.4 29.6 L61.2 29.6 Q61.4 24.7 59.9 20.45 Q58.4 16.2 55.45 13.05 Q52.5 9.9 48.2 8.1 Q43.9 6.3 38.3 6.3 Q32.3 6.3 27.75 8.65 Q23.2 11 20.1 14.95 Q17 18.9 15.4 24.05 Q13.8 29.2 13.8 34.8 Q13.8 40.5 15.2 45.95 Q16.6 51.4 19.55 55.65 Q22.5 59.9 27.15 62.5 Q31.8 65.1 38.3 65.1 Q42.3 65.1 45.85 64.15 Q49.4 63.2 52.2 61.3 Q55 59.4 56.9 56.45 Q58.8 53.5 59.5 49.4 L69 49.4 Q68 55.7 65.25 60.15 Q62.5 64.6 58.45 67.5 Q54.4 70.4 49.25 71.75 Q44.1 73.1 38.3 73.1 Q29.8 73.1 23.45 69.95 Q17.1 66.8 12.85 61.5 Q8.6 56.2 6.45 49.15 Q4.3 42.1 4.3 34.3 Q4.3 27.3 6.6 20.8 Q8.9 14.3 13.3 9.3 Q17.7 4.3 24 1.35 Q30.3 -1.6 38.3 -1.6 Q44.6 -1.6 50.8 0.85 Q57 3.3 61.2 8.9 Z"
        /><glyph unicode="C" horiz-adv-x="72.2" d="M58 49.9 L67.5 49.9 Q66.7 55.6 64.1 59.95 Q61.5 64.3 57.6 67.2 Q53.7 70.1 48.7 71.6 Q43.7 73.1 38.1 73.1 Q29.9 73.1 23.55 70.15 Q17.2 67.2 12.95 62.1 Q8.7 57 6.5 50.15 Q4.3 43.3 4.3 35.5 Q4.3 27.7 6.35 20.9 Q8.4 14.1 12.5 9.1 Q16.6 4.1 22.8 1.25 Q29 -1.6 37.3 -1.6 Q51 -1.6 58.9 5.9 Q66.8 13.4 68.2 26.9 L58.7 26.9 Q58.4 22.5 56.9 18.7 Q55.4 14.9 52.75 12.15 Q50.1 9.4 46.45 7.85 Q42.8 6.3 38.1 6.3 Q31.7 6.3 27.1 8.7 Q22.5 11.1 19.55 15.15 Q16.6 19.2 15.2 24.65 Q13.8 30.1 13.8 36.2 Q13.8 41.8 15.2 47 Q16.6 52.2 19.55 56.25 Q22.5 60.3 27.05 62.7 Q31.6 65.1 38 65.1 Q45.5 65.1 50.95 61.3 Q56.4 57.5 58 49.9 Z"
      /></font
      ><font horiz-adv-x="75.0" id="font2"
      ><font-face ascent="65.42969" descent="22.558594" units-per-em="100" style="font-style:normal; font-family:mwb_cmsy10; font-weight:normal;"
        /><missing-glyph horiz-adv-x="75.0" d="M12.5 0 L12.5 62.5 L62.5 62.5 L62.5 0 L12.5 0 ZM60.8906 1.6094 L60.8906 60.8906 L14.1094 60.8906 L14.1094 1.6094 L60.8906 1.6094 Z"
        /><glyph unicode="#" horiz-adv-x="77.68555" d="M14.7031 2.875 Q14.7031 3.6562 15.1875 4.2969 L35.9844 25 L15.1875 45.7969 Q14.7031 46.2969 14.7031 47.125 Q14.7031 47.8594 15.2891 48.4922 Q15.875 49.125 16.7031 49.125 Q17.3906 49.125 18.2188 48.4844 L38.9219 27.7812 L59.5156 48.4844 Q60.3594 49.125 60.9844 49.125 Q61.8125 49.125 62.3984 48.5391 Q62.9844 47.9531 62.9844 47.125 Q62.9844 46.2969 62.5 45.7969 L41.7031 25 L62.5 4.2969 Q62.9844 3.6562 62.9844 2.875 Q62.9844 2.0469 62.3984 1.4609 Q61.8125 0.875 60.9844 0.875 Q60.25 0.875 59.5156 1.6094 L38.9219 22.2188 L18.2188 1.6094 Q17.4844 0.875 16.7031 0.875 Q15.875 0.875 15.2891 1.5156 Q14.7031 2.1562 14.7031 2.875 Z"
      /></font
      ><font horiz-adv-x="50.0" id="font3"
      ><font-face ascent="97.5" descent="21.699999" units-per-em="100" style="font-style:normal; font-family:Helvetica Neue; font-weight:bold;"
        /><missing-glyph horiz-adv-x="50.0" d="M39.1 60.7 L11.1 60.7 L11.1 9.5 L39.1 9.5 ZM48.2 69.8 L48.2 0.3 L1.7 0.3 L1.7 69.8 Z"
        /><glyph unicode="1" horiz-adv-x="55.6" d="M39.2 0 L39.2 70 L27.9 70 Q27.3 66 25.4 63.3 Q23.5 60.6 20.75 58.95 Q18 57.3 14.55 56.65 Q11.1 56 7.4 56.1 L7.4 45.4 L25 45.4 L25 0 Z"
        /><glyph unicode="m" horiz-adv-x="90.6" d="M5.8 51.7 L5.8 0 L20 0 L20 30 Q20 33.8 21.1 36.15 Q22.2 38.5 23.75 39.75 Q25.3 41 26.95 41.45 Q28.6 41.9 29.6 41.9 Q33 41.9 34.75 40.75 Q36.5 39.6 37.25 37.7 Q38 35.8 38.1 33.55 Q38.2 31.3 38.2 29 L38.2 0 L52.4 0 L52.4 28.8 Q52.4 31.2 52.75 33.55 Q53.1 35.9 54.15 37.75 Q55.2 39.6 57.05 40.75 Q58.9 41.9 61.9 41.9 Q64.9 41.9 66.65 40.9 Q68.4 39.9 69.3 38.2 Q70.2 36.5 70.4 34.2 Q70.6 31.9 70.6 29.3 L70.6 0 L84.8 0 L84.8 34.6 Q84.8 39.6 83.4 43.15 Q82 46.7 79.5 48.9 Q77 51.1 73.5 52.1 Q70 53.1 65.9 53.1 Q60.5 53.1 56.55 50.5 Q52.6 47.9 50.3 44.5 Q48.2 49.3 44.15 51.2 Q40.1 53.1 35.2 53.1 Q30.1 53.1 26.15 50.9 Q22.2 48.7 19.4 44.7 L19.2 44.7 L19.2 51.7 Z"
        /><glyph unicode="e" horiz-adv-x="57.4" d="M40.2 31.4 L17.1 31.4 Q17.2 32.9 17.75 34.8 Q18.3 36.7 19.65 38.4 Q21 40.1 23.25 41.25 Q25.5 42.4 28.9 42.4 Q34.1 42.4 36.65 39.6 Q39.2 36.8 40.2 31.4 ZM17.1 22.4 L54.4 22.4 Q54.8 28.4 53.4 33.9 Q52 39.4 48.85 43.7 Q45.7 48 40.8 50.55 Q35.9 53.1 29.3 53.1 Q23.4 53.1 18.55 51 Q13.7 48.9 10.2 45.25 Q6.7 41.6 4.8 36.6 Q2.9 31.6 2.9 25.8 Q2.9 19.8 4.75 14.8 Q6.6 9.8 10 6.2 Q13.4 2.6 18.3 0.65 Q23.2 -1.3 29.3 -1.3 Q38.1 -1.3 44.3 2.7 Q50.5 6.7 53.5 16 L41 16 Q40.3 13.6 37.2 11.45 Q34.1 9.3 29.8 9.3 Q23.8 9.3 20.6 12.4 Q17.4 15.5 17.1 22.4 Z"
        /><glyph unicode="l" horiz-adv-x="25.8" d="M5.8 71.4 L5.8 0 L20 0 L20 71.4 Z"
        /><glyph unicode="b" horiz-adv-x="61.1" d="M43.3 25.8 Q43.3 22.6 42.6 19.6 Q41.9 16.6 40.4 14.3 Q38.9 12 36.65 10.65 Q34.4 9.3 31.2 9.3 Q28.1 9.3 25.8 10.65 Q23.5 12 22 14.3 Q20.5 16.6 19.8 19.6 Q19.1 22.6 19.1 25.8 Q19.1 29.1 19.8 32.1 Q20.5 35.1 22 37.4 Q23.5 39.7 25.8 41.05 Q28.1 42.4 31.2 42.4 Q34.4 42.4 36.65 41.05 Q38.9 39.7 40.4 37.4 Q41.9 35.1 42.6 32.1 Q43.3 29.1 43.3 25.8 ZM5.4 71.4 L5.4 0 L18.9 0 L18.9 6.6 L19.1 6.6 Q21.4 2.3 25.9 0.5 Q30.4 -1.3 36.1 -1.3 Q40 -1.3 43.8 0.3 Q47.6 1.9 50.65 5.2 Q53.7 8.5 55.6 13.65 Q57.5 18.8 57.5 25.9 Q57.5 33 55.6 38.15 Q53.7 43.3 50.65 46.6 Q47.6 49.9 43.8 51.5 Q40 53.1 36.1 53.1 Q31.3 53.1 26.85 51.25 Q22.4 49.4 19.8 45.4 L19.6 45.4 L19.6 71.4 Z"
        /><glyph unicode="o" horiz-adv-x="61.1" d="M18 25.8 Q18 28.9 18.6 31.9 Q19.2 34.9 20.65 37.2 Q22.1 39.5 24.5 40.95 Q26.9 42.4 30.5 42.4 Q34.1 42.4 36.55 40.95 Q39 39.5 40.45 37.2 Q41.9 34.9 42.5 31.9 Q43.1 28.9 43.1 25.8 Q43.1 22.7 42.5 19.75 Q41.9 16.8 40.45 14.45 Q39 12.1 36.55 10.7 Q34.1 9.3 30.5 9.3 Q26.9 9.3 24.5 10.7 Q22.1 12.1 20.65 14.45 Q19.2 16.8 18.6 19.75 Q18 22.7 18 25.8 ZM3.8 25.8 Q3.8 19.6 5.7 14.6 Q7.6 9.6 11.1 6.05 Q14.6 2.5 19.5 0.6 Q24.4 -1.3 30.5 -1.3 Q36.6 -1.3 41.55 0.6 Q46.5 2.5 50 6.05 Q53.5 9.6 55.4 14.6 Q57.3 19.6 57.3 25.8 Q57.3 32 55.4 37.05 Q53.5 42.1 50 45.65 Q46.5 49.2 41.55 51.15 Q36.6 53.1 30.5 53.1 Q24.4 53.1 19.5 51.15 Q14.6 49.2 11.1 45.65 Q7.6 42.1 5.7 37.05 Q3.8 32 3.8 25.8 Z"
        /><glyph unicode="r" horiz-adv-x="38.9" d="M5.4 51.7 L5.4 0 L19.6 0 L19.6 23.3 Q19.6 26.8 20.3 29.8 Q21 32.8 22.65 35.05 Q24.3 37.3 27 38.6 Q29.7 39.9 33.6 39.9 Q34.9 39.9 36.3 39.75 Q37.7 39.6 38.7 39.4 L38.7 52.6 Q37 53.1 35.6 53.1 Q32.9 53.1 30.4 52.3 Q27.9 51.5 25.7 50.05 Q23.5 48.6 21.8 46.55 Q20.1 44.5 19.1 42.1 L18.9 42.1 L18.9 51.7 Z"
        /><glyph unicode="P" horiz-adv-x="66.7" d="M22.6 37.8 L22.6 59.2 L34.8 59.2 Q37.5 59.2 40 58.8 Q42.5 58.4 44.4 57.25 Q46.3 56.1 47.45 54 Q48.6 51.9 48.6 48.5 Q48.6 45.1 47.45 43 Q46.3 40.9 44.4 39.75 Q42.5 38.6 40 38.2 Q37.5 37.8 34.8 37.8 ZM6.9 71.4 L6.9 0 L22.6 0 L22.6 25.6 L39.1 25.6 Q45.8 25.6 50.5 27.55 Q55.2 29.5 58.15 32.7 Q61.1 35.9 62.45 40.05 Q63.8 44.2 63.8 48.5 Q63.8 52.9 62.45 57 Q61.1 61.1 58.15 64.3 Q55.2 67.5 50.5 69.45 Q45.8 71.4 39.1 71.4 Z"
      /></font
    ></defs
    ><g style="fill:white; stroke:white;"
    ><rect x="0" y="0" width="560" style="clip-path:url(#clipPath1); stroke:none;" height="420"
    /></g
    ><g style="fill:white; text-rendering:optimizeSpeed; color-rendering:optimizeSpeed; image-rendering:optimizeSpeed; shape-rendering:crispEdges; stroke:white; color-interpolation:sRGB;"
    ><rect x="0" width="560" height="420" y="0" style="stroke:none;"
      /><path style="stroke:none;" d="M73 374 L507 374 L507 31.5 L73 31.5 Z"
    /></g
    ><g style="fill:rgb(38,38,38); text-rendering:geometricPrecision; image-rendering:optimizeQuality; color-rendering:optimizeQuality; stroke-linejoin:round; stroke:rgb(38,38,38); color-interpolation:linearRGB; stroke-width:0.5;"
    ><line y2="374" style="fill:none;" x1="73" x2="507" y1="374"
      /><line y2="369.66" style="fill:none;" x1="73" x2="73" y1="374"
      /><line y2="369.66" style="fill:none;" x1="116.4" x2="116.4" y1="374"
      /><line y2="369.66" style="fill:none;" x1="159.8" x2="159.8" y1="374"
      /><line y2="369.66" style="fill:none;" x1="203.2" x2="203.2" y1="374"
      /><line y2="369.66" style="fill:none;" x1="246.6" x2="246.6" y1="374"
      /><line y2="369.66" style="fill:none;" x1="290" x2="290" y1="374"
      /><line y2="369.66" style="fill:none;" x1="333.4" x2="333.4" y1="374"
      /><line y2="369.66" style="fill:none;" x1="376.8" x2="376.8" y1="374"
      /><line y2="369.66" style="fill:none;" x1="420.2" x2="420.2" y1="374"
      /><line y2="369.66" style="fill:none;" x1="463.6" x2="463.6" y1="374"
      /><line y2="369.66" style="fill:none;" x1="507" x2="507" y1="374"
    /></g
    ><g transform="translate(73,378)" style="font-size:10px; fill:rgb(38,38,38); text-rendering:geometricPrecision; image-rendering:optimizeQuality; color-rendering:optimizeQuality; font-family:'Helvetica Neue'; stroke:rgb(38,38,38); color-interpolation:linearRGB;"
    ><text x="-3" xml:space="preserve" y="10" style="stroke:none;"
      >0</text
    ></g
    ><g transform="translate(116.4,378)" style="font-size:10px; fill:rgb(38,38,38); text-rendering:geometricPrecision; image-rendering:optimizeQuality; color-rendering:optimizeQuality; font-family:'Helvetica Neue'; stroke:rgb(38,38,38); color-interpolation:linearRGB;"
    ><text x="-6" xml:space="preserve" y="10" style="stroke:none;"
      >50</text
    ></g
    ><g transform="translate(159.8,378)" style="font-size:10px; fill:rgb(38,38,38); text-rendering:geometricPrecision; image-rendering:optimizeQuality; color-rendering:optimizeQuality; font-family:'Helvetica Neue'; stroke:rgb(38,38,38); color-interpolation:linearRGB;"
    ><text x="-8.5" xml:space="preserve" y="10" style="stroke:none;"
      >100</text
    ></g
    ><g transform="translate(203.2,378)" style="font-size:10px; fill:rgb(38,38,38); text-rendering:geometricPrecision; image-rendering:optimizeQuality; color-rendering:optimizeQuality; font-family:'Helvetica Neue'; stroke:rgb(38,38,38); color-interpolation:linearRGB;"
    ><text x="-8.5" xml:space="preserve" y="10" style="stroke:none;"
      >150</text
    ></g
    ><g transform="translate(246.6,378)" style="font-size:10px; fill:rgb(38,38,38); text-rendering:geometricPrecision; image-rendering:optimizeQuality; color-rendering:optimizeQuality; font-family:'Helvetica Neue'; stroke:rgb(38,38,38); color-interpolation:linearRGB;"
    ><text x="-8.5" xml:space="preserve" y="10" style="stroke:none;"
      >200</text
    ></g
    ><g transform="translate(290,378)" style="font-size:10px; fill:rgb(38,38,38); text-rendering:geometricPrecision; image-rendering:optimizeQuality; color-rendering:optimizeQuality; font-family:'Helvetica Neue'; stroke:rgb(38,38,38); color-interpolation:linearRGB;"
    ><text x="-8.5" xml:space="preserve" y="10" style="stroke:none;"
      >250</text
    ></g
    ><g transform="translate(333.4,378)" style="font-size:10px; fill:rgb(38,38,38); text-rendering:geometricPrecision; image-rendering:optimizeQuality; color-rendering:optimizeQuality; font-family:'Helvetica Neue'; stroke:rgb(38,38,38); color-interpolation:linearRGB;"
    ><text x="-8.5" xml:space="preserve" y="10" style="stroke:none;"
      >300</text
    ></g
    ><g transform="translate(376.8,378)" style="font-size:10px; fill:rgb(38,38,38); text-rendering:geometricPrecision; image-rendering:optimizeQuality; color-rendering:optimizeQuality; font-family:'Helvetica Neue'; stroke:rgb(38,38,38); color-interpolation:linearRGB;"
    ><text x="-8.5" xml:space="preserve" y="10" style="stroke:none;"
      >350</text
    ></g
    ><g transform="translate(420.2,378)" style="font-size:10px; fill:rgb(38,38,38); text-rendering:geometricPrecision; image-rendering:optimizeQuality; color-rendering:optimizeQuality; font-family:'Helvetica Neue'; stroke:rgb(38,38,38); color-interpolation:linearRGB;"
    ><text x="-8.5" xml:space="preserve" y="10" style="stroke:none;"
      >400</text
    ></g
    ><g transform="translate(463.6,378)" style="font-size:10px; fill:rgb(38,38,38); text-rendering:geometricPrecision; image-rendering:optimizeQuality; color-rendering:optimizeQuality; font-family:'Helvetica Neue'; stroke:rgb(38,38,38); color-interpolation:linearRGB;"
    ><text x="-8.5" xml:space="preserve" y="10" style="stroke:none;"
      >450</text
    ></g
    ><g transform="translate(507,378)" style="font-size:10px; fill:rgb(38,38,38); text-rendering:geometricPrecision; image-rendering:optimizeQuality; color-rendering:optimizeQuality; font-family:'Helvetica Neue'; stroke:rgb(38,38,38); color-interpolation:linearRGB;"
    ><text x="-8.5" xml:space="preserve" y="10" style="stroke:none;"
      >500</text
    ></g
    ><g transform="translate(290.0002,391.5)" style="font-size:11px; fill:rgb(38,38,38); text-rendering:geometricPrecision; image-rendering:optimizeQuality; color-rendering:optimizeQuality; font-family:'Helvetica Neue'; stroke:rgb(38,38,38); color-interpolation:linearRGB;"
    ><text x="-28.5" xml:space="preserve" y="11" style="stroke:none;"
      >N Iterations</text
    ></g
    ><g style="fill:rgb(38,38,38); text-rendering:geometricPrecision; image-rendering:optimizeQuality; color-rendering:optimizeQuality; stroke-linejoin:round; stroke:rgb(38,38,38); color-interpolation:linearRGB; stroke-width:0.5;"
    ><line y2="31.5" style="fill:none;" x1="73" x2="73" y1="374"
      /><line y2="373.7262" style="fill:none;" x1="73" x2="77.34" y1="373.7262"
      /><line y2="339.5036" style="fill:none;" x1="73" x2="77.34" y1="339.5036"
      /><line y2="305.281" style="fill:none;" x1="73" x2="77.34" y1="305.281"
      /><line y2="271.0583" style="fill:none;" x1="73" x2="77.34" y1="271.0583"
      /><line y2="236.8357" style="fill:none;" x1="73" x2="77.34" y1="236.8357"
      /><line y2="202.6131" style="fill:none;" x1="73" x2="77.34" y1="202.6131"
      /><line y2="168.3905" style="fill:none;" x1="73" x2="77.34" y1="168.3905"
      /><line y2="134.1679" style="fill:none;" x1="73" x2="77.34" y1="134.1679"
      /><line y2="99.9452" style="fill:none;" x1="73" x2="77.34" y1="99.9452"
      /><line y2="65.7226" style="fill:none;" x1="73" x2="77.34" y1="65.7226"
      /><line y2="31.5" style="fill:none;" x1="73" x2="77.34" y1="31.5"
    /></g
    ><g transform="translate(69,373.7262)" style="font-size:10px; fill:rgb(38,38,38); text-rendering:geometricPrecision; image-rendering:optimizeQuality; color-rendering:optimizeQuality; font-family:'Helvetica Neue'; stroke:rgb(38,38,38); color-interpolation:linearRGB;"
    ><text x="-6" xml:space="preserve" y="3.5" style="stroke:none;"
      >0</text
    ></g
    ><g transform="translate(69,339.5036)" style="font-size:10px; fill:rgb(38,38,38); text-rendering:geometricPrecision; image-rendering:optimizeQuality; color-rendering:optimizeQuality; font-family:'Helvetica Neue'; stroke:rgb(38,38,38); color-interpolation:linearRGB;"
    ><text x="-6" xml:space="preserve" y="3.5" style="stroke:none;"
      >1</text
    ></g
    ><g transform="translate(69,305.281)" style="font-size:10px; fill:rgb(38,38,38); text-rendering:geometricPrecision; image-rendering:optimizeQuality; color-rendering:optimizeQuality; font-family:'Helvetica Neue'; stroke:rgb(38,38,38); color-interpolation:linearRGB;"
    ><text x="-6" xml:space="preserve" y="3.5" style="stroke:none;"
      >2</text
    ></g
    ><g transform="translate(69,271.0583)" style="font-size:10px; fill:rgb(38,38,38); text-rendering:geometricPrecision; image-rendering:optimizeQuality; color-rendering:optimizeQuality; font-family:'Helvetica Neue'; stroke:rgb(38,38,38); color-interpolation:linearRGB;"
    ><text x="-6" xml:space="preserve" y="3.5" style="stroke:none;"
      >3</text
    ></g
    ><g transform="translate(69,236.8357)" style="font-size:10px; fill:rgb(38,38,38); text-rendering:geometricPrecision; image-rendering:optimizeQuality; color-rendering:optimizeQuality; font-family:'Helvetica Neue'; stroke:rgb(38,38,38); color-interpolation:linearRGB;"
    ><text x="-6" xml:space="preserve" y="3.5" style="stroke:none;"
      >4</text
    ></g
    ><g transform="translate(69,202.6131)" style="font-size:10px; fill:rgb(38,38,38); text-rendering:geometricPrecision; image-rendering:optimizeQuality; color-rendering:optimizeQuality; font-family:'Helvetica Neue'; stroke:rgb(38,38,38); color-interpolation:linearRGB;"
    ><text x="-6" xml:space="preserve" y="3.5" style="stroke:none;"
      >5</text
    ></g
    ><g transform="translate(69,168.3905)" style="font-size:10px; fill:rgb(38,38,38); text-rendering:geometricPrecision; image-rendering:optimizeQuality; color-rendering:optimizeQuality; font-family:'Helvetica Neue'; stroke:rgb(38,38,38); color-interpolation:linearRGB;"
    ><text x="-6" xml:space="preserve" y="3.5" style="stroke:none;"
      >6</text
    ></g
    ><g transform="translate(69,134.1679)" style="font-size:10px; fill:rgb(38,38,38); text-rendering:geometricPrecision; image-rendering:optimizeQuality; color-rendering:optimizeQuality; font-family:'Helvetica Neue'; stroke:rgb(38,38,38); color-interpolation:linearRGB;"
    ><text x="-6" xml:space="preserve" y="3.5" style="stroke:none;"
      >7</text
    ></g
    ><g transform="translate(69,99.9452)" style="font-size:10px; fill:rgb(38,38,38); text-rendering:geometricPrecision; image-rendering:optimizeQuality; color-rendering:optimizeQuality; font-family:'Helvetica Neue'; stroke:rgb(38,38,38); color-interpolation:linearRGB;"
    ><text x="-6" xml:space="preserve" y="3.5" style="stroke:none;"
      >8</text
    ></g
    ><g transform="translate(69,65.7226)" style="font-size:10px; fill:rgb(38,38,38); text-rendering:geometricPrecision; image-rendering:optimizeQuality; color-rendering:optimizeQuality; font-family:'Helvetica Neue'; stroke:rgb(38,38,38); color-interpolation:linearRGB;"
    ><text x="-6" xml:space="preserve" y="3.5" style="stroke:none;"
      >9</text
    ></g
    ><g transform="translate(69,31.5)" style="font-size:10px; fill:rgb(38,38,38); text-rendering:geometricPrecision; image-rendering:optimizeQuality; color-rendering:optimizeQuality; font-family:'Helvetica Neue'; stroke:rgb(38,38,38); color-interpolation:linearRGB;"
    ><text x="-12" xml:space="preserve" y="3.5" style="stroke:none;"
      >10</text
    ></g
    ><g transform="translate(54.5,202.7498) rotate(-90)" style="font-size:11px; fill:rgb(38,38,38); text-rendering:geometricPrecision; image-rendering:optimizeQuality; color-rendering:optimizeQuality; font-family:'Helvetica Neue'; stroke:rgb(38,38,38); color-interpolation:linearRGB;"
    ><text x="-23" xml:space="preserve" y="-3" style="stroke:none;"
      >Mean f(x)</text
    ></g
    ><g transform="translate(73,29)" style="font-size:10px; fill:rgb(38,38,38); text-rendering:geometricPrecision; image-rendering:optimizeQuality; color-rendering:optimizeQuality; font-family:'mwb_cmsy10'; stroke:rgb(38,38,38); color-interpolation:linearRGB;"
    ><text x="0" xml:space="preserve" y="0" style="stroke:none;"
      >#</text
    ></g
    ><g transform="translate(81,29)" style="font-size:10px; fill:rgb(38,38,38); text-rendering:geometricPrecision; image-rendering:optimizeQuality; color-rendering:optimizeQuality; font-family:'Helvetica Neue'; stroke:rgb(38,38,38); color-interpolation:linearRGB;"
    ><text x="0" xml:space="preserve" y="0" style="stroke:none;"
      >10</text
    ></g
    ><g transform="translate(93,24)" style="font-size:8px; fill:rgb(38,38,38); text-rendering:geometricPrecision; image-rendering:optimizeQuality; color-rendering:optimizeQuality; font-family:'Helvetica Neue'; stroke:rgb(38,38,38); color-interpolation:linearRGB;"
    ><text x="0" xml:space="preserve" y="0" style="stroke:none;"
      >4</text
    ></g
    ><g transform="translate(290.0003,30.125)" style="font-size:11px; text-rendering:geometricPrecision; image-rendering:optimizeQuality; color-rendering:optimizeQuality; font-family:'Helvetica Neue'; color-interpolation:linearRGB; font-weight:bold;"
    ><text x="-25.5" xml:space="preserve" y="-3" style="stroke:none;"
      >Problem1</text
    ></g
    ><g style="stroke-linecap:butt; fill:lime; text-rendering:geometricPrecision; image-rendering:optimizeQuality; color-rendering:optimizeQuality; stroke-linejoin:round; stroke:lime; color-interpolation:linearRGB; stroke-width:3;"
    ><path d="M73.868 374 L74.736 374 L75.604 374 L76.472 374 L77.34 374 L78.208 374 L79.076 374 L79.944 374 L80.812 374 L81.68 374 L82.548 374 L83.416 374 L84.284 374 L85.152 374 L86.02 374 L86.888 374 L87.756 374 L88.624 374 L89.492 374 L90.36 374 L91.228 374 L92.096 374 L92.964 374 L93.832 374 L94.7 374 L95.568 374 L96.436 374 L97.304 374 L98.172 374 L99.04 374 L99.908 374 L100.776 374 L101.644 374 L102.512 374 L103.38 374 L104.248 374 L105.116 374 L105.984 374 L106.852 374 L107.72 374 L108.588 374 L109.456 374 L110.324 374 L111.192 374 L112.06 374 L112.928 374 L113.796 374 L114.664 374 L115.532 374 L116.4 374 L117.268 374 L118.136 374 L119.004 374 L119.872 374 L120.74 374 L121.608 374 L122.476 374 L123.344 374 L124.212 374 L125.08 374 L125.948 374 L126.816 374 L127.684 374 L128.552 374 L129.42 374 L130.288 374 L131.156 374 L132.024 374 L132.892 374 L133.76 374 L134.628 374 L135.496 374 L136.364 374 L137.232 374 L138.1 374 L138.968 374 L139.836 374 L140.704 374 L141.572 374 L142.44 374 L143.308 374 L144.176 374 L145.044 374 L145.912 374 L146.78 374 L147.648 374 L148.516 374 L149.384 374 L150.252 374 L151.12 374 L151.988 374 L152.856 374 L153.724 374 L154.592 374 L155.46 374 L156.328 374 L157.196 374 L158.064 374 L158.932 374 L159.8 374 L160.668 374 L161.536 374 L162.404 374 L163.272 374 L164.14 374 L165.008 374 L165.876 374 L166.744 374 L167.612 374 L168.48 374 L169.348 374 L170.216 374 L171.084 374 L171.952 374 L172.82 374 L173.688 374 L174.556 374 L175.424 374 L176.292 374 L177.16 374 L178.028 374 L178.896 374 L179.764 374 L180.632 374 L181.5 374 L182.368 374 L183.236 374 L184.104 374 L184.972 374 L185.84 374 L186.708 374 L187.576 374 L188.444 374 L189.312 374 L190.18 374 L191.048 374 L191.916 374 L192.784 374 L193.652 374 L194.52 374 L195.388 374 L196.256 374 L197.124 374 L197.992 374 L198.86 374 L199.728 374 L200.596 374 L201.464 374 L202.332 374 L203.2 374 L204.068 374 L204.936 374 L205.804 374 L206.672 374 L207.54 374 L208.408 374 L209.276 374 L210.144 374 L211.012 374 L211.88 374 L212.748 374 L213.616 374 L214.484 374 L215.352 374 L216.22 374 L217.088 374 L217.956 374 L218.824 374 L219.692 374 L220.56 374 L221.428 374 L222.296 374 L223.164 374 L224.032 374 L224.9 374 L225.768 374 L226.636 374 L227.504 374 L228.372 374 L229.24 374 L230.108 374 L230.976 374 L231.844 374 L232.712 374 L233.58 374 L234.448 374 L235.316 374 L236.184 374 L237.052 374 L237.92 374 L238.788 374 L239.656 374 L240.524 374 L241.392 374 L242.26 374 L243.128 374 L243.996 374 L244.864 374 L245.732 374 L246.6 374 L247.468 374 L248.336 374 L249.204 374 L250.072 374 L250.94 374 L251.808 374 L252.676 374 L253.544 374 L254.412 374 L255.28 374 L256.148 374 L257.016 374 L257.884 374 L258.752 374 L259.62 374 L260.488 374 L261.356 374 L262.224 374 L263.092 374 L263.96 374 L264.828 374 L265.696 374 L266.564 374 L267.432 374 L268.3 374 L269.168 374 L270.036 374 L270.904 374 L271.772 374 L272.64 374 L273.508 374 L274.376 374 L275.244 374 L276.112 374 L276.98 374 L277.848 374 L278.716 374 L279.584 374 L280.452 374 L281.32 374 L282.188 374 L283.056 374 L283.924 374 L284.792 374 L285.66 374 L286.528 374 L287.396 374 L288.264 374 L289.132 374 L290 374 L290.868 374 L291.736 374 L292.604 374 L293.472 374 L294.34 374 L295.208 374 L296.076 374 L296.944 374 L297.812 374 L298.68 374 L299.548 374 L300.416 374 L301.284 374 L302.152 374 L303.02 374 L303.888 374 L304.756 374 L305.624 374 L306.492 374 L307.36 374 L308.228 374 L309.096 374 L309.964 374 L310.832 374 L311.7 374 L312.568 374 L313.436 374 L314.304 374 L315.172 374 L316.04 374 L316.908 374 L317.776 374 L318.644 374 L319.512 374 L320.38 374 L321.248 374 L322.116 374 L322.984 374 L323.852 374 L324.72 374 L325.588 374 L326.456 374 L327.324 374 L328.192 374 L329.06 374 L329.928 374 L330.796 374 L331.664 374 L332.532 374 L333.4 374 L334.268 374 L335.136 374 L336.004 374 L336.872 374 L337.74 374 L338.608 374 L339.476 374 L340.344 374 L341.212 374 L342.08 374 L342.948 374 L343.816 374 L344.684 374 L345.552 374 L346.42 374 L347.288 374 L348.156 374 L349.024 374 L349.892 374 L350.76 374 L351.628 374 L352.496 374 L353.364 374 L354.232 374 L355.1 374 L355.968 374 L356.836 374 L357.704 374 L358.572 374 L359.44 374 L360.308 374 L361.176 374 L362.044 374 L362.912 374 L363.78 374 L364.648 374 L365.516 374 L366.384 374 L367.252 374 L368.12 374 L368.988 374 L369.856 374 L370.724 374 L371.592 374 L372.46 374 L373.328 374 L374.196 374 L375.064 374 L375.932 374 L376.8 374 L377.668 374 L378.536 374 L379.404 374 L380.272 374 L381.14 374 L382.008 374 L382.876 374 L383.744 374 L384.612 374 L385.48 374 L386.348 374 L387.216 374 L388.084 374 L388.952 374 L389.82 374 L390.688 374 L391.556 374 L392.424 374 L393.292 374 L394.16 374 L395.028 374 L395.896 374 L396.764 374 L397.632 374 L398.5 374 L399.368 374 L400.236 374 L401.104 374 L401.972 374 L402.84 374 L403.708 374 L404.576 374 L405.444 374 L406.312 374 L407.18 374 L408.048 374 L408.916 374 L409.784 374 L410.652 374 L411.52 374 L412.388 374 L413.256 374 L414.124 374 L414.992 374 L415.86 374 L416.728 374 L417.596 374 L418.464 374 L419.332 374 L420.2 374 L421.068 374 L421.936 374 L422.804 374 L423.672 374 L424.54 374 L425.408 374 L426.276 374 L427.144 374 L428.012 374 L428.88 374 L429.748 374 L430.616 374 L431.484 374 L432.352 374 L433.22 374 L434.088 374 L434.956 374 L435.824 374 L436.692 374 L437.56 374 L438.428 374 L439.296 374 L440.164 374 L441.032 374 L441.9 374 L442.768 374 L443.636 374 L444.504 374 L445.372 374 L446.24 374 L447.108 374 L447.976 374 L448.844 374 L449.712 374 L450.58 374 L451.448 374 L452.316 374 L453.184 374 L454.052 374 L454.92 374 L455.788 374 L456.656 374 L457.524 374 L458.392 374 L459.26 374 L460.128 374 L460.996 374 L461.864 374 L462.732 374 L463.6 374 L464.468 374 L465.336 374 L466.204 374 L467.072 374 L467.94 374 L468.808 374 L469.676 374 L470.544 374 L471.412 374 L472.28 374 L473.148 374 L474.016 374 L474.884 374 L475.752 374 L476.62 374 L477.488 374 L478.356 374 L479.224 374 L480.092 374 L480.96 374 L481.828 374 L482.696 374 L483.564 374 L484.432 374 L485.3 374 L486.168 374 L487.036 374 L487.904 374 L488.772 374 L489.64 374 L490.508 374 L491.376 374 L492.244 374 L493.112 374 L493.98 374 L494.848 374 L495.716 374 L496.584 374 L497.452 374 L498.32 374 L499.188 374 L500.056 374 L500.924 374 L501.792 374 L502.66 374 L503.528 374 L504.396 374 L505.264 374 L506.132 374 L507 374" style="fill:none; fill-rule:evenodd;"
    /></g
    ><g style="stroke-linecap:butt; fill:blue; text-rendering:geometricPrecision; image-rendering:optimizeQuality; color-rendering:optimizeQuality; stroke-linejoin:bevel; stroke-dasharray:12,12; stroke:blue; color-interpolation:linearRGB; stroke-width:3; stroke-miterlimit:1;"
    ><path d="M73.868 70.9926 L74.736 114.6733 L75.604 165.8776 L76.472 207.2697 L77.34 234.0652 L78.208 243.654 L79.076 246.3916 L79.944 249.3509 L80.812 251.9893 L81.68 254.2823 L82.548 257.3527 L83.416 260.7143 L84.284 263.7348 L85.152 267.3944 L86.02 271.0394 L86.888 274.2674 L87.756 277.995 L88.624 280.4859 L89.492 284.1779 L90.36 287.0863 L91.228 290.2513 L92.096 292.7465 L92.964 295.4515 L93.832 297.7372 L94.7 300.0854 L95.568 302.312 L96.436 304.2351 L97.304 306.0618 L98.172 308.0999 L99.04 309.7897 L99.908 311.3817 L100.776 312.8997 L101.644 314.3139 L102.512 315.5549 L103.38 316.9883 L104.248 318.0558 L105.116 319.3313 L105.984 320.3397 L106.852 321.5407 L107.72 322.3152 L108.588 323.4753 L109.456 324.2708 L110.324 325.1595 L111.192 325.9673 L112.06 326.8224 L112.928 327.4825 L113.796 328.1965 L114.664 328.8925 L115.532 329.5779 L116.4 330.1743 L117.268 330.8016 L118.136 331.3453 L119.004 331.9739 L119.872 332.4772 L120.74 332.9806 L121.608 333.4704 L122.476 333.9662 L123.344 334.3704 L124.212 334.7756 L125.08 335.2137 L125.948 335.6387 L126.816 335.9704 L127.684 336.3359 L128.552 336.6757 L129.42 337.0521 L130.288 337.3654 L131.156 337.6769 L132.024 337.9592 L132.892 338.2601 L133.76 338.5548 L134.628 338.8211 L135.496 339.0643 L136.364 339.3224 L137.232 339.5322 L138.1 339.7792 L138.968 339.9961 L139.836 340.1962 L140.704 340.3977 L141.572 340.603 L142.44 340.7801 L143.308 340.9492 L144.176 341.1329 L145.044 341.2971 L145.912 341.4529 L146.78 341.609 L147.648 341.7561 L148.516 341.9154 L149.384 342.052 L150.252 342.185 L151.12 342.3069 L151.988 342.4354 L152.856 342.553 L153.724 342.6705 L154.592 342.7759 L155.46 342.8845 L156.328 342.9905 L157.196 343.1002 L158.064 343.1998 L158.932 343.303 L159.8 343.394 L160.668 343.4873 L161.536 343.5658 L162.404 343.6557 L163.272 343.7365 L164.14 343.8135 L165.008 343.8835 L165.876 343.9616 L166.744 344.0345 L167.612 344.1039 L168.48 344.1678 L169.348 344.2379 L170.216 344.2989 L171.084 344.3584 L171.952 344.4188 L172.82 344.4782 L173.688 344.5338 L174.556 344.5887 L175.424 344.6343 L176.292 344.6873 L177.16 344.7334 L178.028 344.7788 L178.896 344.8242 L179.764 344.8643 L180.632 344.902 L181.5 344.9455 L182.368 344.9789 L183.236 345.0153 L184.104 345.048 L184.972 345.0844 L185.84 345.1161 L186.708 345.1486 L187.576 345.1761 L188.444 345.2072 L189.312 345.2369 L190.18 345.263 L191.048 345.291 L191.916 345.3163 L192.784 345.3432 L193.652 345.3665 L194.52 345.387 L195.388 345.4102 L196.256 345.4299 L197.124 345.4509 L197.992 345.4707 L198.86 345.4908 L199.728 345.5086 L200.596 345.5271 L201.464 345.5454 L202.332 345.5623 L203.2 345.5785 L204.068 345.5938 L204.936 345.6085 L205.804 345.624 L206.672 345.6375 L207.54 345.65 L208.408 345.6635 L209.276 345.6746 L210.144 345.6866 L211.012 345.6992 L211.88 345.7104 L212.748 345.7215 L213.616 345.7314 L214.484 345.7425 L215.352 345.7516 L216.22 345.7607 L217.088 345.7702 L217.956 345.7788 L218.824 345.7873 L219.692 345.7951 L220.56 345.8029 L221.428 345.8102 L222.296 345.8176 L223.164 345.8242 L224.032 345.8303 L224.9 345.8372 L225.768 345.8432 L226.636 345.8491 L227.504 345.8547 L228.372 345.8599 L229.24 345.8661 L230.108 345.8706 L230.976 345.8758 L231.844 345.88 L232.712 345.885 L233.58 345.8894 L234.448 345.8933 L235.316 345.8976 L236.184 345.9016 L237.052 345.9053 L237.92 345.9086 L238.788 345.9125 L239.656 345.9157 L240.524 345.9189 L241.392 345.9218 L242.26 345.9248 L243.128 345.9276 L243.996 345.9301 L244.864 345.9328 L245.732 345.9353 L246.6 345.9377 L247.468 345.94 L248.336 345.9422 L249.204 345.9446 L250.072 345.9467 L250.94 345.9485 L251.808 345.9507 L252.676 345.9525 L253.544 345.9544 L254.412 345.9561 L255.28 345.9578 L256.148 345.9593 L257.016 345.9608 L257.884 345.9625 L258.752 345.9638 L259.62 345.9652 L260.488 345.9665 L261.356 345.9678 L262.224 345.9693 L263.092 345.9705 L263.96 345.9717 L264.828 345.9728 L265.696 345.9739 L266.564 345.9749 L267.432 345.976 L268.3 345.9768 L269.168 345.9778 L270.036 345.9786 L270.904 345.9794 L271.772 345.9802 L272.64 345.981 L273.508 345.9817 L274.376 345.9824 L275.244 345.9831 L276.112 345.9838 L276.98 345.9844 L277.848 345.985 L278.716 345.9856 L279.584 345.9862 L280.452 345.9867 L281.32 345.9872 L282.188 345.9877 L283.056 345.9882 L283.924 345.9886 L284.792 345.9891 L285.66 345.9896 L286.528 345.99 L287.396 345.9904 L288.264 345.9908 L289.132 345.9912 L290 345.9916 L290.868 345.9919 L291.736 345.9922 L292.604 345.9926 L293.472 345.9929 L294.34 345.9931 L295.208 345.9934 L296.076 345.9937 L296.944 345.994 L297.812 345.9942 L298.68 345.9945 L299.548 345.9947 L300.416 345.9949 L301.284 345.9951 L302.152 345.9953 L303.02 345.9955 L303.888 345.9957 L304.756 345.9959 L305.624 345.9961 L306.492 345.9962 L307.36 345.9964 L308.228 345.9966 L309.096 345.9967 L309.964 345.9969 L310.832 345.997 L311.7 345.9971 L312.568 345.9973 L313.436 345.9973 L314.304 345.9975 L315.172 345.9976 L316.04 345.9977 L316.908 345.9978 L317.776 345.9979 L318.644 345.998 L319.512 345.9981 L320.38 345.9982 L321.248 345.9983 L322.116 345.9984 L322.984 345.9984 L323.852 345.9985 L324.72 345.9986 L325.588 345.9987 L326.456 345.9987 L327.324 345.9988 L328.192 345.9988 L329.06 345.9989 L329.928 345.9989 L330.796 345.999 L331.664 345.9991 L332.532 345.9991 L333.4 345.9991 L334.268 345.9992 L335.136 345.9992 L336.004 345.9993 L336.872 345.9993 L337.74 345.9994 L338.608 345.9994 L339.476 345.9994 L340.344 345.9995 L341.212 345.9995 L342.08 345.9995 L342.948 345.9995 L343.816 345.9996 L344.684 345.9996 L345.552 345.9996 L346.42 345.9997 L347.288 345.9997 L348.156 345.9997 L349.024 345.9997 L349.892 345.9998 L350.76 345.9998 L351.628 345.9998 L352.496 345.9998 L353.364 345.9998 L354.232 345.9998 L355.1 345.9999 L355.968 345.9999 L356.836 345.9999 L357.704 345.9999 L358.572 345.9999 L359.44 345.9999 L360.308 345.9999 L361.176 346 L362.044 346 L362.912 346 L363.78 346 L364.648 346 L365.516 346 L366.384 346 L367.252 346 L368.12 346 L368.988 346.0001 L369.856 346.0001 L370.724 346.0001 L371.592 346.0001 L372.46 346.0001 L373.328 346.0001 L374.196 346.0001 L375.064 346.0001 L375.932 346.0001 L376.8 346.0001 L377.668 346.0001 L378.536 346.0001 L379.404 346.0001 L380.272 346.0001 L381.14 346.0001 L382.008 346.0002 L382.876 346.0002 L383.744 346.0002 L384.612 346.0002 L385.48 346.0002 L386.348 346.0002 L387.216 346.0002 L388.084 346.0002 L388.952 346.0002 L389.82 346.0002 L390.688 346.0002 L391.556 346.0002 L392.424 346.0002 L393.292 346.0002 L394.16 346.0002 L395.028 346.0002 L395.896 346.0002 L396.764 346.0002 L397.632 346.0002 L398.5 346.0002 L399.368 346.0002 L400.236 346.0002 L401.104 346.0002 L401.972 346.0002 L402.84 346.0002 L403.708 346.0002 L404.576 346.0002 L405.444 346.0002 L406.312 346.0002 L407.18 346.0002 L408.048 346.0002 L408.916 346.0002 L409.784 346.0002 L410.652 346.0002 L411.52 346.0002 L412.388 346.0002 L413.256 346.0002 L414.124 346.0002 L414.992 346.0002 L415.86 346.0002 L416.728 346.0002 L417.596 346.0002 L418.464 346.0002 L419.332 346.0002 L420.2 346.0002 L421.068 346.0002 L421.936 346.0002 L422.804 346.0002 L423.672 346.0002 L424.54 346.0002 L425.408 346.0002 L426.276 346.0002 L427.144 346.0002 L428.012 346.0002 L428.88 346.0002 L429.748 346.0002 L430.616 346.0002 L431.484 346.0002 L432.352 346.0002 L433.22 346.0002 L434.088 346.0002 L434.956 346.0002 L435.824 346.0002 L436.692 346.0002 L437.56 346.0002 L438.428 346.0002 L439.296 346.0002 L440.164 346.0002 L441.032 346.0002 L441.9 346.0002 L442.768 346.0002 L443.636 346.0002 L444.504 346.0002 L445.372 346.0002 L446.24 346.0002 L447.108 346.0002 L447.976 346.0002 L448.844 346.0002 L449.712 346.0002 L450.58 346.0002 L451.448 346.0002 L452.316 346.0002 L453.184 346.0002 L454.052 346.0002 L454.92 346.0002 L455.788 346.0002 L456.656 346.0002 L457.524 346.0002 L458.392 346.0002 L459.26 346.0002 L460.128 346.0002 L460.996 346.0002 L461.864 346.0002 L462.732 346.0002 L463.6 346.0002 L464.468 346.0002 L465.336 346.0002 L466.204 346.0002 L467.072 346.0002 L467.94 346.0002 L468.808 346.0002 L469.676 346.0002 L470.544 346.0002 L471.412 346.0002 L472.28 346.0002 L473.148 346.0002 L474.016 346.0002 L474.884 346.0002 L475.752 346.0002 L476.62 346.0002 L477.488 346.0002 L478.356 346.0002 L479.224 346.0002 L480.092 346.0002 L480.96 346.0002 L481.828 346.0002 L482.696 346.0002 L483.564 346.0002 L484.432 346.0002 L485.3 346.0002 L486.168 346.0002 L487.036 346.0002 L487.904 346.0002 L488.772 346.0002 L489.64 346.0002 L490.508 346.0002 L491.376 346.0002 L492.244 346.0002 L493.112 346.0002 L493.98 346.0002 L494.848 346.0002 L495.716 346.0002 L496.584 346.0002 L497.452 346.0002 L498.32 346.0002 L499.188 346.0002 L500.056 346.0002 L500.924 346.0002 L501.792 346.0002 L502.66 346.0002 L503.528 346.0002 L504.396 346.0002 L505.264 346.0002 L506.132 346.0002 L507 346.0002" style="fill:none; fill-rule:evenodd;"
    /></g
    ><g style="stroke-linecap:butt; fill:red; text-rendering:geometricPrecision; image-rendering:optimizeQuality; color-rendering:optimizeQuality; stroke-linejoin:bevel; stroke-dasharray:10,6; stroke:red; color-interpolation:linearRGB; stroke-width:0.5; stroke-miterlimit:1;"
    ><path d="M73.868 61.4098 L74.736 111.5676 L75.604 171.1742 L76.472 214.6947 L77.34 236.6506 L78.208 242.1526 L79.076 246.0974 L79.944 249.7549 L80.812 251.3864 L81.68 255.7042 L82.548 259.8991 L83.416 264.0707 L84.284 268.5045 L85.152 272.8514 L86.02 277.2399 L86.888 281.5675 L87.756 286.0859 L88.624 289.4437 L89.492 293.1956 L90.36 296.4346 L91.228 300.1933 L92.096 303.1133 L92.964 306.285 L93.832 308.9173 L94.7 311.8639 L95.568 314.4221 L96.436 317.1144 L97.304 319.071 L98.172 321.5226 L99.04 323.2804 L99.908 325.4053 L100.776 327.0757 L101.644 328.6079 L102.512 329.9304 L103.38 331.6763 L104.248 333.1085 L105.116 334.5973 L105.984 335.7238 L106.852 337.4185 L107.72 338.2573 L108.588 339.9265 L109.456 340.7252 L110.324 341.7697 L111.192 342.8573 L112.06 343.8908 L112.928 344.8142 L113.796 346.1626 L114.664 346.8199 L115.532 347.7455 L116.4 348.4517 L117.268 349.4196 L118.136 350.2421 L119.004 350.953 L119.872 351.7522 L120.74 352.484 L121.608 353.0946 L122.476 353.8836 L123.344 354.4526 L124.212 355.0828 L125.08 355.7394 L125.948 356.3515 L126.816 356.9681 L127.684 357.5647 L128.552 358.0262 L129.42 358.6738 L130.288 359.0679 L131.156 359.3806 L132.024 359.8559 L132.892 360.3043 L133.76 360.6486 L134.628 361.1006 L135.496 361.4959 L136.364 361.8619 L137.232 362.3669 L138.1 362.6632 L138.968 363.2213 L139.836 363.4856 L140.704 363.6581 L141.572 364.0251 L142.44 364.42 L143.308 364.6746 L144.176 364.9279 L145.044 365.2336 L145.912 365.6563 L146.78 365.8569 L147.648 366.1005 L148.516 366.3687 L149.384 366.7395 L150.252 366.9241 L151.12 367.2569 L151.988 367.4534 L152.856 367.6823 L153.724 367.8591 L154.592 368.1472 L155.46 368.3489 L156.328 368.6363 L157.196 368.853 L158.064 369.0594 L158.932 369.2732 L159.8 369.4868 L160.668 369.6708 L161.536 369.7939 L162.404 369.9979 L163.272 370.217 L164.14 370.3502 L165.008 370.4832 L165.876 370.646 L166.744 370.8387 L167.612 370.9604 L168.48 371.189 L169.348 371.2911 L170.216 371.3953 L171.084 371.5304 L171.952 371.6379 L172.82 371.7142 L173.688 371.8359 L174.556 371.9737 L175.424 372.0544 L176.292 372.124 L177.16 372.2173 L178.028 372.3322 L178.896 372.4054 L179.764 372.5034 L180.632 372.576 L181.5 372.6487 L182.368 372.7101 L183.236 372.7932 L184.104 372.8837 L184.972 372.9413 L185.84 372.9944 L186.708 373.0678 L187.576 373.1389 L188.444 373.1872 L189.312 373.2406 L190.18 373.2959 L191.048 373.338 L191.916 373.3714 L192.784 373.4131 L193.652 373.4581 L194.52 373.486 L195.388 373.5068 L196.256 373.5385 L197.124 373.5785 L197.992 373.6006 L198.86 373.6269 L199.728 373.6549 L200.596 373.6799 L201.464 373.7111 L202.332 373.7308 L203.2 373.7565 L204.068 373.7726 L204.936 373.7815 L205.804 373.7993 L206.672 373.813 L207.54 373.8274 L208.408 373.8394 L209.276 373.8485 L210.144 373.8599 L211.012 373.868 L211.88 373.8753 L212.748 373.8874 L213.616 373.8977 L214.484 373.9048 L215.352 373.9102 L216.22 373.9185 L217.088 373.9258 L217.956 373.9316 L218.824 373.9356 L219.692 373.9421 L220.56 373.9501 L221.428 373.9544 L222.296 373.9586 L223.164 373.9651 L224.032 373.9711 L224.9 373.9756 L225.768 373.9795 L226.636 373.9824 L227.504 373.9857 L228.372 373.9868 L229.24 373.9886 L230.108 373.99 L230.976 373.991 L231.844 373.992 L232.712 373.9927 L233.58 373.9931 L234.448 373.9939 L235.316 373.994 L236.184 373.9944 L237.052 373.9949 L237.92 373.9952 L238.788 373.9954 L239.656 373.9955 L240.524 373.9957 L241.392 373.9959 L242.26 373.996 L243.128 373.9961 L243.996 373.9963 L244.864 373.9964 L245.732 373.9966 L246.6 373.9969 L247.468 373.997 L248.336 373.9971 L249.204 373.9972 L250.072 373.9972 L250.94 373.9973 L251.808 373.9973 L252.676 373.9973 L253.544 373.9974 L254.412 373.9975 L255.28 373.9975 L256.148 373.9976 L257.016 373.9977 L257.884 373.9977 L258.752 373.9978 L259.62 373.9978 L260.488 373.9978 L261.356 373.9978 L262.224 373.9979 L263.092 373.9979 L263.96 373.998 L264.828 373.998 L265.696 373.998 L266.564 373.9981 L267.432 373.9981 L268.3 373.9981 L269.168 373.9982 L270.036 373.9982 L270.904 373.9982 L271.772 373.9982 L272.64 373.9982 L273.508 373.9982 L274.376 373.9982 L275.244 373.9983 L276.112 373.9983 L276.98 373.9983 L277.848 373.9983 L278.716 373.9983 L279.584 373.9983 L280.452 373.9984 L281.32 373.9984 L282.188 373.9984 L283.056 373.9984 L283.924 373.9985 L284.792 373.9985 L285.66 373.9985 L286.528 373.9985 L287.396 373.9986 L288.264 373.9986 L289.132 373.9986 L290 373.9986 L290.868 373.9986 L291.736 373.9986 L292.604 373.9986 L293.472 373.9986 L294.34 373.9986 L295.208 373.9986 L296.076 373.9986 L296.944 373.9987 L297.812 373.9987 L298.68 373.9987 L299.548 373.9987 L300.416 373.9987 L301.284 373.9987 L302.152 373.9987 L303.02 373.9987 L303.888 373.9987 L304.756 373.9987 L305.624 373.9988 L306.492 373.9988 L307.36 373.9988 L308.228 373.9988 L309.096 373.9988 L309.964 373.9988 L310.832 373.9989 L311.7 373.9989 L312.568 373.9989 L313.436 373.9989 L314.304 373.9989 L315.172 373.9989 L316.04 373.999 L316.908 373.999 L317.776 373.999 L318.644 373.999 L319.512 373.999 L320.38 373.999 L321.248 373.999 L322.116 373.999 L322.984 373.999 L323.852 373.9991 L324.72 373.9991 L325.588 373.9991 L326.456 373.9991 L327.324 373.9992 L328.192 373.9992 L329.06 373.9992 L329.928 373.9992 L330.796 373.9992 L331.664 373.9992 L332.532 373.9992 L333.4 373.9993 L334.268 373.9993 L335.136 373.9993 L336.004 373.9993 L336.872 373.9993 L337.74 373.9993 L338.608 373.9993 L339.476 373.9993 L340.344 373.9993 L341.212 373.9993 L342.08 373.9993 L342.948 373.9993 L343.816 373.9993 L344.684 373.9993 L345.552 373.9994 L346.42 373.9994 L347.288 373.9994 L348.156 373.9994 L349.024 373.9994 L349.892 373.9994 L350.76 373.9995 L351.628 373.9995 L352.496 373.9995 L353.364 373.9995 L354.232 373.9995 L355.1 373.9995 L355.968 373.9995 L356.836 373.9995 L357.704 373.9995 L358.572 373.9995 L359.44 373.9995 L360.308 373.9995 L361.176 373.9995 L362.044 373.9995 L362.912 373.9995 L363.78 373.9996 L364.648 373.9996 L365.516 373.9996 L366.384 373.9996 L367.252 373.9996 L368.12 373.9996 L368.988 373.9996 L369.856 373.9996 L370.724 373.9996 L371.592 373.9996 L372.46 373.9996 L373.328 373.9996 L374.196 373.9996 L375.064 373.9996 L375.932 373.9996 L376.8 373.9996 L377.668 373.9996 L378.536 373.9996 L379.404 373.9996 L380.272 373.9997 L381.14 373.9997 L382.008 373.9997 L382.876 373.9997 L383.744 373.9997 L384.612 373.9997 L385.48 373.9997 L386.348 373.9997 L387.216 373.9997 L388.084 373.9997 L388.952 373.9997 L389.82 373.9997 L390.688 373.9997 L391.556 373.9997 L392.424 373.9997 L393.292 373.9997 L394.16 373.9997 L395.028 373.9998 L395.896 373.9998 L396.764 373.9998 L397.632 373.9998 L398.5 373.9998 L399.368 373.9998 L400.236 373.9998 L401.104 373.9998 L401.972 373.9998 L402.84 373.9998 L403.708 373.9998 L404.576 373.9998 L405.444 373.9998 L406.312 373.9998 L407.18 373.9998 L408.048 373.9998 L408.916 373.9998 L409.784 373.9998 L410.652 373.9998 L411.52 373.9998 L412.388 373.9999 L413.256 373.9999 L414.124 373.9999 L414.992 373.9999 L415.86 373.9999 L416.728 373.9999 L417.596 373.9999 L418.464 373.9999 L419.332 373.9999 L420.2 373.9999 L421.068 373.9999 L421.936 373.9999 L422.804 373.9999 L423.672 373.9999 L424.54 373.9999 L425.408 373.9999 L426.276 373.9999 L427.144 373.9999 L428.012 373.9999 L428.88 373.9999 L429.748 373.9999 L430.616 373.9999 L431.484 373.9999 L432.352 373.9999 L433.22 373.9999 L434.088 373.9999 L434.956 373.9999 L435.824 373.9999 L436.692 373.9999 L437.56 373.9999 L438.428 373.9999 L439.296 373.9999 L440.164 373.9999 L441.032 373.9999 L441.9 373.9999 L442.768 373.9999 L443.636 373.9999 L444.504 374 L445.372 374 L446.24 374 L447.108 374 L447.976 374 L448.844 374 L449.712 374 L450.58 374 L451.448 374 L452.316 374 L453.184 374 L454.052 374 L454.92 374 L455.788 374 L456.656 374 L457.524 374 L458.392 374 L459.26 374 L460.128 374 L460.996 374 L461.864 374 L462.732 374 L463.6 374 L464.468 374 L465.336 374 L466.204 374 L467.072 374 L467.94 374 L468.808 374 L469.676 374 L470.544 374 L471.412 374 L472.28 374 L473.148 374 L474.016 374 L474.884 374 L475.752 374 L476.62 374 L477.488 374 L478.356 374 L479.224 374 L480.092 374 L480.96 374 L481.828 374 L482.696 374 L483.564 374 L484.432 374 L485.3 374 L486.168 374 L487.036 374 L487.904 374 L488.772 374 L489.64 374 L490.508 374 L491.376 374 L492.244 374 L493.112 374 L493.98 374 L494.848 374 L495.716 374 L496.584 374 L497.452 374 L498.32 374 L499.188 374 L500.056 374 L500.924 374 L501.792 374 L502.66 374 L503.528 374 L504.396 374 L505.264 374 L506.132 374 L507 374" style="fill:none; fill-rule:evenodd;"
    /></g
    ><g transform="translate(73.868,61.4098)" style="stroke-linecap:butt; fill:red; text-rendering:geometricPrecision; color-rendering:optimizeQuality; image-rendering:optimizeQuality; color-interpolation:linearRGB; stroke:red;"
    ><circle r="3" style="fill:none;" cx="0" cy="0"
      /><circle r="3" style="fill:none;" cx="0" transform="translate(17.36,238.7835)" cy="0"
      /><circle r="3" style="fill:none;" cx="0" transform="translate(34.72,278.5167)" cy="0"
      /><circle r="3" style="fill:none;" cx="0" transform="translate(52.08,294.9417)" cy="0"
      /><circle r="3" style="fill:none;" cx="0" transform="translate(69.44,303.2648)" cy="0"
      /><circle r="3" style="fill:none;" cx="0" transform="translate(86.8,308.261)" cy="0"
      /><circle r="3" style="fill:none;" cx="0" transform="translate(104.16,310.9225)" cy="0"
      /><circle r="3" style="fill:none;" cx="0" transform="translate(121.52,312.097)" cy="0"
      /><circle r="3" style="fill:none;" cx="0" transform="translate(138.88,312.4776)" cy="0"
      /><circle r="3" style="fill:none;" cx="0" transform="translate(156.24,312.5802)" cy="0"
      /><circle r="3" style="fill:none;" cx="0" transform="translate(173.6,312.5872)" cy="0"
      /><circle r="3" style="fill:none;" cx="0" transform="translate(190.96,312.5883)" cy="0"
      /><circle r="3" style="fill:none;" cx="0" transform="translate(208.32,312.5886)" cy="0"
      /><circle r="3" style="fill:none;" cx="0" transform="translate(225.68,312.5889)" cy="0"
      /><circle r="3" style="fill:none;" cx="0" transform="translate(243.04,312.5892)" cy="0"
      /><circle r="3" style="fill:none;" cx="0" transform="translate(260.4,312.5895)" cy="0"
      /><circle r="3" style="fill:none;" cx="0" transform="translate(277.76,312.5897)" cy="0"
      /><circle r="3" style="fill:none;" cx="0" transform="translate(295.12,312.5898)" cy="0"
      /><circle r="3" style="fill:none;" cx="0" transform="translate(312.48,312.5899)" cy="0"
      /><circle r="3" style="fill:none;" cx="0" transform="translate(329.84,312.59)" cy="0"
      /><circle r="3" style="fill:none;" cx="0" transform="translate(347.2,312.5901)" cy="0"
      /><circle r="3" style="fill:none;" cx="0" transform="translate(364.56,312.5902)" cy="0"
      /><circle r="3" style="fill:none;" cx="0" transform="translate(381.92,312.5902)" cy="0"
      /><circle r="3" style="fill:none;" cx="0" transform="translate(399.28,312.5902)" cy="0"
      /><circle r="3" style="fill:none;" cx="0" transform="translate(416.64,312.5902)" cy="0"
    /></g
    ><g style="stroke-linecap:butt; text-rendering:geometricPrecision; image-rendering:optimizeQuality; color-rendering:optimizeQuality; stroke-linejoin:bevel; stroke-dasharray:10,6; color-interpolation:linearRGB; stroke-width:0.5; stroke-miterlimit:1;"
    ><path d="M73.868 374 L74.736 374 L75.604 374 L76.472 374 L77.34 374 L78.208 374 L79.076 374 L79.944 374 L80.812 374 L81.68 374 L82.548 374 L83.416 374 L84.284 374 L85.152 374 L86.02 374 L86.888 374 L87.756 374 L88.624 374 L89.492 374 L90.36 374 L91.228 374 L92.096 374 L92.964 374 L93.832 374 L94.7 374 L95.568 374 L96.436 374 L97.304 374 L98.172 374 L99.04 374 L99.908 374 L100.776 374 L101.644 374 L102.512 374 L103.38 374 L104.248 374 L105.116 374 L105.984 374 L106.852 374 L107.72 374 L108.588 374 L109.456 374 L110.324 374 L111.192 374 L112.06 374 L112.928 374 L113.796 374 L114.664 374 L115.532 374 L116.4 374 L117.268 374 L118.136 374 L119.004 374 L119.872 374 L120.74 374 L121.608 374 L122.476 374 L123.344 374 L124.212 374 L125.08 374 L125.948 374 L126.816 374 L127.684 374 L128.552 374 L129.42 374 L130.288 374 L131.156 374 L132.024 374 L132.892 374 L133.76 374 L134.628 374 L135.496 374 L136.364 374 L137.232 374 L138.1 374 L138.968 374 L139.836 374 L140.704 374 L141.572 374 L142.44 374 L143.308 374 L144.176 374 L145.044 374 L145.912 374 L146.78 374 L147.648 374 L148.516 374 L149.384 374 L150.252 374 L151.12 374 L151.988 374 L152.856 374 L153.724 374 L154.592 374 L155.46 374 L156.328 374 L157.196 374 L158.064 374 L158.932 374 L159.8 374 L160.668 374 L161.536 374 L162.404 374 L163.272 374 L164.14 374 L165.008 374 L165.876 374 L166.744 374 L167.612 374 L168.48 374 L169.348 374 L170.216 374 L171.084 374 L171.952 374 L172.82 374 L173.688 374 L174.556 374 L175.424 374 L176.292 374 L177.16 374 L178.028 374 L178.896 374 L179.764 374 L180.632 374 L181.5 374 L182.368 374 L183.236 374 L184.104 374 L184.972 374 L185.84 374 L186.708 374 L187.576 374 L188.444 374 L189.312 374 L190.18 374 L191.048 374 L191.916 374 L192.784 374 L193.652 374 L194.52 374 L195.388 374 L196.256 374 L197.124 374 L197.992 374 L198.86 374 L199.728 374 L200.596 374 L201.464 374 L202.332 374 L203.2 374 L204.068 374 L204.936 374 L205.804 374 L206.672 374 L207.54 374 L208.408 374 L209.276 374 L210.144 374 L211.012 374 L211.88 374 L212.748 374 L213.616 374 L214.484 374 L215.352 374 L216.22 374 L217.088 374 L217.956 374 L218.824 374 L219.692 374 L220.56 374 L221.428 374 L222.296 374 L223.164 374 L224.032 374 L224.9 374 L225.768 374 L226.636 374 L227.504 374 L228.372 374 L229.24 374 L230.108 374 L230.976 374 L231.844 374 L232.712 374 L233.58 374 L234.448 374 L235.316 374 L236.184 374 L237.052 374 L237.92 374 L238.788 374 L239.656 374 L240.524 374 L241.392 374 L242.26 374 L243.128 374 L243.996 374 L244.864 374 L245.732 374 L246.6 374 L247.468 374 L248.336 374 L249.204 374 L250.072 374 L250.94 374 L251.808 374 L252.676 374 L253.544 374 L254.412 374 L255.28 374 L256.148 374 L257.016 374 L257.884 374 L258.752 374 L259.62 374 L260.488 374 L261.356 374 L262.224 374 L263.092 374 L263.96 374 L264.828 374 L265.696 374 L266.564 374 L267.432 374 L268.3 374 L269.168 374 L270.036 374 L270.904 374 L271.772 374 L272.64 374 L273.508 374 L274.376 374 L275.244 374 L276.112 374 L276.98 374 L277.848 374 L278.716 374 L279.584 374 L280.452 374 L281.32 374 L282.188 374 L283.056 374 L283.924 374 L284.792 374 L285.66 374 L286.528 374 L287.396 374 L288.264 374 L289.132 374 L290 374 L290.868 374 L291.736 374 L292.604 374 L293.472 374 L294.34 374 L295.208 374 L296.076 374 L296.944 374 L297.812 374 L298.68 374 L299.548 374 L300.416 374 L301.284 374 L302.152 374 L303.02 374 L303.888 374 L304.756 374 L305.624 374 L306.492 374 L307.36 374 L308.228 374 L309.096 374 L309.964 374 L310.832 374 L311.7 374 L312.568 374 L313.436 374 L314.304 374 L315.172 374 L316.04 374 L316.908 374 L317.776 374 L318.644 374 L319.512 374 L320.38 374 L321.248 374 L322.116 374 L322.984 374 L323.852 374 L324.72 374 L325.588 374 L326.456 374 L327.324 374 L328.192 374 L329.06 374 L329.928 374 L330.796 374 L331.664 374 L332.532 374 L333.4 374 L334.268 374 L335.136 374 L336.004 374 L336.872 374 L337.74 374 L338.608 374 L339.476 374 L340.344 374 L341.212 374 L342.08 374 L342.948 374 L343.816 374 L344.684 374 L345.552 374 L346.42 374 L347.288 374 L348.156 374 L349.024 374 L349.892 374 L350.76 374 L351.628 374 L352.496 374 L353.364 374 L354.232 374 L355.1 374 L355.968 374 L356.836 374 L357.704 374 L358.572 374 L359.44 374 L360.308 374 L361.176 374 L362.044 374 L362.912 374 L363.78 374 L364.648 374 L365.516 374 L366.384 374 L367.252 374 L368.12 374 L368.988 374 L369.856 374 L370.724 374 L371.592 374 L372.46 374 L373.328 374 L374.196 374 L375.064 374 L375.932 374 L376.8 374 L377.668 374 L378.536 374 L379.404 374 L380.272 374 L381.14 374 L382.008 374 L382.876 374 L383.744 374 L384.612 374 L385.48 374 L386.348 374 L387.216 374 L388.084 374 L388.952 374 L389.82 374 L390.688 374 L391.556 374 L392.424 374 L393.292 374 L394.16 374 L395.028 374 L395.896 374 L396.764 374 L397.632 374 L398.5 374 L399.368 374 L400.236 374 L401.104 374 L401.972 374 L402.84 374 L403.708 374 L404.576 374 L405.444 374 L406.312 374 L407.18 374 L408.048 374 L408.916 374 L409.784 374 L410.652 374 L411.52 374 L412.388 374 L413.256 374 L414.124 374 L414.992 374 L415.86 374 L416.728 374 L417.596 374 L418.464 374 L419.332 374 L420.2 374 L421.068 374 L421.936 374 L422.804 374 L423.672 374 L424.54 374 L425.408 374 L426.276 374 L427.144 374 L428.012 374 L428.88 374 L429.748 374 L430.616 374 L431.484 374 L432.352 374 L433.22 374 L434.088 374 L434.956 374 L435.824 374 L436.692 374 L437.56 374 L438.428 374 L439.296 374 L440.164 374 L441.032 374 L441.9 374 L442.768 374 L443.636 374 L444.504 374 L445.372 374 L446.24 374 L447.108 374 L447.976 374 L448.844 374 L449.712 374 L450.58 374 L451.448 374 L452.316 374 L453.184 374 L454.052 374 L454.92 374 L455.788 374 L456.656 374 L457.524 374 L458.392 374 L459.26 374 L460.128 374 L460.996 374 L461.864 374 L462.732 374 L463.6 374 L464.468 374 L465.336 374 L466.204 374 L467.072 374 L467.94 374 L468.808 374 L469.676 374 L470.544 374 L471.412 374 L472.28 374 L473.148 374 L474.016 374 L474.884 374 L475.752 374 L476.62 374 L477.488 374 L478.356 374 L479.224 374 L480.092 374 L480.96 374 L481.828 374 L482.696 374 L483.564 374 L484.432 374 L485.3 374 L486.168 374 L487.036 374 L487.904 374 L488.772 374 L489.64 374 L490.508 374 L491.376 374 L492.244 374 L493.112 374 L493.98 374 L494.848 374 L495.716 374 L496.584 374 L497.452 374 L498.32 374 L499.188 374 L500.056 374 L500.924 374 L501.792 374 L502.66 374 L503.528 374 L504.396 374 L505.264 374 L506.132 374 L507 374" style="fill:none; fill-rule:evenodd;"
    /></g
    ><g transform="translate(73.868,374)" style="text-rendering:geometricPrecision; color-rendering:optimizeQuality; color-interpolation:linearRGB; stroke-linecap:butt; image-rendering:optimizeQuality;"
    ><path style="fill:none;" d="M-3 0 L0 3.99 L3 0 L0 -3.99 Z"
      /><path d="M-3 0 L0 3.99 L3 0 L0 -3.99 Z" style="fill:none;" transform="translate(17.36,0)"
      /><path d="M-3 0 L0 3.99 L3 0 L0 -3.99 Z" style="fill:none;" transform="translate(34.72,0)"
      /><path d="M-3 0 L0 3.99 L3 0 L0 -3.99 Z" style="fill:none;" transform="translate(52.08,0)"
      /><path d="M-3 0 L0 3.99 L3 0 L0 -3.99 Z" style="fill:none;" transform="translate(69.44,0)"
      /><path d="M-3 0 L0 3.99 L3 0 L0 -3.99 Z" style="fill:none;" transform="translate(86.8,0)"
      /><path d="M-3 0 L0 3.99 L3 0 L0 -3.99 Z" style="fill:none;" transform="translate(104.16,0)"
      /><path d="M-3 0 L0 3.99 L3 0 L0 -3.99 Z" style="fill:none;" transform="translate(121.52,0)"
      /><path d="M-3 0 L0 3.99 L3 0 L0 -3.99 Z" style="fill:none;" transform="translate(138.88,0)"
      /><path d="M-3 0 L0 3.99 L3 0 L0 -3.99 Z" style="fill:none;" transform="translate(156.24,0)"
      /><path d="M-3 0 L0 3.99 L3 0 L0 -3.99 Z" style="fill:none;" transform="translate(173.6,0)"
      /><path d="M-3 0 L0 3.99 L3 0 L0 -3.99 Z" style="fill:none;" transform="translate(190.96,0)"
      /><path d="M-3 0 L0 3.99 L3 0 L0 -3.99 Z" style="fill:none;" transform="translate(208.32,0)"
      /><path d="M-3 0 L0 3.99 L3 0 L0 -3.99 Z" style="fill:none;" transform="translate(225.68,0)"
      /><path d="M-3 0 L0 3.99 L3 0 L0 -3.99 Z" style="fill:none;" transform="translate(243.04,0)"
      /><path d="M-3 0 L0 3.99 L3 0 L0 -3.99 Z" style="fill:none;" transform="translate(260.4,0)"
      /><path d="M-3 0 L0 3.99 L3 0 L0 -3.99 Z" style="fill:none;" transform="translate(277.76,0)"
      /><path d="M-3 0 L0 3.99 L3 0 L0 -3.99 Z" style="fill:none;" transform="translate(295.12,0)"
      /><path d="M-3 0 L0 3.99 L3 0 L0 -3.99 Z" style="fill:none;" transform="translate(312.48,0)"
      /><path d="M-3 0 L0 3.99 L3 0 L0 -3.99 Z" style="fill:none;" transform="translate(329.84,0)"
      /><path d="M-3 0 L0 3.99 L3 0 L0 -3.99 Z" style="fill:none;" transform="translate(347.2,0)"
      /><path d="M-3 0 L0 3.99 L3 0 L0 -3.99 Z" style="fill:none;" transform="translate(364.56,0)"
      /><path d="M-3 0 L0 3.99 L3 0 L0 -3.99 Z" style="fill:none;" transform="translate(381.92,0)"
      /><path d="M-3 0 L0 3.99 L3 0 L0 -3.99 Z" style="fill:none;" transform="translate(399.28,0)"
      /><path d="M-3 0 L0 3.99 L3 0 L0 -3.99 Z" style="fill:none;" transform="translate(416.64,0)"
    /></g
    ><g style="fill:white; text-rendering:optimizeSpeed; color-rendering:optimizeSpeed; image-rendering:optimizeSpeed; shape-rendering:crispEdges; stroke:white; color-interpolation:sRGB;"
    ><path style="stroke:none;" d="M497 91 L497 41.5 L423 41.5 L423 91 Z"
    /></g
    ><g transform="translate(460,49)" style="font-size:9px; text-rendering:geometricPrecision; color-rendering:optimizeQuality; image-rendering:optimizeQuality; font-family:'Helvetica Neue'; color-interpolation:linearRGB;"
    ><text x="0" xml:space="preserve" y="3.5" style="stroke:none;"
      >MCGSA</text
    ></g
    ><g style="stroke-linecap:butt; fill:lime; text-rendering:geometricPrecision; image-rendering:optimizeQuality; color-rendering:optimizeQuality; stroke-linejoin:round; stroke:lime; color-interpolation:linearRGB; stroke-width:3;"
    ><line y2="49" style="fill:none;" x1="427" x2="457" y1="49"
    /></g
    ><g transform="translate(460,60.5)" style="font-size:9px; text-rendering:geometricPrecision; color-rendering:optimizeQuality; image-rendering:optimizeQuality; font-family:'Helvetica Neue'; color-interpolation:linearRGB;"
    ><text x="0" xml:space="preserve" y="3.5" style="stroke:none;"
      >GSA</text
    ></g
    ><g style="stroke-linecap:butt; fill:blue; text-rendering:geometricPrecision; image-rendering:optimizeQuality; color-rendering:optimizeQuality; stroke-linejoin:bevel; stroke-dasharray:12,12; stroke:blue; color-interpolation:linearRGB; stroke-width:3; stroke-miterlimit:1;"
    ><line y2="60.5" style="fill:none;" x1="427" x2="457" y1="60.5"
    /></g
    ><g transform="translate(460,72)" style="font-size:9px; text-rendering:geometricPrecision; color-rendering:optimizeQuality; image-rendering:optimizeQuality; font-family:'Helvetica Neue'; color-interpolation:linearRGB;"
    ><text x="0" xml:space="preserve" y="3.5" style="stroke:none;"
      >CGSA</text
    ></g
    ><g style="stroke-linecap:butt; fill:red; text-rendering:geometricPrecision; image-rendering:optimizeQuality; color-rendering:optimizeQuality; stroke-linejoin:bevel; stroke-dasharray:10,6; stroke:red; color-interpolation:linearRGB; stroke-width:0.5; stroke-miterlimit:1;"
    ><line y2="72" style="fill:none;" x1="427" x2="457" y1="72"
    /></g
    ><g transform="translate(442,72)" style="stroke-linecap:butt; fill:red; text-rendering:geometricPrecision; color-rendering:optimizeQuality; image-rendering:optimizeQuality; color-interpolation:linearRGB; stroke:red;"
    ><circle r="3" style="fill:none;" cx="0" cy="0"
    /></g
    ><g transform="translate(460,83.5)" style="font-size:9px; text-rendering:geometricPrecision; color-rendering:optimizeQuality; image-rendering:optimizeQuality; font-family:'Helvetica Neue'; color-interpolation:linearRGB;"
    ><text x="0" xml:space="preserve" y="3.5" style="stroke:none;"
      >MGSA</text
    ></g
    ><g style="stroke-linecap:butt; text-rendering:geometricPrecision; image-rendering:optimizeQuality; color-rendering:optimizeQuality; stroke-linejoin:bevel; stroke-dasharray:10,6; color-interpolation:linearRGB; stroke-width:0.5; stroke-miterlimit:1;"
    ><line y2="83.5" style="fill:none;" x1="427" x2="457" y1="83.5"
    /></g
    ><g transform="translate(442,83.5)" style="text-rendering:geometricPrecision; color-rendering:optimizeQuality; color-interpolation:linearRGB; stroke-linecap:butt; image-rendering:optimizeQuality;"
    ><path style="fill:none;" d="M-3 0 L0 3.99 L3 0 L0 -3.99 Z"
      /><path transform="translate(-442,-83.5)" style="fill:none; stroke-width:0.5; fill-rule:evenodd; stroke:rgb(38,38,38);" d="M423 91 L423 41.5 L497 41.5 L497 91 Z"
    /></g
  ></g
></svg
>
