<?xml version="1.0"?>
<!DOCTYPE svg PUBLIC '-//W3C//DTD SVG 1.0//EN'
          'http://www.w3.org/TR/2001/REC-SVG-20010904/DTD/svg10.dtd'>
<svg xmlns:xlink="http://www.w3.org/1999/xlink" style="fill-opacity:1; color-rendering:auto; color-interpolation:auto; text-rendering:auto; stroke:black; stroke-linecap:square; stroke-miterlimit:10; shape-rendering:auto; stroke-opacity:1; fill:black; stroke-dasharray:none; font-weight:normal; stroke-width:1; font-family:'Dialog'; font-style:normal; stroke-linejoin:miter; font-size:12px; stroke-dashoffset:0; image-rendering:auto;" width="560" height="420" xmlns="http://www.w3.org/2000/svg"
><!--Generated by the Batik Graphics2D SVG Generator--><defs id="genericDefs"
  /><g
  ><defs id="defs1"
    ><clipPath clipPathUnits="userSpaceOnUse" id="clipPath1"
      ><path d="M0 0 L560 0 L560 420 L0 420 L0 0 Z"
      /></clipPath
      ><font horiz-adv-x="50.0" id="font1"
      ><font-face ascent="95.200005" descent="21.3" units-per-em="100" style="font-style:normal; font-family:Helvetica Neue; font-weight:normal;"
        /><missing-glyph horiz-adv-x="50.0" d="M40.9 66.6 L10.2 66.6 L10.2 4.7 L40.9 4.7 ZM46 71.2 L46 0.1 L5.1 0.1 L5.1 71.2 Z"
        /><glyph unicode="0" horiz-adv-x="55.6" d="M13.2 34.9 Q13.2 37.5 13.25 40.65 Q13.3 43.8 13.75 46.95 Q14.2 50.1 15.05 53.1 Q15.9 56.1 17.55 58.35 Q19.2 60.6 21.7 62 Q24.2 63.4 27.8 63.4 Q31.4 63.4 33.9 62 Q36.4 60.6 38.05 58.35 Q39.7 56.1 40.55 53.1 Q41.4 50.1 41.85 46.95 Q42.3 43.8 42.35 40.65 Q42.4 37.5 42.4 34.9 Q42.4 30.9 42.15 25.95 Q41.9 21 40.55 16.65 Q39.2 12.3 36.2 9.3 Q33.2 6.3 27.8 6.3 Q22.4 6.3 19.4 9.3 Q16.4 12.3 15.05 16.65 Q13.7 21 13.45 25.95 Q13.2 30.9 13.2 34.9 ZM4.2 34.8 Q4.2 30.9 4.4 26.7 Q4.6 22.5 5.4 18.5 Q6.2 14.5 7.7 10.95 Q9.2 7.4 11.8 4.7 Q14.4 2 18.35 0.45 Q22.3 -1.1 27.8 -1.1 Q33.4 -1.1 37.3 0.45 Q41.2 2 43.8 4.7 Q46.4 7.4 47.9 10.95 Q49.4 14.5 50.2 18.5 Q51 22.5 51.2 26.7 Q51.4 30.9 51.4 34.8 Q51.4 38.7 51.2 42.9 Q51 47.1 50.2 51.1 Q49.4 55.1 47.9 58.7 Q46.4 62.3 43.8 65 Q41.2 67.7 37.25 69.3 Q33.3 70.9 27.8 70.9 Q22.3 70.9 18.35 69.3 Q14.4 67.7 11.8 65 Q9.2 62.3 7.7 58.7 Q6.2 55.1 5.4 51.1 Q4.6 47.1 4.4 42.9 Q4.2 38.7 4.2 34.8 Z"
        /><glyph unicode="5" horiz-adv-x="55.6" d="M47 62.2 L47 69.7 L12 69.7 L5.4 32.9 L12.7 32.5 Q15.2 35.5 18.45 37.35 Q21.7 39.2 25.9 39.2 Q29.5 39.2 32.45 38 Q35.4 36.8 37.5 34.65 Q39.6 32.5 40.75 29.55 Q41.9 26.6 41.9 23.1 Q41.9 18.9 40.7 15.75 Q39.5 12.6 37.45 10.5 Q35.4 8.4 32.65 7.35 Q29.9 6.3 26.9 6.3 Q23.7 6.3 21.05 7.25 Q18.4 8.2 16.45 9.95 Q14.5 11.7 13.35 14.05 Q12.2 16.4 12 19.1 L3.5 19.1 Q3.6 14.3 5.4 10.5 Q7.2 6.7 10.3 4.15 Q13.4 1.6 17.45 0.25 Q21.5 -1.1 26.1 -1.1 Q32.3 -1.1 36.95 0.85 Q41.6 2.8 44.7 6.1 Q47.8 9.4 49.35 13.65 Q50.9 17.9 50.9 22.4 Q50.9 28.5 49.1 33.05 Q47.3 37.6 44.2 40.65 Q41.1 43.7 36.9 45.2 Q32.7 46.7 28 46.7 Q24.4 46.7 20.75 45.45 Q17.1 44.2 14.8 41.6 L14.6 41.8 L18.4 62.2 Z"
        /><glyph unicode="1" horiz-adv-x="55.6" d="M35.6 0 L35.6 70.9 L29.1 70.9 Q28.4 66.9 26.5 64.3 Q24.6 61.7 21.85 60.2 Q19.1 58.7 15.7 58.15 Q12.3 57.6 8.7 57.6 L8.7 50.8 L27.1 50.8 L27.1 0 Z"
        /><glyph unicode="2" horiz-adv-x="55.6" d="M4.4 45.8 L12.9 45.8 Q12.8 49 13.55 52.15 Q14.3 55.3 16 57.8 Q17.7 60.3 20.35 61.85 Q23 63.4 26.7 63.4 Q29.5 63.4 32 62.5 Q34.5 61.6 36.35 59.9 Q38.2 58.2 39.3 55.85 Q40.4 53.5 40.4 50.6 Q40.4 46.9 39.25 44.1 Q38.1 41.3 35.85 38.9 Q33.6 36.5 30.2 34.15 Q26.8 31.8 22.3 29 Q18.6 26.8 15.2 24.3 Q11.8 21.8 9.1 18.5 Q6.4 15.2 4.65 10.75 Q2.9 6.3 2.4 0 L48.7 0 L48.7 7.5 L12.3 7.5 Q12.9 10.8 14.85 13.35 Q16.8 15.9 19.55 18.1 Q22.3 20.3 25.6 22.25 Q28.9 24.2 32.2 26.2 Q35.5 28.3 38.6 30.6 Q41.7 32.9 44.1 35.75 Q46.5 38.6 47.95 42.2 Q49.4 45.8 49.4 50.5 Q49.4 55.5 47.65 59.3 Q45.9 63.1 42.9 65.65 Q39.9 68.2 35.85 69.55 Q31.8 70.9 27.2 70.9 Q21.6 70.9 17.2 69 Q12.8 67.1 9.85 63.75 Q6.9 60.4 5.5 55.8 Q4.1 51.2 4.4 45.8 Z"
        /><glyph unicode="3" horiz-adv-x="55.6" d="M21.8 40.5 L21.8 33.3 Q24.2 33.6 26.9 33.6 Q30.1 33.6 32.85 32.75 Q35.6 31.9 37.6 30.15 Q39.6 28.4 40.8 25.85 Q42 23.3 42 20 Q42 16.8 40.75 14.25 Q39.5 11.7 37.4 9.95 Q35.3 8.2 32.5 7.25 Q29.7 6.3 26.6 6.3 Q19.3 6.3 15.5 10.65 Q11.7 15 11.5 21.9 L3 21.9 Q2.9 16.4 4.55 12.1 Q6.2 7.8 9.3 4.85 Q12.4 1.9 16.8 0.4 Q21.2 -1.1 26.6 -1.1 Q31.6 -1.1 36.05 0.25 Q40.5 1.6 43.8 4.3 Q47.1 7 49.05 11.05 Q51 15.1 51 20.4 Q51 26.8 47.85 31.5 Q44.7 36.2 38.2 37.6 L38.2 37.8 Q42.4 39.7 45.2 43.4 Q48 47.1 48 51.9 Q48 56.8 46.35 60.4 Q44.7 64 41.8 66.3 Q38.9 68.6 34.95 69.75 Q31 70.9 26.4 70.9 Q21.1 70.9 17.05 69.2 Q13 67.5 10.3 64.5 Q7.6 61.5 6.15 57.3 Q4.7 53.1 4.5 48 L13 48 Q13 51.1 13.8 53.9 Q14.6 56.7 16.25 58.8 Q17.9 60.9 20.45 62.15 Q23 63.4 26.4 63.4 Q31.8 63.4 35.4 60.55 Q39 57.7 39 52 Q39 49.2 37.9 47 Q36.8 44.8 34.95 43.35 Q33.1 41.9 30.65 41.15 Q28.2 40.4 25.5 40.4 L23.7 40.4 Q23.2 40.4 22.7 40.4 Q22.3 40.4 21.8 40.5 Z"
        /><glyph unicode="4" horiz-adv-x="55.6" d="M33.9 24.1 L10.1 24.1 L33.7 58.8 L33.9 58.8 ZM41.9 24.1 L41.9 70.9 L35.1 70.9 L2.8 24.8 L2.8 16.6 L33.9 16.6 L33.9 0 L41.9 0 L41.9 16.6 L51.5 16.6 L51.5 24.1 Z"
        /><glyph unicode="s" horiz-adv-x="50.0" d="M11.6 16.3 L3.1 16.3 Q3.3 11.5 5.1 8.15 Q6.9 4.8 9.9 2.75 Q12.9 0.7 16.8 -0.2 Q20.7 -1.1 25 -1.1 Q28.9 -1.1 32.85 -0.35 Q36.8 0.4 39.95 2.3 Q43.1 4.2 45.05 7.3 Q47 10.4 47 15.1 Q47 18.8 45.55 21.3 Q44.1 23.8 41.75 25.45 Q39.4 27.1 36.35 28.1 Q33.3 29.1 30.1 29.8 Q27.1 30.5 24.1 31.15 Q21.1 31.8 18.7 32.75 Q16.3 33.7 14.75 35.15 Q13.2 36.6 13.2 38.8 Q13.2 40.8 14.2 42.05 Q15.2 43.3 16.8 44.05 Q18.4 44.8 20.35 45.1 Q22.3 45.4 24.2 45.4 Q26.3 45.4 28.35 44.95 Q30.4 44.5 32.1 43.5 Q33.8 42.5 34.9 40.85 Q36 39.2 36.2 36.7 L44.7 36.7 Q44.4 41.4 42.7 44.55 Q41 47.7 38.15 49.55 Q35.3 51.4 31.6 52.15 Q27.9 52.9 23.5 52.9 Q20.1 52.9 16.65 52.05 Q13.2 51.2 10.45 49.45 Q7.7 47.7 5.95 44.9 Q4.2 42.1 4.2 38.2 Q4.2 33.2 6.7 30.4 Q9.2 27.6 12.95 26.05 Q16.7 24.5 21.1 23.65 Q25.5 22.8 29.25 21.75 Q33 20.7 35.5 19 Q38 17.3 38 14 Q38 11.6 36.8 10.05 Q35.6 8.5 33.75 7.7 Q31.9 6.9 29.7 6.6 Q27.5 6.3 25.5 6.3 Q22.9 6.3 20.45 6.8 Q18 7.3 16.05 8.45 Q14.1 9.6 12.9 11.55 Q11.7 13.5 11.6 16.3 Z"
        /><glyph unicode="n" horiz-adv-x="55.6" d="M6.4 51.7 L6.4 0 L14.9 0 L14.9 29.2 Q14.9 32.7 15.85 35.65 Q16.8 38.6 18.7 40.8 Q20.6 43 23.45 44.2 Q26.3 45.4 30.2 45.4 Q35.1 45.4 37.9 42.6 Q40.7 39.8 40.7 35 L40.7 0 L49.2 0 L49.2 34 Q49.2 38.2 48.35 41.65 Q47.5 45.1 45.4 47.6 Q43.3 50.1 39.9 51.5 Q36.5 52.9 31.4 52.9 Q19.9 52.9 14.6 43.5 L14.4 43.5 L14.4 51.7 Z"
        /><glyph unicode="o" horiz-adv-x="57.4" d="M12.6 25.8 Q12.6 30.5 13.85 34.15 Q15.1 37.8 17.3 40.3 Q19.5 42.8 22.45 44.1 Q25.4 45.4 28.7 45.4 Q32 45.4 34.95 44.1 Q37.9 42.8 40.1 40.3 Q42.3 37.8 43.55 34.15 Q44.8 30.5 44.8 25.8 Q44.8 21.1 43.55 17.45 Q42.3 13.8 40.1 11.35 Q37.9 8.9 34.95 7.6 Q32 6.3 28.7 6.3 Q25.4 6.3 22.45 7.6 Q19.5 8.9 17.3 11.35 Q15.1 13.8 13.85 17.45 Q12.6 21.1 12.6 25.8 ZM3.6 25.8 Q3.6 20.1 5.2 15.2 Q6.8 10.3 10 6.65 Q13.2 3 17.9 0.95 Q22.6 -1.1 28.7 -1.1 Q34.9 -1.1 39.55 0.95 Q44.2 3 47.4 6.65 Q50.6 10.3 52.2 15.2 Q53.8 20.1 53.8 25.8 Q53.8 31.5 52.2 36.45 Q50.6 41.4 47.4 45.05 Q44.2 48.7 39.55 50.8 Q34.9 52.9 28.7 52.9 Q22.6 52.9 17.9 50.8 Q13.2 48.7 10 45.05 Q6.8 41.4 5.2 36.45 Q3.6 31.5 3.6 25.8 Z"
        /><glyph unicode="i" horiz-adv-x="22.2" d="M15.4 61 L15.4 71.4 L6.9 71.4 L6.9 61 ZM6.9 51.7 L6.9 0 L15.4 0 L15.4 51.7 Z"
        /><glyph unicode="a" horiz-adv-x="53.7" d="M52.2 0.2 Q50 -1.1 46.1 -1.1 Q42.8 -1.1 40.85 0.75 Q38.9 2.6 38.9 6.8 Q35.4 2.6 30.75 0.75 Q26.1 -1.1 20.7 -1.1 Q17.2 -1.1 14.05 -0.3 Q10.9 0.5 8.6 2.2 Q6.3 3.9 4.95 6.65 Q3.6 9.4 3.6 13.3 Q3.6 17.7 5.1 20.5 Q6.6 23.3 9.05 25.05 Q11.5 26.8 14.65 27.7 Q17.8 28.6 21.1 29.2 Q24.6 29.9 27.75 30.25 Q30.9 30.6 33.3 31.25 Q35.7 31.9 37.1 33.15 Q38.5 34.4 38.5 36.8 Q38.5 39.6 37.45 41.3 Q36.4 43 34.75 43.9 Q33.1 44.8 31.05 45.1 Q29 45.4 27 45.4 Q21.6 45.4 18 43.35 Q14.4 41.3 14.1 35.6 L5.6 35.6 Q5.8 40.4 7.6 43.7 Q9.4 47 12.4 49.05 Q15.4 51.1 19.25 52 Q23.1 52.9 27.5 52.9 Q31 52.9 34.45 52.4 Q37.9 51.9 40.7 50.35 Q43.5 48.8 45.2 46 Q46.9 43.2 46.9 38.7 L46.9 12.1 Q46.9 9.1 47.25 7.7 Q47.6 6.3 49.6 6.3 Q50.7 6.3 52.2 6.8 ZM38.4 26.7 Q36.8 25.5 34.2 24.95 Q31.6 24.4 28.75 24.05 Q25.9 23.7 23 23.25 Q20.1 22.8 17.8 21.8 Q15.5 20.8 14.05 18.95 Q12.6 17.1 12.6 13.9 Q12.6 11.8 13.45 10.35 Q14.3 8.9 15.65 8 Q17 7.1 18.8 6.7 Q20.6 6.3 22.6 6.3 Q26.8 6.3 29.8 7.45 Q32.8 8.6 34.7 10.35 Q36.6 12.1 37.5 14.15 Q38.4 16.2 38.4 18 Z"
        /><glyph unicode="r" horiz-adv-x="33.3" d="M6.1 51.7 L6.1 0 L14.6 0 L14.6 23 Q14.6 28 15.6 31.85 Q16.6 35.7 18.8 38.4 Q21 41.1 24.6 42.5 Q28.2 43.9 33.3 43.9 L33.3 52.9 Q26.4 53.1 21.9 50.1 Q17.4 47.1 14.3 40.8 L14.1 40.8 L14.1 51.7 Z"
        /><glyph unicode="e" horiz-adv-x="53.7" d="M42.3 30.8 L12.6 30.8 Q12.8 33.8 13.9 36.45 Q15 39.1 16.9 41.1 Q18.8 43.1 21.45 44.25 Q24.1 45.4 27.4 45.4 Q30.6 45.4 33.25 44.25 Q35.9 43.1 37.85 41.15 Q39.8 39.2 40.95 36.5 Q42.1 33.8 42.3 30.8 ZM50.5 16.4 L42.1 16.4 Q41 11.3 37.55 8.8 Q34.1 6.3 28.7 6.3 Q24.5 6.3 21.4 7.7 Q18.3 9.1 16.3 11.45 Q14.3 13.8 13.4 16.85 Q12.5 19.9 12.6 23.3 L51.3 23.3 Q51.5 28 50.45 33.2 Q49.4 38.4 46.65 42.8 Q43.9 47.2 39.35 50.05 Q34.8 52.9 27.9 52.9 Q22.6 52.9 18.15 50.9 Q13.7 48.9 10.45 45.3 Q7.2 41.7 5.4 36.8 Q3.6 31.9 3.6 26 Q3.8 20.1 5.35 15.1 Q6.9 10.1 10 6.5 Q13.1 2.9 17.65 0.9 Q22.2 -1.1 28.4 -1.1 Q37.2 -1.1 43 3.3 Q48.8 7.7 50.5 16.4 Z"
        /><glyph unicode="t" horiz-adv-x="31.5" d="M18.2 51.7 L18.2 67.2 L9.7 67.2 L9.7 51.7 L0.9 51.7 L0.9 44.2 L9.7 44.2 L9.7 11.3 Q9.7 7.7 10.4 5.5 Q11.1 3.3 12.55 2.1 Q14 0.9 16.35 0.45 Q18.7 0 22 0 L28.5 0 L28.5 7.5 L24.6 7.5 Q22.6 7.5 21.35 7.65 Q20.1 7.8 19.4 8.3 Q18.7 8.8 18.45 9.7 Q18.2 10.6 18.2 12.1 L18.2 44.2 L28.5 44.2 L28.5 51.7 Z"
        /><glyph unicode="I" horiz-adv-x="25.9" d="M8.2 71.4 L8.2 0 L17.7 0 L17.7 71.4 Z"
        /><glyph unicode=" " horiz-adv-x="27.8" d=""
        /><glyph unicode="N" horiz-adv-x="72.2" d="M7.7 71.4 L7.7 0 L16.7 0 L16.7 57.3 L16.9 57.3 L54.2 0 L64.6 0 L64.6 71.4 L55.6 71.4 L55.6 13.5 L55.4 13.5 L17.8 71.4 Z"
        /><glyph unicode="." horiz-adv-x="27.8" d="M8.3 11.1 L8.3 0 L19.4 0 L19.4 11.1 Z"
        /><glyph unicode=")" horiz-adv-x="25.9" d="M-0.9 -19.7 L5.5 -19.7 Q13.3 -9.4 17.25 2.55 Q21.2 14.5 21.2 26.3 Q21.2 32.9 20.1 38.9 Q19 44.9 16.95 50.65 Q14.9 56.4 12 61.95 Q9.1 67.5 5.5 73.1 L-0.9 73.1 Q6.1 61.6 9.15 50.25 Q12.2 38.9 12.2 26.3 Q12.2 14.1 9.2 2.85 Q6.2 -8.4 -0.9 -19.7 Z"
        /><glyph unicode="x" horiz-adv-x="51.8" d="M20.3 27.2 L0.9 0 L11.2 0 L25.6 21.4 L40 0 L50.9 0 L30.9 27.9 L48.7 51.7 L38.5 51.7 L25.6 33.6 L13.2 51.7 L2.3 51.7 Z"
        /><glyph unicode="(" horiz-adv-x="25.9" d="M20.4 -19.7 L26.9 -19.7 Q19.8 -8.2 16.75 3.1 Q13.7 14.4 13.7 27 Q13.7 39.3 16.7 50.5 Q19.7 61.7 26.9 73.1 L20.4 73.1 Q12.6 62.8 8.65 50.8 Q4.7 38.8 4.7 27 Q4.7 20.4 5.8 14.4 Q6.9 8.4 8.95 2.7 Q11 -3 13.9 -8.55 Q16.8 -14.1 20.4 -19.7 Z"
        /><glyph unicode="f" horiz-adv-x="29.6" d="M9.9 44.2 L9.9 0 L18.4 0 L18.4 44.2 L28.4 44.2 L28.4 51.7 L18.4 51.7 L18.4 58.9 Q18.4 62.3 20.1 63.5 Q21.8 64.7 24.9 64.7 Q26 64.7 27.3 64.55 Q28.6 64.4 29.7 64 L29.7 71.4 Q28.5 71.8 26.95 72 Q25.4 72.2 24.2 72.2 Q17.2 72.2 13.55 68.95 Q9.9 65.7 9.9 59.4 L9.9 51.7 L1.2 51.7 L1.2 44.2 Z"
        /><glyph unicode="M" horiz-adv-x="87.1" d="M8 71.4 L8 0 L17 0 L17 59.4 L17.2 59.4 L39.5 0 L47.6 0 L69.9 59.4 L70.1 59.4 L70.1 0 L79.1 0 L79.1 71.4 L66.1 71.4 L43.5 11.4 L21 71.4 Z"
        /><glyph unicode="A" horiz-adv-x="64.8" d="M20.1 29.5 L32.2 62.8 L32.4 62.8 L44.3 29.5 ZM27.2 71.4 L-0.6 0 L9.1 0 L17.1 21.5 L47.3 21.5 L55.1 0 L65.6 0 L37.7 71.4 Z"
        /><glyph unicode="S" horiz-adv-x="64.8" d="M49.1 50.5 L58.1 50.5 Q57.9 56.4 55.85 60.65 Q53.8 64.9 50.25 67.7 Q46.7 70.5 42 71.8 Q37.3 73.1 31.8 73.1 Q26.9 73.1 22.25 71.85 Q17.6 70.6 13.95 68.05 Q10.3 65.5 8.1 61.55 Q5.9 57.6 5.9 52.2 Q5.9 47.3 7.85 44.05 Q9.8 40.8 13.05 38.75 Q16.3 36.7 20.4 35.45 Q24.5 34.2 28.75 33.25 Q33 32.3 37.1 31.4 Q41.2 30.5 44.45 29.05 Q47.7 27.6 49.65 25.3 Q51.6 23 51.6 19.3 Q51.6 15.4 50 12.9 Q48.4 10.4 45.8 8.95 Q43.2 7.5 39.95 6.9 Q36.7 6.3 33.5 6.3 Q29.5 6.3 25.7 7.3 Q21.9 8.3 19.05 10.4 Q16.2 12.5 14.45 15.75 Q12.7 19 12.7 23.5 L3.7 23.5 Q3.7 17 6.05 12.25 Q8.4 7.5 12.45 4.45 Q16.5 1.4 21.85 -0.1 Q27.2 -1.6 33.2 -1.6 Q38.1 -1.6 43.05 -0.45 Q48 0.7 52 3.25 Q56 5.8 58.55 9.85 Q61.1 13.9 61.1 19.6 Q61.1 24.9 59.15 28.4 Q57.2 31.9 53.95 34.2 Q50.7 36.5 46.6 37.85 Q42.5 39.2 38.25 40.2 Q34 41.2 29.9 42.05 Q25.8 42.9 22.55 44.2 Q19.3 45.5 17.35 47.55 Q15.4 49.6 15.4 52.9 Q15.4 56.4 16.75 58.75 Q18.1 61.1 20.35 62.5 Q22.6 63.9 25.5 64.5 Q28.4 65.1 31.4 65.1 Q38.8 65.1 43.55 61.65 Q48.3 58.2 49.1 50.5 Z"
        /><glyph unicode="G" horiz-adv-x="75.9" d="M61.2 8.9 L63.7 0 L69.7 0 L69.7 37.6 L38.4 37.6 L38.4 29.6 L61.2 29.6 Q61.4 24.7 59.9 20.45 Q58.4 16.2 55.45 13.05 Q52.5 9.9 48.2 8.1 Q43.9 6.3 38.3 6.3 Q32.3 6.3 27.75 8.65 Q23.2 11 20.1 14.95 Q17 18.9 15.4 24.05 Q13.8 29.2 13.8 34.8 Q13.8 40.5 15.2 45.95 Q16.6 51.4 19.55 55.65 Q22.5 59.9 27.15 62.5 Q31.8 65.1 38.3 65.1 Q42.3 65.1 45.85 64.15 Q49.4 63.2 52.2 61.3 Q55 59.4 56.9 56.45 Q58.8 53.5 59.5 49.4 L69 49.4 Q68 55.7 65.25 60.15 Q62.5 64.6 58.45 67.5 Q54.4 70.4 49.25 71.75 Q44.1 73.1 38.3 73.1 Q29.8 73.1 23.45 69.95 Q17.1 66.8 12.85 61.5 Q8.6 56.2 6.45 49.15 Q4.3 42.1 4.3 34.3 Q4.3 27.3 6.6 20.8 Q8.9 14.3 13.3 9.3 Q17.7 4.3 24 1.35 Q30.3 -1.6 38.3 -1.6 Q44.6 -1.6 50.8 0.85 Q57 3.3 61.2 8.9 Z"
        /><glyph unicode="C" horiz-adv-x="72.2" d="M58 49.9 L67.5 49.9 Q66.7 55.6 64.1 59.95 Q61.5 64.3 57.6 67.2 Q53.7 70.1 48.7 71.6 Q43.7 73.1 38.1 73.1 Q29.9 73.1 23.55 70.15 Q17.2 67.2 12.95 62.1 Q8.7 57 6.5 50.15 Q4.3 43.3 4.3 35.5 Q4.3 27.7 6.35 20.9 Q8.4 14.1 12.5 9.1 Q16.6 4.1 22.8 1.25 Q29 -1.6 37.3 -1.6 Q51 -1.6 58.9 5.9 Q66.8 13.4 68.2 26.9 L58.7 26.9 Q58.4 22.5 56.9 18.7 Q55.4 14.9 52.75 12.15 Q50.1 9.4 46.45 7.85 Q42.8 6.3 38.1 6.3 Q31.7 6.3 27.1 8.7 Q22.5 11.1 19.55 15.15 Q16.6 19.2 15.2 24.65 Q13.8 30.1 13.8 36.2 Q13.8 41.8 15.2 47 Q16.6 52.2 19.55 56.25 Q22.5 60.3 27.05 62.7 Q31.6 65.1 38 65.1 Q45.5 65.1 50.95 61.3 Q56.4 57.5 58 49.9 Z"
      /></font
      ><font horiz-adv-x="50.0" id="font2"
      ><font-face ascent="97.5" descent="21.699999" units-per-em="100" style="font-style:normal; font-family:Helvetica Neue; font-weight:bold;"
        /><missing-glyph horiz-adv-x="50.0" d="M39.1 60.7 L11.1 60.7 L11.1 9.5 L39.1 9.5 ZM48.2 69.8 L48.2 0.3 L1.7 0.3 L1.7 69.8 Z"
        /><glyph unicode="5" horiz-adv-x="55.6" d="M50 58.3 L50 70 L10.9 70 L4 31.3 L16.8 31.3 Q18.9 34.2 21.3 35.55 Q23.7 36.9 27.5 36.9 Q30.4 36.9 32.6 35.9 Q34.8 34.9 36.4 33.1 Q38 31.3 38.8 28.9 Q39.6 26.5 39.6 23.8 Q39.6 21.2 38.75 18.75 Q37.9 16.3 36.35 14.45 Q34.8 12.6 32.55 11.45 Q30.3 10.3 27.5 10.3 Q22.7 10.3 19.6 13.15 Q16.5 16 16 20.8 L1.8 20.8 Q1.9 15.3 4.05 11.15 Q6.2 7 9.8 4.2 Q13.4 1.4 18.05 0.05 Q22.7 -1.3 27.8 -1.3 Q33.1 -1.4 37.8 0.45 Q42.5 2.3 46.05 5.7 Q49.6 9.1 51.7 13.75 Q53.8 18.4 53.8 23.8 Q53.8 28.7 52.35 33.05 Q50.9 37.4 48.15 40.6 Q45.4 43.8 41.4 45.7 Q37.4 47.6 32.2 47.6 Q28 47.6 24.7 46.35 Q21.4 45.1 18.5 42.2 L18.3 42.4 L21.1 58.3 Z"
        /><glyph unicode="1" horiz-adv-x="55.6" d="M39.2 0 L39.2 70 L27.9 70 Q27.3 66 25.4 63.3 Q23.5 60.6 20.75 58.95 Q18 57.3 14.55 56.65 Q11.1 56 7.4 56.1 L7.4 45.4 L25 45.4 L25 0 Z"
        /><glyph unicode="m" horiz-adv-x="90.6" d="M5.8 51.7 L5.8 0 L20 0 L20 30 Q20 33.8 21.1 36.15 Q22.2 38.5 23.75 39.75 Q25.3 41 26.95 41.45 Q28.6 41.9 29.6 41.9 Q33 41.9 34.75 40.75 Q36.5 39.6 37.25 37.7 Q38 35.8 38.1 33.55 Q38.2 31.3 38.2 29 L38.2 0 L52.4 0 L52.4 28.8 Q52.4 31.2 52.75 33.55 Q53.1 35.9 54.15 37.75 Q55.2 39.6 57.05 40.75 Q58.9 41.9 61.9 41.9 Q64.9 41.9 66.65 40.9 Q68.4 39.9 69.3 38.2 Q70.2 36.5 70.4 34.2 Q70.6 31.9 70.6 29.3 L70.6 0 L84.8 0 L84.8 34.6 Q84.8 39.6 83.4 43.15 Q82 46.7 79.5 48.9 Q77 51.1 73.5 52.1 Q70 53.1 65.9 53.1 Q60.5 53.1 56.55 50.5 Q52.6 47.9 50.3 44.5 Q48.2 49.3 44.15 51.2 Q40.1 53.1 35.2 53.1 Q30.1 53.1 26.15 50.9 Q22.2 48.7 19.4 44.7 L19.2 44.7 L19.2 51.7 Z"
        /><glyph unicode="e" horiz-adv-x="57.4" d="M40.2 31.4 L17.1 31.4 Q17.2 32.9 17.75 34.8 Q18.3 36.7 19.65 38.4 Q21 40.1 23.25 41.25 Q25.5 42.4 28.9 42.4 Q34.1 42.4 36.65 39.6 Q39.2 36.8 40.2 31.4 ZM17.1 22.4 L54.4 22.4 Q54.8 28.4 53.4 33.9 Q52 39.4 48.85 43.7 Q45.7 48 40.8 50.55 Q35.9 53.1 29.3 53.1 Q23.4 53.1 18.55 51 Q13.7 48.9 10.2 45.25 Q6.7 41.6 4.8 36.6 Q2.9 31.6 2.9 25.8 Q2.9 19.8 4.75 14.8 Q6.6 9.8 10 6.2 Q13.4 2.6 18.3 0.65 Q23.2 -1.3 29.3 -1.3 Q38.1 -1.3 44.3 2.7 Q50.5 6.7 53.5 16 L41 16 Q40.3 13.6 37.2 11.45 Q34.1 9.3 29.8 9.3 Q23.8 9.3 20.6 12.4 Q17.4 15.5 17.1 22.4 Z"
        /><glyph unicode="l" horiz-adv-x="25.8" d="M5.8 71.4 L5.8 0 L20 0 L20 71.4 Z"
        /><glyph unicode="b" horiz-adv-x="61.1" d="M43.3 25.8 Q43.3 22.6 42.6 19.6 Q41.9 16.6 40.4 14.3 Q38.9 12 36.65 10.65 Q34.4 9.3 31.2 9.3 Q28.1 9.3 25.8 10.65 Q23.5 12 22 14.3 Q20.5 16.6 19.8 19.6 Q19.1 22.6 19.1 25.8 Q19.1 29.1 19.8 32.1 Q20.5 35.1 22 37.4 Q23.5 39.7 25.8 41.05 Q28.1 42.4 31.2 42.4 Q34.4 42.4 36.65 41.05 Q38.9 39.7 40.4 37.4 Q41.9 35.1 42.6 32.1 Q43.3 29.1 43.3 25.8 ZM5.4 71.4 L5.4 0 L18.9 0 L18.9 6.6 L19.1 6.6 Q21.4 2.3 25.9 0.5 Q30.4 -1.3 36.1 -1.3 Q40 -1.3 43.8 0.3 Q47.6 1.9 50.65 5.2 Q53.7 8.5 55.6 13.65 Q57.5 18.8 57.5 25.9 Q57.5 33 55.6 38.15 Q53.7 43.3 50.65 46.6 Q47.6 49.9 43.8 51.5 Q40 53.1 36.1 53.1 Q31.3 53.1 26.85 51.25 Q22.4 49.4 19.8 45.4 L19.6 45.4 L19.6 71.4 Z"
        /><glyph unicode="o" horiz-adv-x="61.1" d="M18 25.8 Q18 28.9 18.6 31.9 Q19.2 34.9 20.65 37.2 Q22.1 39.5 24.5 40.95 Q26.9 42.4 30.5 42.4 Q34.1 42.4 36.55 40.95 Q39 39.5 40.45 37.2 Q41.9 34.9 42.5 31.9 Q43.1 28.9 43.1 25.8 Q43.1 22.7 42.5 19.75 Q41.9 16.8 40.45 14.45 Q39 12.1 36.55 10.7 Q34.1 9.3 30.5 9.3 Q26.9 9.3 24.5 10.7 Q22.1 12.1 20.65 14.45 Q19.2 16.8 18.6 19.75 Q18 22.7 18 25.8 ZM3.8 25.8 Q3.8 19.6 5.7 14.6 Q7.6 9.6 11.1 6.05 Q14.6 2.5 19.5 0.6 Q24.4 -1.3 30.5 -1.3 Q36.6 -1.3 41.55 0.6 Q46.5 2.5 50 6.05 Q53.5 9.6 55.4 14.6 Q57.3 19.6 57.3 25.8 Q57.3 32 55.4 37.05 Q53.5 42.1 50 45.65 Q46.5 49.2 41.55 51.15 Q36.6 53.1 30.5 53.1 Q24.4 53.1 19.5 51.15 Q14.6 49.2 11.1 45.65 Q7.6 42.1 5.7 37.05 Q3.8 32 3.8 25.8 Z"
        /><glyph unicode="r" horiz-adv-x="38.9" d="M5.4 51.7 L5.4 0 L19.6 0 L19.6 23.3 Q19.6 26.8 20.3 29.8 Q21 32.8 22.65 35.05 Q24.3 37.3 27 38.6 Q29.7 39.9 33.6 39.9 Q34.9 39.9 36.3 39.75 Q37.7 39.6 38.7 39.4 L38.7 52.6 Q37 53.1 35.6 53.1 Q32.9 53.1 30.4 52.3 Q27.9 51.5 25.7 50.05 Q23.5 48.6 21.8 46.55 Q20.1 44.5 19.1 42.1 L18.9 42.1 L18.9 51.7 Z"
        /><glyph unicode="P" horiz-adv-x="66.7" d="M22.6 37.8 L22.6 59.2 L34.8 59.2 Q37.5 59.2 40 58.8 Q42.5 58.4 44.4 57.25 Q46.3 56.1 47.45 54 Q48.6 51.9 48.6 48.5 Q48.6 45.1 47.45 43 Q46.3 40.9 44.4 39.75 Q42.5 38.6 40 38.2 Q37.5 37.8 34.8 37.8 ZM6.9 71.4 L6.9 0 L22.6 0 L22.6 25.6 L39.1 25.6 Q45.8 25.6 50.5 27.55 Q55.2 29.5 58.15 32.7 Q61.1 35.9 62.45 40.05 Q63.8 44.2 63.8 48.5 Q63.8 52.9 62.45 57 Q61.1 61.1 58.15 64.3 Q55.2 67.5 50.5 69.45 Q45.8 71.4 39.1 71.4 Z"
      /></font
    ></defs
    ><g style="fill:white; stroke:white;"
    ><rect x="0" y="0" width="560" style="clip-path:url(#clipPath1); stroke:none;" height="420"
    /></g
    ><g style="fill:white; text-rendering:optimizeSpeed; color-rendering:optimizeSpeed; image-rendering:optimizeSpeed; shape-rendering:crispEdges; stroke:white; color-interpolation:sRGB;"
    ><rect x="0" width="560" height="420" y="0" style="stroke:none;"
      /><path style="stroke:none;" d="M73 374 L507 374 L507 31.5 L73 31.5 Z"
    /></g
    ><g style="fill:rgb(38,38,38); text-rendering:geometricPrecision; image-rendering:optimizeQuality; color-rendering:optimizeQuality; stroke-linejoin:round; stroke:rgb(38,38,38); color-interpolation:linearRGB; stroke-width:0.5;"
    ><line y2="374" style="fill:none;" x1="73" x2="507" y1="374"
      /><line y2="369.66" style="fill:none;" x1="73" x2="73" y1="374"
      /><line y2="369.66" style="fill:none;" x1="116.4" x2="116.4" y1="374"
      /><line y2="369.66" style="fill:none;" x1="159.8" x2="159.8" y1="374"
      /><line y2="369.66" style="fill:none;" x1="203.2" x2="203.2" y1="374"
      /><line y2="369.66" style="fill:none;" x1="246.6" x2="246.6" y1="374"
      /><line y2="369.66" style="fill:none;" x1="290" x2="290" y1="374"
      /><line y2="369.66" style="fill:none;" x1="333.4" x2="333.4" y1="374"
      /><line y2="369.66" style="fill:none;" x1="376.8" x2="376.8" y1="374"
      /><line y2="369.66" style="fill:none;" x1="420.2" x2="420.2" y1="374"
      /><line y2="369.66" style="fill:none;" x1="463.6" x2="463.6" y1="374"
      /><line y2="369.66" style="fill:none;" x1="507" x2="507" y1="374"
    /></g
    ><g transform="translate(73,378)" style="font-size:10px; fill:rgb(38,38,38); text-rendering:geometricPrecision; image-rendering:optimizeQuality; color-rendering:optimizeQuality; font-family:'Helvetica Neue'; stroke:rgb(38,38,38); color-interpolation:linearRGB;"
    ><text x="-3" xml:space="preserve" y="10" style="stroke:none;"
      >0</text
    ></g
    ><g transform="translate(116.4,378)" style="font-size:10px; fill:rgb(38,38,38); text-rendering:geometricPrecision; image-rendering:optimizeQuality; color-rendering:optimizeQuality; font-family:'Helvetica Neue'; stroke:rgb(38,38,38); color-interpolation:linearRGB;"
    ><text x="-6" xml:space="preserve" y="10" style="stroke:none;"
      >50</text
    ></g
    ><g transform="translate(159.8,378)" style="font-size:10px; fill:rgb(38,38,38); text-rendering:geometricPrecision; image-rendering:optimizeQuality; color-rendering:optimizeQuality; font-family:'Helvetica Neue'; stroke:rgb(38,38,38); color-interpolation:linearRGB;"
    ><text x="-8.5" xml:space="preserve" y="10" style="stroke:none;"
      >100</text
    ></g
    ><g transform="translate(203.2,378)" style="font-size:10px; fill:rgb(38,38,38); text-rendering:geometricPrecision; image-rendering:optimizeQuality; color-rendering:optimizeQuality; font-family:'Helvetica Neue'; stroke:rgb(38,38,38); color-interpolation:linearRGB;"
    ><text x="-8.5" xml:space="preserve" y="10" style="stroke:none;"
      >150</text
    ></g
    ><g transform="translate(246.6,378)" style="font-size:10px; fill:rgb(38,38,38); text-rendering:geometricPrecision; image-rendering:optimizeQuality; color-rendering:optimizeQuality; font-family:'Helvetica Neue'; stroke:rgb(38,38,38); color-interpolation:linearRGB;"
    ><text x="-8.5" xml:space="preserve" y="10" style="stroke:none;"
      >200</text
    ></g
    ><g transform="translate(290,378)" style="font-size:10px; fill:rgb(38,38,38); text-rendering:geometricPrecision; image-rendering:optimizeQuality; color-rendering:optimizeQuality; font-family:'Helvetica Neue'; stroke:rgb(38,38,38); color-interpolation:linearRGB;"
    ><text x="-8.5" xml:space="preserve" y="10" style="stroke:none;"
      >250</text
    ></g
    ><g transform="translate(333.4,378)" style="font-size:10px; fill:rgb(38,38,38); text-rendering:geometricPrecision; image-rendering:optimizeQuality; color-rendering:optimizeQuality; font-family:'Helvetica Neue'; stroke:rgb(38,38,38); color-interpolation:linearRGB;"
    ><text x="-8.5" xml:space="preserve" y="10" style="stroke:none;"
      >300</text
    ></g
    ><g transform="translate(376.8,378)" style="font-size:10px; fill:rgb(38,38,38); text-rendering:geometricPrecision; image-rendering:optimizeQuality; color-rendering:optimizeQuality; font-family:'Helvetica Neue'; stroke:rgb(38,38,38); color-interpolation:linearRGB;"
    ><text x="-8.5" xml:space="preserve" y="10" style="stroke:none;"
      >350</text
    ></g
    ><g transform="translate(420.2,378)" style="font-size:10px; fill:rgb(38,38,38); text-rendering:geometricPrecision; image-rendering:optimizeQuality; color-rendering:optimizeQuality; font-family:'Helvetica Neue'; stroke:rgb(38,38,38); color-interpolation:linearRGB;"
    ><text x="-8.5" xml:space="preserve" y="10" style="stroke:none;"
      >400</text
    ></g
    ><g transform="translate(463.6,378)" style="font-size:10px; fill:rgb(38,38,38); text-rendering:geometricPrecision; image-rendering:optimizeQuality; color-rendering:optimizeQuality; font-family:'Helvetica Neue'; stroke:rgb(38,38,38); color-interpolation:linearRGB;"
    ><text x="-8.5" xml:space="preserve" y="10" style="stroke:none;"
      >450</text
    ></g
    ><g transform="translate(507,378)" style="font-size:10px; fill:rgb(38,38,38); text-rendering:geometricPrecision; image-rendering:optimizeQuality; color-rendering:optimizeQuality; font-family:'Helvetica Neue'; stroke:rgb(38,38,38); color-interpolation:linearRGB;"
    ><text x="-8.5" xml:space="preserve" y="10" style="stroke:none;"
      >500</text
    ></g
    ><g transform="translate(290.0002,391.5)" style="font-size:11px; fill:rgb(38,38,38); text-rendering:geometricPrecision; image-rendering:optimizeQuality; color-rendering:optimizeQuality; font-family:'Helvetica Neue'; stroke:rgb(38,38,38); color-interpolation:linearRGB;"
    ><text x="-28.5" xml:space="preserve" y="11" style="stroke:none;"
      >N Iterations</text
    ></g
    ><g style="fill:rgb(38,38,38); text-rendering:geometricPrecision; image-rendering:optimizeQuality; color-rendering:optimizeQuality; stroke-linejoin:round; stroke:rgb(38,38,38); color-interpolation:linearRGB; stroke-width:0.5;"
    ><line y2="31.5" style="fill:none;" x1="73" x2="73" y1="374"
      /><line y2="374" style="fill:none;" x1="73" x2="77.34" y1="374"
      /><line y2="259.8333" style="fill:none;" x1="73" x2="77.34" y1="259.8333"
      /><line y2="145.6667" style="fill:none;" x1="73" x2="77.34" y1="145.6667"
      /><line y2="31.5" style="fill:none;" x1="73" x2="77.34" y1="31.5"
    /></g
    ><g transform="translate(69,374)" style="font-size:10px; fill:rgb(38,38,38); text-rendering:geometricPrecision; image-rendering:optimizeQuality; color-rendering:optimizeQuality; font-family:'Helvetica Neue'; stroke:rgb(38,38,38); color-interpolation:linearRGB;"
    ><text x="-6" xml:space="preserve" y="3.5" style="stroke:none;"
      >0</text
    ></g
    ><g transform="translate(69,259.8333)" style="font-size:10px; fill:rgb(38,38,38); text-rendering:geometricPrecision; image-rendering:optimizeQuality; color-rendering:optimizeQuality; font-family:'Helvetica Neue'; stroke:rgb(38,38,38); color-interpolation:linearRGB;"
    ><text x="-20" xml:space="preserve" y="3.5" style="stroke:none;"
      >0.05</text
    ></g
    ><g transform="translate(69,145.6667)" style="font-size:10px; fill:rgb(38,38,38); text-rendering:geometricPrecision; image-rendering:optimizeQuality; color-rendering:optimizeQuality; font-family:'Helvetica Neue'; stroke:rgb(38,38,38); color-interpolation:linearRGB;"
    ><text x="-14" xml:space="preserve" y="3.5" style="stroke:none;"
      >0.1</text
    ></g
    ><g transform="translate(69,31.5)" style="font-size:10px; fill:rgb(38,38,38); text-rendering:geometricPrecision; image-rendering:optimizeQuality; color-rendering:optimizeQuality; font-family:'Helvetica Neue'; stroke:rgb(38,38,38); color-interpolation:linearRGB;"
    ><text x="-20" xml:space="preserve" y="3.5" style="stroke:none;"
      >0.15</text
    ></g
    ><g transform="translate(46.5,202.7498) rotate(-90)" style="font-size:11px; fill:rgb(38,38,38); text-rendering:geometricPrecision; image-rendering:optimizeQuality; color-rendering:optimizeQuality; font-family:'Helvetica Neue'; stroke:rgb(38,38,38); color-interpolation:linearRGB;"
    ><text x="-23" xml:space="preserve" y="-3" style="stroke:none;"
      >Mean f(x)</text
    ></g
    ><g transform="translate(290.0003,30.125)" style="font-size:11px; text-rendering:geometricPrecision; image-rendering:optimizeQuality; color-rendering:optimizeQuality; font-family:'Helvetica Neue'; color-interpolation:linearRGB; font-weight:bold;"
    ><text x="-28.5" xml:space="preserve" y="-3" style="stroke:none;"
      >Problem15</text
    ></g
    ><g style="stroke-linecap:butt; fill:lime; text-rendering:geometricPrecision; image-rendering:optimizeQuality; color-rendering:optimizeQuality; stroke-linejoin:round; stroke:lime; color-interpolation:linearRGB; stroke-width:3;"
    ><path d="M73.868 285.2232 L74.736 297.0374 L75.604 336.069 L76.472 336.069 L77.34 336.069 L78.208 345.3954 L79.076 347.6546 L79.944 354.9635 L80.812 356.5276 L81.68 356.5276 L82.548 356.5276 L83.416 356.5276 L84.284 356.5276 L85.152 356.5276 L86.02 357.739 L86.888 357.739 L87.756 357.739 L88.624 357.739 L89.492 357.739 L90.36 359.0593 L91.228 359.8687 L92.096 359.8687 L92.964 360.8786 L93.832 360.8786 L94.7 361.9188 L95.568 361.9188 L96.436 363.4709 L97.304 363.4709 L98.172 363.4709 L99.04 363.4709 L99.908 363.4709 L100.776 363.4709 L101.644 363.4709 L102.512 363.4709 L103.38 363.4709 L104.248 363.4709 L105.116 363.4709 L105.984 364.2489 L106.852 364.2489 L107.72 364.2489 L108.588 364.2489 L109.456 365.2072 L110.324 366.2867 L111.192 366.2867 L112.06 366.2867 L112.928 366.8185 L113.796 366.8185 L114.664 366.8185 L115.532 366.8185 L116.4 366.8185 L117.268 366.8185 L118.136 366.8185 L119.004 366.8185 L119.872 366.8185 L120.74 368.0591 L121.608 368.0591 L122.476 368.0591 L123.344 368.0591 L124.212 368.0591 L125.08 368.0591 L125.948 368.0591 L126.816 368.0591 L127.684 368.0591 L128.552 368.0591 L129.42 368.0591 L130.288 368.0591 L131.156 368.0591 L132.024 368.0591 L132.892 368.0591 L133.76 368.0591 L134.628 368.0591 L135.496 368.0591 L136.364 368.0591 L137.232 368.0591 L138.1 368.0591 L138.968 368.0591 L139.836 368.0591 L140.704 368.0591 L141.572 368.0591 L142.44 368.0591 L143.308 368.0591 L144.176 368.0591 L145.044 368.0591 L145.912 368.0591 L146.78 368.0591 L147.648 368.0591 L148.516 368.0591 L149.384 368.0591 L150.252 368.0591 L151.12 368.0591 L151.988 368.0591 L152.856 368.0591 L153.724 368.0591 L154.592 368.0591 L155.46 368.0591 L156.328 368.0591 L157.196 368.0591 L158.064 368.0591 L158.932 368.0591 L159.8 368.0591 L160.668 368.0591 L161.536 368.0591 L162.404 368.0591 L163.272 368.0591 L164.14 368.0591 L165.008 368.0591 L165.876 368.0591 L166.744 368.0591 L167.612 368.4611 L168.48 368.4611 L169.348 368.4611 L170.216 368.4611 L171.084 368.4611 L171.952 368.4611 L172.82 368.4611 L173.688 368.4611 L174.556 368.4611 L175.424 368.4611 L176.292 368.4611 L177.16 368.4611 L178.028 368.4611 L178.896 368.4611 L179.764 368.4611 L180.632 368.4723 L181.5 368.4723 L182.368 368.4723 L183.236 368.4723 L184.104 368.4723 L184.972 368.4723 L185.84 368.4723 L186.708 368.4723 L187.576 368.4723 L188.444 368.4723 L189.312 368.4723 L190.18 368.4723 L191.048 368.4723 L191.916 368.4723 L192.784 368.4723 L193.652 368.4723 L194.52 368.4723 L195.388 368.4723 L196.256 368.4723 L197.124 368.4723 L197.992 368.4723 L198.86 368.4723 L199.728 368.4723 L200.596 368.4723 L201.464 368.4723 L202.332 368.4723 L203.2 368.4723 L204.068 368.4723 L204.936 368.4723 L205.804 368.4723 L206.672 368.4723 L207.54 368.4723 L208.408 368.4723 L209.276 368.4723 L210.144 368.4723 L211.012 368.4723 L211.88 368.4723 L212.748 368.4723 L213.616 368.4723 L214.484 368.4723 L215.352 368.4723 L216.22 368.4723 L217.088 368.4723 L217.956 368.4723 L218.824 368.4723 L219.692 368.4723 L220.56 368.4723 L221.428 368.4723 L222.296 368.4723 L223.164 368.4723 L224.032 368.4723 L224.9 368.4723 L225.768 368.4723 L226.636 368.4723 L227.504 368.4723 L228.372 368.4723 L229.24 368.4723 L230.108 368.4723 L230.976 368.4723 L231.844 368.4723 L232.712 368.4723 L233.58 368.4723 L234.448 368.4723 L235.316 368.4723 L236.184 368.4723 L237.052 368.4723 L237.92 368.4723 L238.788 368.4723 L239.656 368.4723 L240.524 368.4723 L241.392 368.4723 L242.26 368.4723 L243.128 368.4723 L243.996 368.4723 L244.864 368.4723 L245.732 368.4723 L246.6 368.4723 L247.468 368.4723 L248.336 368.4723 L249.204 368.4723 L250.072 368.4723 L250.94 368.4723 L251.808 368.4723 L252.676 368.4723 L253.544 368.4723 L254.412 368.4723 L255.28 368.4723 L256.148 368.4723 L257.016 368.4723 L257.884 368.4723 L258.752 368.4723 L259.62 368.4723 L260.488 368.4723 L261.356 368.4723 L262.224 368.4723 L263.092 368.4723 L263.96 368.4723 L264.828 368.4723 L265.696 368.4723 L266.564 368.4723 L267.432 368.4723 L268.3 368.4723 L269.168 368.4723 L270.036 368.4723 L270.904 368.4723 L271.772 368.4723 L272.64 368.4723 L273.508 368.4723 L274.376 368.4723 L275.244 368.4723 L276.112 368.4723 L276.98 368.4723 L277.848 368.4723 L278.716 368.4723 L279.584 368.4723 L280.452 368.4723 L281.32 368.4723 L282.188 368.4723 L283.056 368.4723 L283.924 368.4723 L284.792 368.4723 L285.66 368.4723 L286.528 368.4723 L287.396 368.4723 L288.264 368.4723 L289.132 368.4723 L290 368.4723 L290.868 368.4723 L291.736 368.4723 L292.604 368.4723 L293.472 368.4723 L294.34 368.4723 L295.208 368.4723 L296.076 368.4723 L296.944 368.4723 L297.812 368.4723 L298.68 368.4723 L299.548 369.0231 L300.416 369.0231 L301.284 369.0231 L302.152 369.0231 L303.02 369.0231 L303.888 369.0231 L304.756 369.0231 L305.624 369.0231 L306.492 369.0231 L307.36 369.0231 L308.228 369.0231 L309.096 369.0231 L309.964 369.0231 L310.832 369.0231 L311.7 369.0231 L312.568 369.0231 L313.436 369.0231 L314.304 369.0231 L315.172 369.0231 L316.04 369.0231 L316.908 369.0231 L317.776 369.0231 L318.644 369.0231 L319.512 369.0231 L320.38 369.0231 L321.248 369.0231 L322.116 369.0231 L322.984 369.0231 L323.852 369.0231 L324.72 369.0231 L325.588 369.0231 L326.456 369.0231 L327.324 369.0231 L328.192 369.0231 L329.06 369.0231 L329.928 369.0231 L330.796 369.0231 L331.664 369.0231 L332.532 369.0231 L333.4 369.0231 L334.268 369.0231 L335.136 369.0231 L336.004 369.0231 L336.872 369.0231 L337.74 369.0231 L338.608 369.0231 L339.476 369.0231 L340.344 369.0231 L341.212 369.0231 L342.08 369.0231 L342.948 369.0231 L343.816 369.4268 L344.684 369.4268 L345.552 369.4268 L346.42 369.4268 L347.288 369.4268 L348.156 369.4268 L349.024 369.4268 L349.892 369.4268 L350.76 369.4268 L351.628 369.4268 L352.496 369.4268 L353.364 369.4268 L354.232 369.5553 L355.1 369.5553 L355.968 369.5553 L356.836 369.5553 L357.704 369.5553 L358.572 369.5553 L359.44 369.5553 L360.308 369.5553 L361.176 369.5553 L362.044 369.5553 L362.912 369.5553 L363.78 369.7843 L364.648 369.7843 L365.516 369.7843 L366.384 369.7843 L367.252 369.7843 L368.12 369.7843 L368.988 369.7843 L369.856 369.7843 L370.724 369.7843 L371.592 369.7843 L372.46 369.7843 L373.328 369.7843 L374.196 369.7843 L375.064 369.7843 L375.932 369.7843 L376.8 369.7843 L377.668 369.7843 L378.536 369.7843 L379.404 369.7843 L380.272 369.7843 L381.14 369.7843 L382.008 369.7843 L382.876 369.7843 L383.744 369.7843 L384.612 369.7843 L385.48 369.7843 L386.348 369.7843 L387.216 369.7843 L388.084 369.7843 L388.952 369.7843 L389.82 369.7843 L390.688 369.8192 L391.556 369.8192 L392.424 369.8192 L393.292 369.8192 L394.16 369.8192 L395.028 369.8192 L395.896 369.8192 L396.764 369.8192 L397.632 369.8192 L398.5 369.8192 L399.368 369.8192 L400.236 369.8192 L401.104 369.8192 L401.972 369.8192 L402.84 369.8192 L403.708 369.8192 L404.576 369.8192 L405.444 369.8192 L406.312 369.8192 L407.18 369.8192 L408.048 369.8192 L408.916 369.8192 L409.784 369.8192 L410.652 369.8192 L411.52 369.8192 L412.388 369.8192 L413.256 369.9731 L414.124 369.9731 L414.992 369.9731 L415.86 369.9731 L416.728 369.9731 L417.596 369.9731 L418.464 369.9731 L419.332 369.9731 L420.2 369.9731 L421.068 369.9731 L421.936 369.9731 L422.804 369.9731 L423.672 369.9731 L424.54 369.9731 L425.408 369.9731 L426.276 369.9731 L427.144 369.9731 L428.012 369.9731 L428.88 369.9731 L429.748 369.9731 L430.616 369.9731 L431.484 369.9731 L432.352 369.9731 L433.22 369.9731 L434.088 369.9731 L434.956 369.9768 L435.824 369.9768 L436.692 369.9791 L437.56 370.0643 L438.428 370.0643 L439.296 370.0643 L440.164 370.0647 L441.032 370.2925 L441.9 370.2928 L442.768 370.2928 L443.636 370.2928 L444.504 370.2943 L445.372 370.2943 L446.24 370.2943 L447.108 370.3092 L447.976 370.3092 L448.844 370.3092 L449.712 370.3092 L450.58 370.3092 L451.448 370.5313 L452.316 370.5313 L453.184 370.5313 L454.052 370.5313 L454.92 370.5322 L455.788 370.5322 L456.656 370.5322 L457.524 370.5322 L458.392 370.5322 L459.26 370.5322 L460.128 370.5322 L460.996 370.5322 L461.864 370.5322 L462.732 370.5322 L463.6 370.5322 L464.468 370.5322 L465.336 370.5322 L466.204 370.5322 L467.072 370.5322 L467.94 370.5322 L468.808 370.5322 L469.676 370.5322 L470.544 370.5322 L471.412 370.5322 L472.28 370.5322 L473.148 370.5322 L474.016 370.5322 L474.884 370.5322 L475.752 370.5322 L476.62 370.5322 L477.488 370.5322 L478.356 370.6419 L479.224 370.6419 L480.092 370.6419 L480.96 370.6589 L481.828 370.6589 L482.696 370.6589 L483.564 370.6589 L484.432 370.6589 L485.3 370.6589 L486.168 370.74 L487.036 370.7479 L487.904 370.7649 L488.772 370.7649 L489.64 370.7649 L490.508 370.7649 L491.376 370.7649 L492.244 370.7687 L493.112 370.7778 L493.98 370.7778 L494.848 370.7787 L495.716 370.7891 L496.584 370.8008 L497.452 370.8055 L498.32 370.8055 L499.188 370.8055 L500.056 370.8067 L500.924 370.8179 L501.792 370.8179 L502.66 370.8278 L503.528 370.8278 L504.396 370.8278 L505.264 370.8278 L506.132 370.8356 L507 370.9039" style="fill:none; fill-rule:evenodd;"
    /></g
    ><g style="stroke-linecap:butt; fill:blue; text-rendering:geometricPrecision; image-rendering:optimizeQuality; color-rendering:optimizeQuality; stroke-linejoin:bevel; stroke-dasharray:12,12; stroke:blue; color-interpolation:linearRGB; stroke-width:3; stroke-miterlimit:1;"
    ><path d="M74.4601 31.4592 L74.736 64.0564 L75.604 140.6727 L76.472 175.8812 L77.34 206.5103 L78.208 274.6484 L79.076 280.9796 L79.944 286.4987 L80.812 291.1757 L81.68 306.1313 L82.548 306.5675 L83.416 317.3147 L84.284 321.6743 L85.152 323.4357 L86.02 330.8073 L86.888 332.6837 L87.756 332.6837 L88.624 332.7342 L89.492 333.047 L90.36 334.5592 L91.228 335.4953 L92.096 335.4953 L92.964 336.1205 L93.832 336.8702 L94.7 339.2142 L95.568 342.845 L96.436 345.2368 L97.304 346.7772 L98.172 347.3072 L99.04 348.0592 L99.908 348.7971 L100.776 348.7971 L101.644 349.2455 L102.512 351.0304 L103.38 351.3151 L104.248 351.3151 L105.116 351.3151 L105.984 351.3151 L106.852 351.3151 L107.72 351.3151 L108.588 351.3151 L109.456 351.9173 L110.324 351.9173 L111.192 352.144 L112.06 352.144 L112.928 352.144 L113.796 352.144 L114.664 352.1986 L115.532 352.1986 L116.4 352.1986 L117.268 352.1986 L118.136 352.1986 L119.004 352.2261 L119.872 352.5744 L120.74 352.5744 L121.608 352.5744 L122.476 352.5744 L123.344 352.5744 L124.212 352.5744 L125.08 352.5744 L125.948 352.5744 L126.816 352.5744 L127.684 352.5744 L128.552 352.5744 L129.42 352.5744 L130.288 352.5744 L131.156 353.9052 L132.024 353.9052 L132.892 353.9052 L133.76 353.9052 L134.628 353.9052 L135.496 353.9052 L136.364 353.9052 L137.232 354.1299 L138.1 354.1299 L138.968 354.1299 L139.836 354.1299 L140.704 354.1299 L141.572 354.1299 L142.44 354.1991 L143.308 354.1991 L144.176 354.1991 L145.044 354.1991 L145.912 354.1991 L146.78 354.1991 L147.648 354.1991 L148.516 354.1991 L149.384 354.1991 L150.252 354.1991 L151.12 354.1991 L151.988 354.1991 L152.856 354.1991 L153.724 354.1991 L154.592 354.1991 L155.46 354.2167 L156.328 354.2167 L157.196 354.2167 L158.064 354.2167 L158.932 354.2167 L159.8 354.2167 L160.668 354.2167 L161.536 354.2167 L162.404 354.2167 L163.272 354.2167 L164.14 354.4895 L165.008 354.4895 L165.876 354.4895 L166.744 354.4895 L167.612 354.4895 L168.48 354.5605 L169.348 354.6188 L170.216 354.6188 L171.084 354.6188 L171.952 354.6188 L172.82 354.6188 L173.688 354.6188 L174.556 354.6188 L175.424 354.6188 L176.292 354.6188 L177.16 354.6188 L178.028 354.6188 L178.896 354.6188 L179.764 354.6188 L180.632 354.6188 L181.5 354.6188 L182.368 354.6188 L183.236 354.6188 L184.104 354.7218 L184.972 354.7218 L185.84 354.7218 L186.708 354.7926 L187.576 355.0052 L188.444 355.0052 L189.312 355.0052 L190.18 355.0052 L191.048 355.0553 L191.916 355.0553 L192.784 355.1927 L193.652 355.2252 L194.52 355.2494 L195.388 355.2494 L196.256 355.2494 L197.124 355.25 L197.992 355.2747 L198.86 355.4297 L199.728 355.5787 L200.596 355.5787 L201.464 355.7173 L202.332 355.7319 L203.2 355.745 L204.068 355.7749 L204.936 355.7926 L205.804 355.8142 L206.672 355.8589 L207.54 355.8628 L208.408 355.8628 L209.276 355.9146 L210.144 355.957 L211.012 355.9603 L211.88 356.0407 L212.748 356.0784 L213.616 356.1148 L214.484 356.1148 L215.352 356.1924 L216.22 356.1924 L217.088 356.1973 L217.956 356.259 L218.824 356.2617 L219.692 356.2646 L220.56 356.2646 L221.428 356.2809 L222.296 356.3045 L223.164 356.3405 L224.032 356.3486 L224.9 356.3603 L225.768 356.3963 L226.636 356.4099 L227.504 356.4898 L228.372 356.5014 L229.24 356.5242 L230.108 356.5479 L230.976 356.5758 L231.844 356.6397 L232.712 356.6565 L233.58 356.6642 L234.448 356.7082 L235.316 356.7213 L236.184 356.8087 L237.052 356.8596 L237.92 356.8949 L238.788 356.9065 L239.656 356.98 L240.524 357.0128 L241.392 357.023 L242.26 357.0503 L243.128 357.1026 L243.996 357.1488 L244.864 357.1561 L245.732 357.1751 L246.6 357.2212 L247.468 357.2491 L248.336 357.2763 L249.204 357.307 L250.072 357.3411 L250.94 357.3986 L251.808 357.4391 L252.676 357.4631 L253.544 357.4941 L254.412 357.5354 L255.28 357.5897 L256.148 357.6443 L257.016 357.6571 L257.884 357.6932 L258.752 357.7236 L259.62 357.75 L260.488 357.7928 L261.356 357.8104 L262.224 357.8592 L263.092 357.8801 L263.96 357.9087 L264.828 357.934 L265.696 357.9687 L266.564 357.9927 L267.432 358.0368 L268.3 358.0826 L269.168 358.0986 L270.036 358.1487 L270.904 358.1768 L271.772 358.2061 L272.64 358.2599 L273.508 358.2867 L274.376 358.3383 L275.244 358.3903 L276.112 358.4445 L276.98 358.5026 L277.848 358.5372 L278.716 358.5785 L279.584 358.631 L280.452 358.6583 L281.32 358.7012 L282.188 358.7497 L283.056 358.7843 L283.924 358.8274 L284.792 358.868 L285.66 358.8914 L286.528 358.9322 L287.396 358.9728 L288.264 359.0121 L289.132 359.0395 L290 359.0704 L290.868 359.1036 L291.736 359.1416 L292.604 359.1657 L293.472 359.2086 L294.34 359.2384 L295.208 359.2703 L296.076 359.2963 L296.944 359.3243 L297.812 359.3596 L298.68 359.3885 L299.548 359.4111 L300.416 359.442 L301.284 359.4666 L302.152 359.4933 L303.02 359.5208 L303.888 359.5391 L304.756 359.5645 L305.624 359.5933 L306.492 359.6143 L307.36 359.6412 L308.228 359.66 L309.096 359.6796 L309.964 359.7021 L310.832 359.7243 L311.7 359.7436 L312.568 359.7701 L313.436 359.7883 L314.304 359.8074 L315.172 359.828 L316.04 359.8475 L316.908 359.8644 L317.776 359.8824 L318.644 359.9012 L319.512 359.9151 L320.38 359.9328 L321.248 359.9525 L322.116 359.9699 L322.984 359.9897 L323.852 360.0086 L324.72 360.0241 L325.588 360.0424 L326.456 360.0607 L327.324 360.0785 L328.192 360.0917 L329.06 360.1076 L329.928 360.1244 L330.796 360.139 L331.664 360.1552 L332.532 360.1704 L333.4 360.1837 L334.268 360.1951 L335.136 360.2053 L336.004 360.2194 L336.872 360.2308 L337.74 360.2427 L338.608 360.2529 L339.476 360.2657 L340.344 360.2769 L341.212 360.2856 L342.08 360.2946 L342.948 360.3042 L343.816 360.3141 L344.684 360.323 L345.552 360.3326 L346.42 360.341 L347.288 360.3503 L348.156 360.3604 L349.024 360.3674 L349.892 360.3759 L350.76 360.3844 L351.628 360.3907 L352.496 360.3981 L353.364 360.405 L354.232 360.4114 L355.1 360.4184 L355.968 360.4243 L356.836 360.431 L357.704 360.4359 L358.572 360.4416 L359.44 360.4473 L360.308 360.4528 L361.176 360.4578 L362.044 360.4633 L362.912 360.4682 L363.78 360.4718 L364.648 360.4762 L365.516 360.4808 L366.384 360.4854 L367.252 360.4897 L368.12 360.494 L368.988 360.4982 L369.856 360.5014 L370.724 360.5057 L371.592 360.5095 L372.46 360.5135 L373.328 360.5168 L374.196 360.5204 L375.064 360.524 L375.932 360.527 L376.8 360.5302 L377.668 360.5336 L378.536 360.5362 L379.404 360.5389 L380.272 360.5416 L381.14 360.5441 L382.008 360.5467 L382.876 360.5489 L383.744 360.5515 L384.612 360.5537 L385.48 360.5558 L386.348 360.5579 L387.216 360.56 L388.084 360.562 L388.952 360.5639 L389.82 360.5663 L390.688 360.5685 L391.556 360.5701 L392.424 360.5716 L393.292 360.5734 L394.16 360.5752 L395.028 360.5769 L395.896 360.5782 L396.764 360.58 L397.632 360.5817 L398.5 360.5835 L399.368 360.5847 L400.236 360.586 L401.104 360.5874 L401.972 360.5887 L402.84 360.5899 L403.708 360.5909 L404.576 360.592 L405.444 360.5933 L406.312 360.5943 L407.18 360.5956 L408.048 360.5966 L408.916 360.5974 L409.784 360.5984 L410.652 360.5995 L411.52 360.6004 L412.388 360.6014 L413.256 360.6022 L414.124 360.603 L414.992 360.6039 L415.86 360.6047 L416.728 360.6057 L417.596 360.6063 L418.464 360.6069 L419.332 360.6078 L420.2 360.6085 L421.068 360.6093 L421.936 360.61 L422.804 360.6107 L423.672 360.6111 L424.54 360.6117 L425.408 360.6124 L426.276 360.6129 L427.144 360.6135 L428.012 360.614 L428.88 360.6146 L429.748 360.615 L430.616 360.6155 L431.484 360.616 L432.352 360.6164 L433.22 360.6169 L434.088 360.6173 L434.956 360.6178 L435.824 360.6181 L436.692 360.6184 L437.56 360.6189 L438.428 360.6192 L439.296 360.6195 L440.164 360.62 L441.032 360.6202 L441.9 360.6205 L442.768 360.6208 L443.636 360.6211 L444.504 360.6215 L445.372 360.6218 L446.24 360.6221 L447.108 360.6223 L447.976 360.6226 L448.844 360.6228 L449.712 360.6231 L450.58 360.6233 L451.448 360.6235 L452.316 360.6238 L453.184 360.624 L454.052 360.6242 L454.92 360.6244 L455.788 360.6246 L456.656 360.6248 L457.524 360.6249 L458.392 360.6251 L459.26 360.6253 L460.128 360.6255 L460.996 360.6256 L461.864 360.6258 L462.732 360.6259 L463.6 360.6261 L464.468 360.6263 L465.336 360.6264 L466.204 360.6265 L467.072 360.6267 L467.94 360.6268 L468.808 360.627 L469.676 360.627 L470.544 360.6272 L471.412 360.6273 L472.28 360.6274 L473.148 360.6275 L474.016 360.6276 L474.884 360.6277 L475.752 360.6277 L476.62 360.6279 L477.488 360.6279 L478.356 360.6281 L479.224 360.6281 L480.092 360.6282 L480.96 360.6283 L481.828 360.6284 L482.696 360.6284 L483.564 360.6285 L484.432 360.6286 L485.3 360.6286 L486.168 360.6287 L487.036 360.6288 L487.904 360.6288 L488.772 360.6289 L489.64 360.629 L490.508 360.629 L491.376 360.6291 L492.244 360.6291 L493.112 360.6292 L493.98 360.6292 L494.848 360.6293 L495.716 360.6293 L496.584 360.6294 L497.452 360.6294 L498.32 360.6295 L499.188 360.6295 L500.056 360.6295 L500.924 360.6296 L501.792 360.6296 L502.66 360.6297 L503.528 360.6297 L504.396 360.6297 L505.264 360.6298 L506.132 360.6298 L507 360.6298" style="fill:none; fill-rule:evenodd;"
    /></g
    ><g style="stroke-linecap:butt; fill:red; text-rendering:geometricPrecision; image-rendering:optimizeQuality; color-rendering:optimizeQuality; stroke-linejoin:bevel; stroke-dasharray:10,6; stroke:red; color-interpolation:linearRGB; stroke-width:0.5; stroke-miterlimit:1;"
    ><path d="M74.8996 31.4592 L75.604 107.2689 L76.472 144.2583 L77.34 197.5067 L78.208 199.717 L79.076 218.4858 L79.944 251.5098 L80.812 263.354 L81.68 276.0563 L82.548 276.4109 L83.416 284.426 L84.284 287.8858 L85.152 293.0862 L86.02 298.6953 L86.888 308.2734 L87.756 308.2734 L88.624 314.5751 L89.492 317.1243 L90.36 317.84 L91.228 322.5877 L92.096 323.4791 L92.964 323.9557 L93.832 327.3107 L94.7 329.4864 L95.568 331.6895 L96.436 333.6885 L97.304 334.9738 L98.172 334.9738 L99.04 335.7771 L99.908 336.6868 L100.776 336.6868 L101.644 337.4288 L102.512 337.4495 L103.38 337.4495 L104.248 341.4717 L105.116 343.7147 L105.984 344.168 L106.852 344.6636 L107.72 346.6169 L108.588 347.6346 L109.456 348.0124 L110.324 348.2379 L111.192 349.5236 L112.06 349.5236 L112.928 349.5236 L113.796 349.5236 L114.664 350.7019 L115.532 351.3862 L116.4 351.3862 L117.268 351.7131 L118.136 351.8044 L119.004 352.1614 L119.872 352.1614 L120.74 352.1614 L121.608 352.6916 L122.476 352.6916 L123.344 352.937 L124.212 353.0825 L125.08 353.0825 L125.948 353.294 L126.816 353.9037 L127.684 353.9908 L128.552 353.9908 L129.42 353.9908 L130.288 353.9908 L131.156 354.0019 L132.024 354.0264 L132.892 354.0264 L133.76 354.0264 L134.628 354.3004 L135.496 354.3004 L136.364 354.437 L137.232 354.437 L138.1 355.0512 L138.968 355.8481 L139.836 356.7218 L140.704 356.9151 L141.572 356.9151 L142.44 356.9151 L143.308 356.9151 L144.176 356.9151 L145.044 356.9151 L145.912 356.9151 L146.78 357.1024 L147.648 357.1024 L148.516 357.1024 L149.384 357.1024 L150.252 357.1422 L151.12 357.1422 L151.988 357.1422 L152.856 357.4614 L153.724 357.4614 L154.592 357.4614 L155.46 357.4614 L156.328 358.0914 L157.196 358.0914 L158.064 358.4694 L158.932 358.4694 L159.8 358.4694 L160.668 358.4694 L161.536 358.4694 L162.404 358.4694 L163.272 358.4694 L164.14 358.4694 L165.008 358.4694 L165.876 358.4694 L166.744 358.4694 L167.612 358.4694 L168.48 358.4694 L169.348 358.4694 L170.216 358.4694 L171.084 358.4694 L171.952 358.6855 L172.82 358.6855 L173.688 358.6855 L174.556 358.6855 L175.424 358.6855 L176.292 358.6855 L177.16 358.6855 L178.028 358.6855 L178.896 358.6855 L179.764 358.6855 L180.632 358.6855 L181.5 358.6855 L182.368 358.6855 L183.236 358.6855 L184.104 358.7659 L184.972 358.7659 L185.84 358.7659 L186.708 358.7659 L187.576 358.7659 L188.444 358.7659 L189.312 358.7659 L190.18 358.7659 L191.048 358.7659 L191.916 358.8282 L192.784 358.8282 L193.652 359.0982 L194.52 359.0982 L195.388 359.0982 L196.256 359.0982 L197.124 359.0982 L197.992 359.4956 L198.86 359.4956 L199.728 359.4956 L200.596 359.4956 L201.464 359.4956 L202.332 359.4956 L203.2 359.4956 L204.068 359.4956 L204.936 359.4956 L205.804 359.4956 L206.672 359.4956 L207.54 359.8166 L208.408 359.8166 L209.276 359.8166 L210.144 359.8166 L211.012 359.8166 L211.88 359.8166 L212.748 359.8166 L213.616 359.8166 L214.484 359.8166 L215.352 359.8166 L216.22 359.8166 L217.088 359.8166 L217.956 359.8166 L218.824 359.8166 L219.692 359.8166 L220.56 359.8166 L221.428 359.8166 L222.296 359.8166 L223.164 359.8166 L224.032 359.8166 L224.9 359.8544 L225.768 359.8544 L226.636 359.8544 L227.504 359.8544 L228.372 359.8544 L229.24 359.8544 L230.108 359.8544 L230.976 359.8544 L231.844 359.8544 L232.712 359.8544 L233.58 359.8544 L234.448 359.8544 L235.316 359.8544 L236.184 359.8544 L237.052 359.8544 L237.92 359.8544 L238.788 359.8544 L239.656 359.8544 L240.524 359.8544 L241.392 359.8544 L242.26 359.8544 L243.128 359.8544 L243.996 359.8544 L244.864 359.8544 L245.732 359.8544 L246.6 359.8544 L247.468 359.8544 L248.336 359.8544 L249.204 359.8544 L250.072 359.8544 L250.94 359.8544 L251.808 359.8544 L252.676 359.8544 L253.544 359.8544 L254.412 359.8544 L255.28 359.8544 L256.148 359.8544 L257.016 359.8544 L257.884 359.8544 L258.752 359.8544 L259.62 359.8544 L260.488 359.8544 L261.356 359.8544 L262.224 359.8544 L263.092 359.8544 L263.96 359.8544 L264.828 359.8544 L265.696 359.8544 L266.564 359.8544 L267.432 359.8544 L268.3 359.8544 L269.168 359.8544 L270.036 359.8544 L270.904 359.8544 L271.772 359.8544 L272.64 359.8544 L273.508 359.8544 L274.376 359.8544 L275.244 359.8544 L276.112 359.9456 L276.98 359.9456 L277.848 359.9456 L278.716 359.9456 L279.584 359.9456 L280.452 359.9456 L281.32 359.9456 L282.188 359.9456 L283.056 359.9456 L283.924 360.0167 L284.792 360.0167 L285.66 360.0167 L286.528 360.0167 L287.396 360.0167 L288.264 360.0167 L289.132 360.0167 L290 360.0167 L290.868 360.0167 L291.736 360.0167 L292.604 360.0167 L293.472 360.0167 L294.34 360.1403 L295.208 360.1403 L296.076 360.5679 L296.944 360.5679 L297.812 360.5679 L298.68 360.5679 L299.548 360.5679 L300.416 360.5679 L301.284 360.5679 L302.152 360.6098 L303.02 360.6098 L303.888 360.6098 L304.756 360.6221 L305.624 360.9317 L306.492 360.9317 L307.36 361.0394 L308.228 361.0551 L309.096 361.0551 L309.964 361.0551 L310.832 361.0551 L311.7 361.0551 L312.568 361.0551 L313.436 361.0551 L314.304 361.0551 L315.172 361.0551 L316.04 361.1153 L316.908 361.2955 L317.776 361.2955 L318.644 361.2955 L319.512 361.2955 L320.38 361.2955 L321.248 361.2955 L322.116 361.2955 L322.984 361.2955 L323.852 361.2955 L324.72 361.2955 L325.588 361.2955 L326.456 361.5995 L327.324 361.5995 L328.192 361.6187 L329.06 361.6187 L329.928 361.6187 L330.796 361.6187 L331.664 361.6187 L332.532 361.6187 L333.4 361.6187 L334.268 361.6187 L335.136 361.6187 L336.004 361.6187 L336.872 361.6187 L337.74 361.6187 L338.608 361.6187 L339.476 361.6187 L340.344 361.6187 L341.212 361.6187 L342.08 361.6187 L342.948 361.6187 L343.816 361.6187 L344.684 361.6187 L345.552 361.6187 L346.42 361.6187 L347.288 361.6187 L348.156 361.6187 L349.024 361.6187 L349.892 361.6187 L350.76 361.7801 L351.628 361.7801 L352.496 361.7801 L353.364 361.7801 L354.232 361.7801 L355.1 361.7801 L355.968 361.7801 L356.836 361.7801 L357.704 361.7801 L358.572 361.7866 L359.44 361.7866 L360.308 361.7866 L361.176 361.8911 L362.044 361.8911 L362.912 361.8911 L363.78 361.8911 L364.648 361.8911 L365.516 361.8911 L366.384 361.8911 L367.252 361.8911 L368.12 361.8911 L368.988 361.9186 L369.856 361.9284 L370.724 362.0533 L371.592 362.7407 L372.46 362.989 L373.328 363.1332 L374.196 363.1504 L375.064 363.3846 L375.932 363.3974 L376.8 363.6332 L377.668 363.6332 L378.536 363.6765 L379.404 363.6848 L380.272 363.7204 L381.14 363.7204 L382.008 363.7204 L382.876 363.8203 L383.744 363.8203 L384.612 363.8478 L385.48 363.871 L386.348 363.9115 L387.216 363.9115 L388.084 363.9115 L388.952 363.9115 L389.82 363.9115 L390.688 363.9115 L391.556 363.9115 L392.424 363.9115 L393.292 363.9669 L394.16 363.9669 L395.028 363.9669 L395.896 363.9669 L396.764 364.051 L397.632 364.1124 L398.5 364.2625 L399.368 364.4001 L400.236 364.4724 L401.104 364.481 L401.972 364.481 L402.84 364.5493 L403.708 364.5493 L404.576 364.6487 L405.444 364.6927 L406.312 364.6927 L407.18 364.72 L408.048 364.72 L408.916 364.72 L409.784 364.8232 L410.652 364.9292 L411.52 364.9347 L412.388 364.9597 L413.256 364.9597 L414.124 364.9597 L414.992 364.9597 L415.86 365.0101 L416.728 365.0101 L417.596 365.0101 L418.464 365.0101 L419.332 365.0101 L420.2 365.0101 L421.068 365.0101 L421.936 365.103 L422.804 365.1521 L423.672 365.1521 L424.54 365.1549 L425.408 365.1936 L426.276 365.1936 L427.144 365.204 L428.012 365.204 L428.88 365.2179 L429.748 365.2179 L430.616 365.2384 L431.484 365.2785 L432.352 365.2785 L433.22 365.371 L434.088 365.4329 L434.956 365.4602 L435.824 365.4615 L436.692 365.4891 L437.56 365.5148 L438.428 365.5349 L439.296 365.5585 L440.164 365.5903 L441.032 365.5903 L441.9 365.6019 L442.768 365.6019 L443.636 365.6634 L444.504 365.688 L445.372 365.688 L446.24 365.688 L447.108 365.688 L447.976 365.688 L448.844 365.688 L449.712 365.706 L450.58 365.7143 L451.448 365.7143 L452.316 365.7495 L453.184 365.7786 L454.052 365.7786 L454.92 365.7917 L455.788 365.7987 L456.656 365.8321 L457.524 365.8321 L458.392 365.8527 L459.26 365.8527 L460.128 365.8527 L460.996 365.8528 L461.864 365.8528 L462.732 365.8766 L463.6 365.8766 L464.468 365.8766 L465.336 365.8766 L466.204 365.8766 L467.072 365.8905 L467.94 365.8947 L468.808 365.8947 L469.676 365.8947 L470.544 365.8947 L471.412 365.9518 L472.28 365.9518 L473.148 365.9518 L474.016 365.9518 L474.884 365.9518 L475.752 365.9529 L476.62 365.9607 L477.488 365.9665 L478.356 365.9665 L479.224 365.9758 L480.092 365.9758 L480.96 365.9758 L481.828 365.9758 L482.696 365.9773 L483.564 365.9827 L484.432 365.9977 L485.3 365.9977 L486.168 366.0115 L487.036 366.0155 L487.904 366.0279 L488.772 366.0279 L489.64 366.0279 L490.508 366.0279 L491.376 366.0279 L492.244 366.0279 L493.112 366.0387 L493.98 366.0387 L494.848 366.0387 L495.716 366.0441 L496.584 366.0536 L497.452 366.0536 L498.32 366.0536 L499.188 366.0686 L500.056 366.0837 L500.924 366.0887 L501.792 366.092 L502.66 366.0964 L503.528 366.0964 L504.396 366.1057 L505.264 366.1083 L506.132 366.1216 L507 366.1246" style="fill:none; fill-rule:evenodd;"
    /></g
    ><g transform="translate(91.228,322.5877)" style="stroke-linecap:butt; fill:red; text-rendering:geometricPrecision; color-rendering:optimizeQuality; image-rendering:optimizeQuality; color-interpolation:linearRGB; stroke:red;"
    ><circle r="3" style="fill:none;" cx="0" cy="0"
      /><circle r="3" style="fill:none;" cx="0" transform="translate(17.36,25.0469)" cy="0"
      /><circle r="3" style="fill:none;" cx="0" transform="translate(34.72,30.7064)" cy="0"
      /><circle r="3" style="fill:none;" cx="0" transform="translate(52.08,34.3274)" cy="0"
      /><circle r="3" style="fill:none;" cx="0" transform="translate(69.44,35.8817)" cy="0"
      /><circle r="3" style="fill:none;" cx="0" transform="translate(86.8,36.0979)" cy="0"
      /><circle r="3" style="fill:none;" cx="0" transform="translate(104.16,36.5105)" cy="0"
      /><circle r="3" style="fill:none;" cx="0" transform="translate(121.52,37.2289)" cy="0"
      /><circle r="3" style="fill:none;" cx="0" transform="translate(138.88,37.2668)" cy="0"
      /><circle r="3" style="fill:none;" cx="0" transform="translate(156.24,37.2668)" cy="0"
      /><circle r="3" style="fill:none;" cx="0" transform="translate(173.6,37.2668)" cy="0"
      /><circle r="3" style="fill:none;" cx="0" transform="translate(190.96,37.3579)" cy="0"
      /><circle r="3" style="fill:none;" cx="0" transform="translate(208.32,37.9802)" cy="0"
      /><circle r="3" style="fill:none;" cx="0" transform="translate(225.68,38.7078)" cy="0"
      /><circle r="3" style="fill:none;" cx="0" transform="translate(243.04,39.031)" cy="0"
      /><circle r="3" style="fill:none;" cx="0" transform="translate(260.4,39.1924)" cy="0"
      /><circle r="3" style="fill:none;" cx="0" transform="translate(277.76,39.3309)" cy="0"
      /><circle r="3" style="fill:none;" cx="0" transform="translate(295.12,41.3239)" cy="0"
      /><circle r="3" style="fill:none;" cx="0" transform="translate(312.48,41.9616)" cy="0"
      /><circle r="3" style="fill:none;" cx="0" transform="translate(329.84,42.4224)" cy="0"
      /><circle r="3" style="fill:none;" cx="0" transform="translate(347.2,42.9472)" cy="0"
      /><circle r="3" style="fill:none;" cx="0" transform="translate(364.56,43.2111)" cy="0"
      /><circle r="3" style="fill:none;" cx="0" transform="translate(381.92,43.3641)" cy="0"
      /><circle r="3" style="fill:none;" cx="0" transform="translate(399.28,43.4402)" cy="0"
    /></g
    ><g style="stroke-linecap:butt; text-rendering:geometricPrecision; image-rendering:optimizeQuality; color-rendering:optimizeQuality; stroke-linejoin:bevel; stroke-dasharray:10,6; color-interpolation:linearRGB; stroke-width:0.5; stroke-miterlimit:1;"
    ><path d="M73.868 331.7321 L74.736 336.6405 L75.604 346.4355 L76.472 348.6763 L77.34 350.5966 L78.208 350.5966 L79.076 352.8388 L79.944 353.5048 L80.812 353.5048 L81.68 355.6848 L82.548 359.0025 L83.416 359.0025 L84.284 359.0025 L85.152 360.6263 L86.02 360.6263 L86.888 360.6263 L87.756 360.6263 L88.624 364.2845 L89.492 364.2845 L90.36 364.2845 L91.228 364.7298 L92.096 364.7298 L92.964 364.7298 L93.832 364.7298 L94.7 365.6365 L95.568 366.3131 L96.436 366.6937 L97.304 366.6937 L98.172 367.2015 L99.04 367.2015 L99.908 367.2015 L100.776 367.2015 L101.644 367.2015 L102.512 367.2015 L103.38 368.0966 L104.248 368.0966 L105.116 368.0966 L105.984 368.0966 L106.852 368.0966 L107.72 368.0966 L108.588 368.0966 L109.456 368.0966 L110.324 368.0966 L111.192 368.0966 L112.06 368.0966 L112.928 368.0966 L113.796 368.0966 L114.664 368.0966 L115.532 368.0966 L116.4 368.0966 L117.268 368.0966 L118.136 368.0966 L119.004 368.0966 L119.872 368.0966 L120.74 368.0966 L121.608 368.0966 L122.476 369.0635 L123.344 369.0635 L124.212 369.0635 L125.08 369.0635 L125.948 369.0635 L126.816 369.0635 L127.684 369.0635 L128.552 369.0635 L129.42 369.0635 L130.288 369.0635 L131.156 369.0635 L132.024 369.0635 L132.892 369.0635 L133.76 369.0635 L134.628 369.0635 L135.496 369.0635 L136.364 369.0635 L137.232 369.0635 L138.1 369.0635 L138.968 369.0635 L139.836 369.0635 L140.704 369.0635 L141.572 369.0635 L142.44 369.0635 L143.308 369.0635 L144.176 369.0635 L145.044 369.0635 L145.912 369.0635 L146.78 369.0635 L147.648 369.0635 L148.516 369.0635 L149.384 369.0635 L150.252 369.0635 L151.12 369.0635 L151.988 369.0635 L152.856 369.0635 L153.724 369.0635 L154.592 369.0635 L155.46 369.0635 L156.328 369.0635 L157.196 369.0635 L158.064 369.0635 L158.932 369.0635 L159.8 369.0635 L160.668 369.0635 L161.536 369.0635 L162.404 369.0635 L163.272 369.0635 L164.14 369.0635 L165.008 369.0635 L165.876 369.0635 L166.744 369.0635 L167.612 369.0635 L168.48 369.0635 L169.348 369.0635 L170.216 369.0635 L171.084 369.0635 L171.952 369.0635 L172.82 369.0635 L173.688 369.0635 L174.556 369.0635 L175.424 369.0635 L176.292 369.0635 L177.16 369.0635 L178.028 369.0635 L178.896 369.0635 L179.764 369.0635 L180.632 369.0635 L181.5 369.0635 L182.368 369.0635 L183.236 369.0635 L184.104 369.0635 L184.972 369.0635 L185.84 369.0635 L186.708 369.0635 L187.576 369.0635 L188.444 369.0635 L189.312 369.0635 L190.18 369.0635 L191.048 369.0635 L191.916 369.0635 L192.784 369.0635 L193.652 369.0635 L194.52 369.0635 L195.388 369.0635 L196.256 369.0635 L197.124 369.0635 L197.992 369.0635 L198.86 369.0635 L199.728 369.0635 L200.596 369.0635 L201.464 369.0635 L202.332 369.0635 L203.2 369.0635 L204.068 369.0635 L204.936 369.0635 L205.804 369.0635 L206.672 369.0635 L207.54 369.0635 L208.408 369.0635 L209.276 369.0635 L210.144 369.0635 L211.012 369.0635 L211.88 369.0635 L212.748 369.0635 L213.616 369.0635 L214.484 369.0635 L215.352 369.0635 L216.22 369.0635 L217.088 369.0635 L217.956 369.0635 L218.824 369.0635 L219.692 369.0635 L220.56 369.0635 L221.428 369.0635 L222.296 369.0635 L223.164 369.0635 L224.032 369.0635 L224.9 369.0635 L225.768 369.0635 L226.636 369.0635 L227.504 369.0635 L228.372 369.0635 L229.24 369.0635 L230.108 369.0635 L230.976 369.0635 L231.844 369.0635 L232.712 369.0635 L233.58 369.0635 L234.448 369.0635 L235.316 369.0635 L236.184 369.0635 L237.052 369.0635 L237.92 369.0635 L238.788 369.0635 L239.656 369.0635 L240.524 369.0635 L241.392 369.0635 L242.26 369.0635 L243.128 369.0635 L243.996 369.0635 L244.864 369.0635 L245.732 369.0635 L246.6 369.0635 L247.468 369.0635 L248.336 369.0635 L249.204 369.0635 L250.072 369.0635 L250.94 369.0635 L251.808 369.0635 L252.676 369.0635 L253.544 369.0635 L254.412 369.0635 L255.28 369.0635 L256.148 369.0635 L257.016 369.0635 L257.884 369.0635 L258.752 369.0635 L259.62 369.0635 L260.488 369.0635 L261.356 369.0635 L262.224 369.0635 L263.092 369.0635 L263.96 369.0635 L264.828 369.0635 L265.696 369.0635 L266.564 369.0635 L267.432 369.0635 L268.3 369.0635 L269.168 369.0635 L270.036 369.0635 L270.904 369.0635 L271.772 369.0635 L272.64 369.2178 L273.508 369.2178 L274.376 369.2178 L275.244 369.2178 L276.112 369.2178 L276.98 369.2178 L277.848 369.2178 L278.716 369.2178 L279.584 369.2178 L280.452 369.2178 L281.32 369.2178 L282.188 369.2178 L283.056 369.2178 L283.924 369.2178 L284.792 369.2178 L285.66 369.2178 L286.528 369.2178 L287.396 369.2178 L288.264 369.2178 L289.132 369.2178 L290 369.2178 L290.868 369.2178 L291.736 369.2178 L292.604 369.2178 L293.472 369.2178 L294.34 369.2178 L295.208 369.2178 L296.076 369.2178 L296.944 369.2178 L297.812 369.2178 L298.68 369.2178 L299.548 369.2178 L300.416 369.2178 L301.284 369.2178 L302.152 369.2178 L303.02 369.2178 L303.888 369.2178 L304.756 369.2178 L305.624 369.2178 L306.492 369.2178 L307.36 369.2178 L308.228 369.2178 L309.096 369.2178 L309.964 369.2178 L310.832 369.2178 L311.7 369.2178 L312.568 369.2178 L313.436 369.2178 L314.304 369.2178 L315.172 369.2178 L316.04 369.2178 L316.908 369.2178 L317.776 369.2178 L318.644 369.2178 L319.512 369.218 L320.38 369.218 L321.248 369.2185 L322.116 369.2188 L322.984 369.2188 L323.852 369.2189 L324.72 369.219 L325.588 369.2193 L326.456 369.2195 L327.324 369.2196 L328.192 369.2199 L329.06 369.2201 L329.928 369.2203 L330.796 369.2205 L331.664 369.2213 L332.532 369.2218 L333.4 369.2226 L334.268 369.2233 L335.136 369.2239 L336.004 369.2247 L336.872 369.2256 L337.74 369.226 L338.608 369.2267 L339.476 369.2274 L340.344 369.2283 L341.212 369.2288 L342.08 369.2293 L342.948 369.2302 L343.816 369.4656 L344.684 369.4664 L345.552 369.4671 L346.42 369.4677 L347.288 369.4682 L348.156 369.4688 L349.024 369.4692 L349.892 369.4699 L350.76 369.4705 L351.628 369.4713 L352.496 369.4716 L353.364 369.4719 L354.232 369.4723 L355.1 369.4728 L355.968 369.4732 L356.836 369.4738 L357.704 369.4741 L358.572 369.4749 L359.44 369.475 L360.308 369.4755 L361.176 369.4758 L362.044 369.4761 L362.912 369.4765 L363.78 369.477 L364.648 369.4771 L365.516 369.4775 L366.384 369.4778 L367.252 369.4783 L368.12 369.4784 L368.988 369.4787 L369.856 369.479 L370.724 369.4792 L371.592 369.4794 L372.46 369.4796 L373.328 369.4799 L374.196 369.4801 L375.064 369.4804 L375.932 369.4806 L376.8 369.4808 L377.668 369.481 L378.536 369.4812 L379.404 369.4813 L380.272 369.4816 L381.14 369.4818 L382.008 369.482 L382.876 369.4821 L383.744 369.4823 L384.612 369.4825 L385.48 369.4826 L386.348 369.4828 L387.216 369.4829 L388.084 369.4831 L388.952 369.4832 L389.82 369.4834 L390.688 369.4835 L391.556 369.4836 L392.424 369.4837 L393.292 369.4838 L394.16 369.4839 L395.028 369.484 L395.896 369.4841 L396.764 369.4842 L397.632 369.4843 L398.5 369.4844 L399.368 369.4845 L400.236 369.4846 L401.104 369.4847 L401.972 369.4847 L402.84 369.4848 L403.708 369.4849 L404.576 369.485 L405.444 369.4851 L406.312 369.4851 L407.18 369.4852 L408.048 369.4853 L408.916 369.4854 L409.784 369.4854 L410.652 369.4855 L411.52 369.4856 L412.388 369.4856 L413.256 369.4857 L414.124 369.4857 L414.992 369.4858 L415.86 369.4858 L416.728 369.4859 L417.596 369.4859 L418.464 369.486 L419.332 369.486 L420.2 369.4861 L421.068 369.4861 L421.936 369.4861 L422.804 369.4862 L423.672 369.4862 L424.54 369.4863 L425.408 369.4863 L426.276 369.4863 L427.144 369.4864 L428.012 369.4864 L428.88 369.4865 L429.748 369.4865 L430.616 369.4865 L431.484 369.4865 L432.352 369.4866 L433.22 369.4866 L434.088 369.4866 L434.956 369.4867 L435.824 369.4867 L436.692 369.4867 L437.56 369.4868 L438.428 369.4868 L439.296 369.4868 L440.164 369.4868 L441.032 369.4868 L441.9 369.4869 L442.768 369.4869 L443.636 369.4869 L444.504 369.4869 L445.372 369.4869 L446.24 369.487 L447.108 369.487 L447.976 369.487 L448.844 369.487 L449.712 369.4871 L450.58 369.4871 L451.448 369.4871 L452.316 369.4871 L453.184 369.4871 L454.052 369.4871 L454.92 369.4872 L455.788 369.4872 L456.656 369.4872 L457.524 369.4872 L458.392 369.4872 L459.26 369.4872 L460.128 369.4872 L460.996 369.4872 L461.864 369.4872 L462.732 369.4872 L463.6 369.4872 L464.468 369.4872 L465.336 369.4873 L466.204 369.4873 L467.072 369.4873 L467.94 369.4873 L468.808 369.4873 L469.676 369.4873 L470.544 369.4873 L471.412 369.4873 L472.28 369.4873 L473.148 369.4873 L474.016 369.4873 L474.884 369.4874 L475.752 369.4874 L476.62 369.4874 L477.488 369.4874 L478.356 369.4874 L479.224 369.4874 L480.092 369.4874 L480.96 369.4874 L481.828 369.4874 L482.696 369.4874 L483.564 369.4874 L484.432 369.4874 L485.3 369.4874 L486.168 369.4874 L487.036 369.4874 L487.904 369.4874 L488.772 369.4874 L489.64 369.4874 L490.508 369.4874 L491.376 369.4874 L492.244 369.4874 L493.112 369.4875 L493.98 369.4875 L494.848 369.4875 L495.716 369.4875 L496.584 369.4875 L497.452 369.4875 L498.32 369.4875 L499.188 369.4875 L500.056 369.4875 L500.924 369.4875 L501.792 369.4875 L502.66 369.4875 L503.528 369.4875 L504.396 369.4875 L505.264 369.4875 L506.132 369.4875 L507 369.4875" style="fill:none; fill-rule:evenodd;"
    /></g
    ><g transform="translate(73.868,331.7321)" style="text-rendering:geometricPrecision; color-rendering:optimizeQuality; color-interpolation:linearRGB; stroke-linecap:butt; image-rendering:optimizeQuality;"
    ><path style="fill:none;" d="M-3 0 L0 3.99 L3 0 L0 -3.99 Z"
      /><path d="M-3 0 L0 3.99 L3 0 L0 -3.99 Z" style="fill:none;" transform="translate(17.36,32.9978)"
      /><path d="M-3 0 L0 3.99 L3 0 L0 -3.99 Z" style="fill:none;" transform="translate(34.72,36.3646)"
      /><path d="M-3 0 L0 3.99 L3 0 L0 -3.99 Z" style="fill:none;" transform="translate(52.08,37.3315)"
      /><path d="M-3 0 L0 3.99 L3 0 L0 -3.99 Z" style="fill:none;" transform="translate(69.44,37.3315)"
      /><path d="M-3 0 L0 3.99 L3 0 L0 -3.99 Z" style="fill:none;" transform="translate(86.8,37.3315)"
      /><path d="M-3 0 L0 3.99 L3 0 L0 -3.99 Z" style="fill:none;" transform="translate(104.16,37.3315)"
      /><path d="M-3 0 L0 3.99 L3 0 L0 -3.99 Z" style="fill:none;" transform="translate(121.52,37.3315)"
      /><path d="M-3 0 L0 3.99 L3 0 L0 -3.99 Z" style="fill:none;" transform="translate(138.88,37.3315)"
      /><path d="M-3 0 L0 3.99 L3 0 L0 -3.99 Z" style="fill:none;" transform="translate(156.24,37.3315)"
      /><path d="M-3 0 L0 3.99 L3 0 L0 -3.99 Z" style="fill:none;" transform="translate(173.6,37.3315)"
      /><path d="M-3 0 L0 3.99 L3 0 L0 -3.99 Z" style="fill:none;" transform="translate(190.96,37.3315)"
      /><path d="M-3 0 L0 3.99 L3 0 L0 -3.99 Z" style="fill:none;" transform="translate(208.32,37.4858)"
      /><path d="M-3 0 L0 3.99 L3 0 L0 -3.99 Z" style="fill:none;" transform="translate(225.68,37.4858)"
      /><path d="M-3 0 L0 3.99 L3 0 L0 -3.99 Z" style="fill:none;" transform="translate(243.04,37.4858)"
      /><path d="M-3 0 L0 3.99 L3 0 L0 -3.99 Z" style="fill:none;" transform="translate(260.4,37.4912)"
      /><path d="M-3 0 L0 3.99 L3 0 L0 -3.99 Z" style="fill:none;" transform="translate(277.76,37.7392)"
      /><path d="M-3 0 L0 3.99 L3 0 L0 -3.99 Z" style="fill:none;" transform="translate(295.12,37.7467)"
      /><path d="M-3 0 L0 3.99 L3 0 L0 -3.99 Z" style="fill:none;" transform="translate(312.48,37.7507)"
      /><path d="M-3 0 L0 3.99 L3 0 L0 -3.99 Z" style="fill:none;" transform="translate(329.84,37.7529)"
      /><path d="M-3 0 L0 3.99 L3 0 L0 -3.99 Z" style="fill:none;" transform="translate(347.2,37.754)"
      /><path d="M-3 0 L0 3.99 L3 0 L0 -3.99 Z" style="fill:none;" transform="translate(364.56,37.7547)"
      /><path d="M-3 0 L0 3.99 L3 0 L0 -3.99 Z" style="fill:none;" transform="translate(381.92,37.7551)"
      /><path d="M-3 0 L0 3.99 L3 0 L0 -3.99 Z" style="fill:none;" transform="translate(399.28,37.7553)"
      /><path d="M-3 0 L0 3.99 L3 0 L0 -3.99 Z" style="fill:none;" transform="translate(416.64,37.7554)"
    /></g
    ><g style="fill:white; text-rendering:optimizeSpeed; color-rendering:optimizeSpeed; image-rendering:optimizeSpeed; shape-rendering:crispEdges; stroke:white; color-interpolation:sRGB;"
    ><path style="stroke:none;" d="M497 91 L497 41.5 L423 41.5 L423 91 Z"
    /></g
    ><g transform="translate(460,49)" style="font-size:9px; text-rendering:geometricPrecision; color-rendering:optimizeQuality; image-rendering:optimizeQuality; font-family:'Helvetica Neue'; color-interpolation:linearRGB;"
    ><text x="0" xml:space="preserve" y="3.5" style="stroke:none;"
      >MCGSA</text
    ></g
    ><g style="stroke-linecap:butt; fill:lime; text-rendering:geometricPrecision; image-rendering:optimizeQuality; color-rendering:optimizeQuality; stroke-linejoin:round; stroke:lime; color-interpolation:linearRGB; stroke-width:3;"
    ><line y2="49" style="fill:none;" x1="427" x2="457" y1="49"
    /></g
    ><g transform="translate(460,60.5)" style="font-size:9px; text-rendering:geometricPrecision; color-rendering:optimizeQuality; image-rendering:optimizeQuality; font-family:'Helvetica Neue'; color-interpolation:linearRGB;"
    ><text x="0" xml:space="preserve" y="3.5" style="stroke:none;"
      >GSA</text
    ></g
    ><g style="stroke-linecap:butt; fill:blue; text-rendering:geometricPrecision; image-rendering:optimizeQuality; color-rendering:optimizeQuality; stroke-linejoin:bevel; stroke-dasharray:12,12; stroke:blue; color-interpolation:linearRGB; stroke-width:3; stroke-miterlimit:1;"
    ><line y2="60.5" style="fill:none;" x1="427" x2="457" y1="60.5"
    /></g
    ><g transform="translate(460,72)" style="font-size:9px; text-rendering:geometricPrecision; color-rendering:optimizeQuality; image-rendering:optimizeQuality; font-family:'Helvetica Neue'; color-interpolation:linearRGB;"
    ><text x="0" xml:space="preserve" y="3.5" style="stroke:none;"
      >CGSA</text
    ></g
    ><g style="stroke-linecap:butt; fill:red; text-rendering:geometricPrecision; image-rendering:optimizeQuality; color-rendering:optimizeQuality; stroke-linejoin:bevel; stroke-dasharray:10,6; stroke:red; color-interpolation:linearRGB; stroke-width:0.5; stroke-miterlimit:1;"
    ><line y2="72" style="fill:none;" x1="427" x2="457" y1="72"
    /></g
    ><g transform="translate(442,72)" style="stroke-linecap:butt; fill:red; text-rendering:geometricPrecision; color-rendering:optimizeQuality; image-rendering:optimizeQuality; color-interpolation:linearRGB; stroke:red;"
    ><circle r="3" style="fill:none;" cx="0" cy="0"
    /></g
    ><g transform="translate(460,83.5)" style="font-size:9px; text-rendering:geometricPrecision; color-rendering:optimizeQuality; image-rendering:optimizeQuality; font-family:'Helvetica Neue'; color-interpolation:linearRGB;"
    ><text x="0" xml:space="preserve" y="3.5" style="stroke:none;"
      >MGSA</text
    ></g
    ><g style="stroke-linecap:butt; text-rendering:geometricPrecision; image-rendering:optimizeQuality; color-rendering:optimizeQuality; stroke-linejoin:bevel; stroke-dasharray:10,6; color-interpolation:linearRGB; stroke-width:0.5; stroke-miterlimit:1;"
    ><line y2="83.5" style="fill:none;" x1="427" x2="457" y1="83.5"
    /></g
    ><g transform="translate(442,83.5)" style="text-rendering:geometricPrecision; color-rendering:optimizeQuality; color-interpolation:linearRGB; stroke-linecap:butt; image-rendering:optimizeQuality;"
    ><path style="fill:none;" d="M-3 0 L0 3.99 L3 0 L0 -3.99 Z"
      /><path transform="translate(-442,-83.5)" style="fill:none; stroke-width:0.5; fill-rule:evenodd; stroke:rgb(38,38,38);" d="M423 91 L423 41.5 L497 41.5 L497 91 Z"
    /></g
  ></g
></svg
>
