<?xml version="1.0"?>
<!DOCTYPE svg PUBLIC '-//W3C//DTD SVG 1.0//EN'
          'http://www.w3.org/TR/2001/REC-SVG-20010904/DTD/svg10.dtd'>
<svg xmlns:xlink="http://www.w3.org/1999/xlink" style="fill-opacity:1; color-rendering:auto; color-interpolation:auto; text-rendering:auto; stroke:black; stroke-linecap:square; stroke-miterlimit:10; shape-rendering:auto; stroke-opacity:1; fill:black; stroke-dasharray:none; font-weight:normal; stroke-width:1; font-family:'Dialog'; font-style:normal; stroke-linejoin:miter; font-size:12px; stroke-dashoffset:0; image-rendering:auto;" width="560" height="420" xmlns="http://www.w3.org/2000/svg"
><!--Generated by the Batik Graphics2D SVG Generator--><defs id="genericDefs"
  /><g
  ><defs id="defs1"
    ><clipPath clipPathUnits="userSpaceOnUse" id="clipPath1"
      ><path d="M0 0 L560 0 L560 420 L0 420 L0 0 Z"
      /></clipPath
      ><font horiz-adv-x="50.0" id="font1"
      ><font-face ascent="95.200005" descent="21.3" units-per-em="100" style="font-style:normal; font-family:Helvetica Neue; font-weight:normal;"
        /><missing-glyph horiz-adv-x="50.0" d="M40.9 66.6 L10.2 66.6 L10.2 4.7 L40.9 4.7 ZM46 71.2 L46 0.1 L5.1 0.1 L5.1 71.2 Z"
        /><glyph unicode="0" horiz-adv-x="55.6" d="M13.2 34.9 Q13.2 37.5 13.25 40.65 Q13.3 43.8 13.75 46.95 Q14.2 50.1 15.05 53.1 Q15.9 56.1 17.55 58.35 Q19.2 60.6 21.7 62 Q24.2 63.4 27.8 63.4 Q31.4 63.4 33.9 62 Q36.4 60.6 38.05 58.35 Q39.7 56.1 40.55 53.1 Q41.4 50.1 41.85 46.95 Q42.3 43.8 42.35 40.65 Q42.4 37.5 42.4 34.9 Q42.4 30.9 42.15 25.95 Q41.9 21 40.55 16.65 Q39.2 12.3 36.2 9.3 Q33.2 6.3 27.8 6.3 Q22.4 6.3 19.4 9.3 Q16.4 12.3 15.05 16.65 Q13.7 21 13.45 25.95 Q13.2 30.9 13.2 34.9 ZM4.2 34.8 Q4.2 30.9 4.4 26.7 Q4.6 22.5 5.4 18.5 Q6.2 14.5 7.7 10.95 Q9.2 7.4 11.8 4.7 Q14.4 2 18.35 0.45 Q22.3 -1.1 27.8 -1.1 Q33.4 -1.1 37.3 0.45 Q41.2 2 43.8 4.7 Q46.4 7.4 47.9 10.95 Q49.4 14.5 50.2 18.5 Q51 22.5 51.2 26.7 Q51.4 30.9 51.4 34.8 Q51.4 38.7 51.2 42.9 Q51 47.1 50.2 51.1 Q49.4 55.1 47.9 58.7 Q46.4 62.3 43.8 65 Q41.2 67.7 37.25 69.3 Q33.3 70.9 27.8 70.9 Q22.3 70.9 18.35 69.3 Q14.4 67.7 11.8 65 Q9.2 62.3 7.7 58.7 Q6.2 55.1 5.4 51.1 Q4.6 47.1 4.4 42.9 Q4.2 38.7 4.2 34.8 Z"
        /><glyph unicode="5" horiz-adv-x="55.6" d="M47 62.2 L47 69.7 L12 69.7 L5.4 32.9 L12.7 32.5 Q15.2 35.5 18.45 37.35 Q21.7 39.2 25.9 39.2 Q29.5 39.2 32.45 38 Q35.4 36.8 37.5 34.65 Q39.6 32.5 40.75 29.55 Q41.9 26.6 41.9 23.1 Q41.9 18.9 40.7 15.75 Q39.5 12.6 37.45 10.5 Q35.4 8.4 32.65 7.35 Q29.9 6.3 26.9 6.3 Q23.7 6.3 21.05 7.25 Q18.4 8.2 16.45 9.95 Q14.5 11.7 13.35 14.05 Q12.2 16.4 12 19.1 L3.5 19.1 Q3.6 14.3 5.4 10.5 Q7.2 6.7 10.3 4.15 Q13.4 1.6 17.45 0.25 Q21.5 -1.1 26.1 -1.1 Q32.3 -1.1 36.95 0.85 Q41.6 2.8 44.7 6.1 Q47.8 9.4 49.35 13.65 Q50.9 17.9 50.9 22.4 Q50.9 28.5 49.1 33.05 Q47.3 37.6 44.2 40.65 Q41.1 43.7 36.9 45.2 Q32.7 46.7 28 46.7 Q24.4 46.7 20.75 45.45 Q17.1 44.2 14.8 41.6 L14.6 41.8 L18.4 62.2 Z"
        /><glyph unicode="1" horiz-adv-x="55.6" d="M35.6 0 L35.6 70.9 L29.1 70.9 Q28.4 66.9 26.5 64.3 Q24.6 61.7 21.85 60.2 Q19.1 58.7 15.7 58.15 Q12.3 57.6 8.7 57.6 L8.7 50.8 L27.1 50.8 L27.1 0 Z"
        /><glyph unicode="2" horiz-adv-x="55.6" d="M4.4 45.8 L12.9 45.8 Q12.8 49 13.55 52.15 Q14.3 55.3 16 57.8 Q17.7 60.3 20.35 61.85 Q23 63.4 26.7 63.4 Q29.5 63.4 32 62.5 Q34.5 61.6 36.35 59.9 Q38.2 58.2 39.3 55.85 Q40.4 53.5 40.4 50.6 Q40.4 46.9 39.25 44.1 Q38.1 41.3 35.85 38.9 Q33.6 36.5 30.2 34.15 Q26.8 31.8 22.3 29 Q18.6 26.8 15.2 24.3 Q11.8 21.8 9.1 18.5 Q6.4 15.2 4.65 10.75 Q2.9 6.3 2.4 0 L48.7 0 L48.7 7.5 L12.3 7.5 Q12.9 10.8 14.85 13.35 Q16.8 15.9 19.55 18.1 Q22.3 20.3 25.6 22.25 Q28.9 24.2 32.2 26.2 Q35.5 28.3 38.6 30.6 Q41.7 32.9 44.1 35.75 Q46.5 38.6 47.95 42.2 Q49.4 45.8 49.4 50.5 Q49.4 55.5 47.65 59.3 Q45.9 63.1 42.9 65.65 Q39.9 68.2 35.85 69.55 Q31.8 70.9 27.2 70.9 Q21.6 70.9 17.2 69 Q12.8 67.1 9.85 63.75 Q6.9 60.4 5.5 55.8 Q4.1 51.2 4.4 45.8 Z"
        /><glyph unicode="3" horiz-adv-x="55.6" d="M21.8 40.5 L21.8 33.3 Q24.2 33.6 26.9 33.6 Q30.1 33.6 32.85 32.75 Q35.6 31.9 37.6 30.15 Q39.6 28.4 40.8 25.85 Q42 23.3 42 20 Q42 16.8 40.75 14.25 Q39.5 11.7 37.4 9.95 Q35.3 8.2 32.5 7.25 Q29.7 6.3 26.6 6.3 Q19.3 6.3 15.5 10.65 Q11.7 15 11.5 21.9 L3 21.9 Q2.9 16.4 4.55 12.1 Q6.2 7.8 9.3 4.85 Q12.4 1.9 16.8 0.4 Q21.2 -1.1 26.6 -1.1 Q31.6 -1.1 36.05 0.25 Q40.5 1.6 43.8 4.3 Q47.1 7 49.05 11.05 Q51 15.1 51 20.4 Q51 26.8 47.85 31.5 Q44.7 36.2 38.2 37.6 L38.2 37.8 Q42.4 39.7 45.2 43.4 Q48 47.1 48 51.9 Q48 56.8 46.35 60.4 Q44.7 64 41.8 66.3 Q38.9 68.6 34.95 69.75 Q31 70.9 26.4 70.9 Q21.1 70.9 17.05 69.2 Q13 67.5 10.3 64.5 Q7.6 61.5 6.15 57.3 Q4.7 53.1 4.5 48 L13 48 Q13 51.1 13.8 53.9 Q14.6 56.7 16.25 58.8 Q17.9 60.9 20.45 62.15 Q23 63.4 26.4 63.4 Q31.8 63.4 35.4 60.55 Q39 57.7 39 52 Q39 49.2 37.9 47 Q36.8 44.8 34.95 43.35 Q33.1 41.9 30.65 41.15 Q28.2 40.4 25.5 40.4 L23.7 40.4 Q23.2 40.4 22.7 40.4 Q22.3 40.4 21.8 40.5 Z"
        /><glyph unicode="4" horiz-adv-x="55.6" d="M33.9 24.1 L10.1 24.1 L33.7 58.8 L33.9 58.8 ZM41.9 24.1 L41.9 70.9 L35.1 70.9 L2.8 24.8 L2.8 16.6 L33.9 16.6 L33.9 0 L41.9 0 L41.9 16.6 L51.5 16.6 L51.5 24.1 Z"
        /><glyph unicode="s" horiz-adv-x="50.0" d="M11.6 16.3 L3.1 16.3 Q3.3 11.5 5.1 8.15 Q6.9 4.8 9.9 2.75 Q12.9 0.7 16.8 -0.2 Q20.7 -1.1 25 -1.1 Q28.9 -1.1 32.85 -0.35 Q36.8 0.4 39.95 2.3 Q43.1 4.2 45.05 7.3 Q47 10.4 47 15.1 Q47 18.8 45.55 21.3 Q44.1 23.8 41.75 25.45 Q39.4 27.1 36.35 28.1 Q33.3 29.1 30.1 29.8 Q27.1 30.5 24.1 31.15 Q21.1 31.8 18.7 32.75 Q16.3 33.7 14.75 35.15 Q13.2 36.6 13.2 38.8 Q13.2 40.8 14.2 42.05 Q15.2 43.3 16.8 44.05 Q18.4 44.8 20.35 45.1 Q22.3 45.4 24.2 45.4 Q26.3 45.4 28.35 44.95 Q30.4 44.5 32.1 43.5 Q33.8 42.5 34.9 40.85 Q36 39.2 36.2 36.7 L44.7 36.7 Q44.4 41.4 42.7 44.55 Q41 47.7 38.15 49.55 Q35.3 51.4 31.6 52.15 Q27.9 52.9 23.5 52.9 Q20.1 52.9 16.65 52.05 Q13.2 51.2 10.45 49.45 Q7.7 47.7 5.95 44.9 Q4.2 42.1 4.2 38.2 Q4.2 33.2 6.7 30.4 Q9.2 27.6 12.95 26.05 Q16.7 24.5 21.1 23.65 Q25.5 22.8 29.25 21.75 Q33 20.7 35.5 19 Q38 17.3 38 14 Q38 11.6 36.8 10.05 Q35.6 8.5 33.75 7.7 Q31.9 6.9 29.7 6.6 Q27.5 6.3 25.5 6.3 Q22.9 6.3 20.45 6.8 Q18 7.3 16.05 8.45 Q14.1 9.6 12.9 11.55 Q11.7 13.5 11.6 16.3 Z"
        /><glyph unicode="n" horiz-adv-x="55.6" d="M6.4 51.7 L6.4 0 L14.9 0 L14.9 29.2 Q14.9 32.7 15.85 35.65 Q16.8 38.6 18.7 40.8 Q20.6 43 23.45 44.2 Q26.3 45.4 30.2 45.4 Q35.1 45.4 37.9 42.6 Q40.7 39.8 40.7 35 L40.7 0 L49.2 0 L49.2 34 Q49.2 38.2 48.35 41.65 Q47.5 45.1 45.4 47.6 Q43.3 50.1 39.9 51.5 Q36.5 52.9 31.4 52.9 Q19.9 52.9 14.6 43.5 L14.4 43.5 L14.4 51.7 Z"
        /><glyph unicode="o" horiz-adv-x="57.4" d="M12.6 25.8 Q12.6 30.5 13.85 34.15 Q15.1 37.8 17.3 40.3 Q19.5 42.8 22.45 44.1 Q25.4 45.4 28.7 45.4 Q32 45.4 34.95 44.1 Q37.9 42.8 40.1 40.3 Q42.3 37.8 43.55 34.15 Q44.8 30.5 44.8 25.8 Q44.8 21.1 43.55 17.45 Q42.3 13.8 40.1 11.35 Q37.9 8.9 34.95 7.6 Q32 6.3 28.7 6.3 Q25.4 6.3 22.45 7.6 Q19.5 8.9 17.3 11.35 Q15.1 13.8 13.85 17.45 Q12.6 21.1 12.6 25.8 ZM3.6 25.8 Q3.6 20.1 5.2 15.2 Q6.8 10.3 10 6.65 Q13.2 3 17.9 0.95 Q22.6 -1.1 28.7 -1.1 Q34.9 -1.1 39.55 0.95 Q44.2 3 47.4 6.65 Q50.6 10.3 52.2 15.2 Q53.8 20.1 53.8 25.8 Q53.8 31.5 52.2 36.45 Q50.6 41.4 47.4 45.05 Q44.2 48.7 39.55 50.8 Q34.9 52.9 28.7 52.9 Q22.6 52.9 17.9 50.8 Q13.2 48.7 10 45.05 Q6.8 41.4 5.2 36.45 Q3.6 31.5 3.6 25.8 Z"
        /><glyph unicode="i" horiz-adv-x="22.2" d="M15.4 61 L15.4 71.4 L6.9 71.4 L6.9 61 ZM6.9 51.7 L6.9 0 L15.4 0 L15.4 51.7 Z"
        /><glyph unicode="a" horiz-adv-x="53.7" d="M52.2 0.2 Q50 -1.1 46.1 -1.1 Q42.8 -1.1 40.85 0.75 Q38.9 2.6 38.9 6.8 Q35.4 2.6 30.75 0.75 Q26.1 -1.1 20.7 -1.1 Q17.2 -1.1 14.05 -0.3 Q10.9 0.5 8.6 2.2 Q6.3 3.9 4.95 6.65 Q3.6 9.4 3.6 13.3 Q3.6 17.7 5.1 20.5 Q6.6 23.3 9.05 25.05 Q11.5 26.8 14.65 27.7 Q17.8 28.6 21.1 29.2 Q24.6 29.9 27.75 30.25 Q30.9 30.6 33.3 31.25 Q35.7 31.9 37.1 33.15 Q38.5 34.4 38.5 36.8 Q38.5 39.6 37.45 41.3 Q36.4 43 34.75 43.9 Q33.1 44.8 31.05 45.1 Q29 45.4 27 45.4 Q21.6 45.4 18 43.35 Q14.4 41.3 14.1 35.6 L5.6 35.6 Q5.8 40.4 7.6 43.7 Q9.4 47 12.4 49.05 Q15.4 51.1 19.25 52 Q23.1 52.9 27.5 52.9 Q31 52.9 34.45 52.4 Q37.9 51.9 40.7 50.35 Q43.5 48.8 45.2 46 Q46.9 43.2 46.9 38.7 L46.9 12.1 Q46.9 9.1 47.25 7.7 Q47.6 6.3 49.6 6.3 Q50.7 6.3 52.2 6.8 ZM38.4 26.7 Q36.8 25.5 34.2 24.95 Q31.6 24.4 28.75 24.05 Q25.9 23.7 23 23.25 Q20.1 22.8 17.8 21.8 Q15.5 20.8 14.05 18.95 Q12.6 17.1 12.6 13.9 Q12.6 11.8 13.45 10.35 Q14.3 8.9 15.65 8 Q17 7.1 18.8 6.7 Q20.6 6.3 22.6 6.3 Q26.8 6.3 29.8 7.45 Q32.8 8.6 34.7 10.35 Q36.6 12.1 37.5 14.15 Q38.4 16.2 38.4 18 Z"
        /><glyph unicode="r" horiz-adv-x="33.3" d="M6.1 51.7 L6.1 0 L14.6 0 L14.6 23 Q14.6 28 15.6 31.85 Q16.6 35.7 18.8 38.4 Q21 41.1 24.6 42.5 Q28.2 43.9 33.3 43.9 L33.3 52.9 Q26.4 53.1 21.9 50.1 Q17.4 47.1 14.3 40.8 L14.1 40.8 L14.1 51.7 Z"
        /><glyph unicode="e" horiz-adv-x="53.7" d="M42.3 30.8 L12.6 30.8 Q12.8 33.8 13.9 36.45 Q15 39.1 16.9 41.1 Q18.8 43.1 21.45 44.25 Q24.1 45.4 27.4 45.4 Q30.6 45.4 33.25 44.25 Q35.9 43.1 37.85 41.15 Q39.8 39.2 40.95 36.5 Q42.1 33.8 42.3 30.8 ZM50.5 16.4 L42.1 16.4 Q41 11.3 37.55 8.8 Q34.1 6.3 28.7 6.3 Q24.5 6.3 21.4 7.7 Q18.3 9.1 16.3 11.45 Q14.3 13.8 13.4 16.85 Q12.5 19.9 12.6 23.3 L51.3 23.3 Q51.5 28 50.45 33.2 Q49.4 38.4 46.65 42.8 Q43.9 47.2 39.35 50.05 Q34.8 52.9 27.9 52.9 Q22.6 52.9 18.15 50.9 Q13.7 48.9 10.45 45.3 Q7.2 41.7 5.4 36.8 Q3.6 31.9 3.6 26 Q3.8 20.1 5.35 15.1 Q6.9 10.1 10 6.5 Q13.1 2.9 17.65 0.9 Q22.2 -1.1 28.4 -1.1 Q37.2 -1.1 43 3.3 Q48.8 7.7 50.5 16.4 Z"
        /><glyph unicode="t" horiz-adv-x="31.5" d="M18.2 51.7 L18.2 67.2 L9.7 67.2 L9.7 51.7 L0.9 51.7 L0.9 44.2 L9.7 44.2 L9.7 11.3 Q9.7 7.7 10.4 5.5 Q11.1 3.3 12.55 2.1 Q14 0.9 16.35 0.45 Q18.7 0 22 0 L28.5 0 L28.5 7.5 L24.6 7.5 Q22.6 7.5 21.35 7.65 Q20.1 7.8 19.4 8.3 Q18.7 8.8 18.45 9.7 Q18.2 10.6 18.2 12.1 L18.2 44.2 L28.5 44.2 L28.5 51.7 Z"
        /><glyph unicode="I" horiz-adv-x="25.9" d="M8.2 71.4 L8.2 0 L17.7 0 L17.7 71.4 Z"
        /><glyph unicode=" " horiz-adv-x="27.8" d=""
        /><glyph unicode="N" horiz-adv-x="72.2" d="M7.7 71.4 L7.7 0 L16.7 0 L16.7 57.3 L16.9 57.3 L54.2 0 L64.6 0 L64.6 71.4 L55.6 71.4 L55.6 13.5 L55.4 13.5 L17.8 71.4 Z"
        /><glyph unicode="-" horiz-adv-x="38.9" d="M5 31.8 L5 23.8 L33.9 23.8 L33.9 31.8 Z"
        /><glyph unicode="9" horiz-adv-x="55.6" d="M13.4 17.1 L4.9 17.1 Q5.7 7.9 11.6 3.4 Q17.5 -1.1 26.4 -1.1 Q39.3 -1.1 45.15 8.75 Q51 18.6 51 37 Q51 47.1 49.05 53.65 Q47.1 60.2 43.8 64 Q40.5 67.8 36.1 69.35 Q31.7 70.9 26.7 70.9 Q21.6 70.9 17.3 69.2 Q13 67.5 9.9 64.45 Q6.8 61.4 5.1 57.15 Q3.4 52.9 3.4 47.8 Q3.4 42.6 4.85 38.2 Q6.3 33.8 9.15 30.7 Q12 27.6 16.2 25.85 Q20.4 24.1 25.8 24.1 Q31 24.1 35.4 26.75 Q39.8 29.4 42.2 33.9 L42.4 33.7 Q42 19.8 38.1 13.05 Q34.2 6.3 26.4 6.3 Q21.3 6.3 17.6 9.1 Q13.9 11.9 13.4 17.1 ZM40.9 47.2 Q40.9 44.1 39.9 41.25 Q38.9 38.4 37 36.25 Q35.1 34.1 32.4 32.85 Q29.7 31.6 26.4 31.6 Q23.3 31.6 20.75 32.85 Q18.2 34.1 16.35 36.2 Q14.5 38.3 13.45 41 Q12.4 43.7 12.4 46.6 Q12.4 49.9 13.15 52.9 Q13.9 55.9 15.55 58.25 Q17.2 60.6 19.85 62 Q22.5 63.4 26.3 63.4 Q29.9 63.4 32.6 62.1 Q35.3 60.8 37.15 58.55 Q39 56.3 39.95 53.4 Q40.9 50.5 40.9 47.2 Z"
        /><glyph unicode="8" horiz-adv-x="55.6" d="M15.5 52.5 Q15.5 55.2 16.5 57.2 Q17.5 59.2 19.15 60.6 Q20.8 62 23.1 62.7 Q25.4 63.4 27.9 63.4 Q33.1 63.4 36.45 60.65 Q39.8 57.9 39.8 52.5 Q39.8 47.1 36.5 44.1 Q33.2 41.1 28.1 41.1 Q25.5 41.1 23.2 41.8 Q20.9 42.5 19.2 43.9 Q17.5 45.3 16.5 47.45 Q15.5 49.6 15.5 52.5 ZM6.5 52.8 Q6.5 48 9.2 43.95 Q11.9 39.9 16.4 38.1 Q10.4 36 7.2 31.35 Q4 26.7 4 20.4 Q4 15 5.85 10.95 Q7.7 6.9 10.95 4.2 Q14.2 1.5 18.6 0.2 Q23 -1.1 28.1 -1.1 Q33 -1.1 37.3 0.3 Q41.6 1.7 44.75 4.45 Q47.9 7.2 49.75 11.2 Q51.6 15.2 51.6 20.4 Q51.6 27 48.5 31.55 Q45.4 36.1 39 38.1 Q43.5 40.1 46.15 44.05 Q48.8 48 48.8 52.8 Q48.8 56.2 47.6 59.45 Q46.4 62.7 43.85 65.25 Q41.3 67.8 37.2 69.35 Q33.1 70.9 27.3 70.9 Q23.2 70.9 19.45 69.7 Q15.7 68.5 12.8 66.2 Q9.9 63.9 8.2 60.55 Q6.5 57.2 6.5 52.8 ZM13 20 Q13 23.1 14.15 25.6 Q15.3 28.1 17.35 29.9 Q19.4 31.7 22.15 32.65 Q24.9 33.6 28 33.6 Q31 33.6 33.65 32.55 Q36.3 31.5 38.3 29.7 Q40.3 27.9 41.45 25.45 Q42.6 23 42.6 20.1 Q42.6 17.1 41.55 14.6 Q40.5 12.1 38.55 10.25 Q36.6 8.4 33.95 7.35 Q31.3 6.3 28.1 6.3 Q21.5 6.3 17.25 9.95 Q13 13.6 13 20 Z"
        /><glyph unicode="7" horiz-adv-x="55.6" d="M50.9 62.4 L50.9 69.7 L5 69.7 L5 61.7 L42.2 61.7 Q36.6 55.8 31.75 48.8 Q26.9 41.8 23.2 33.95 Q19.5 26.1 17.15 17.55 Q14.8 9 14.2 0 L23.7 0 Q24.2 8.3 26.5 17.1 Q28.8 25.9 32.45 34.2 Q36.1 42.5 40.8 49.8 Q45.5 57.1 50.9 62.4 Z"
        /><glyph unicode="6" horiz-adv-x="55.6" d="M41.4 52.8 L49.9 52.8 Q49.1 61.6 43.9 66.25 Q38.7 70.9 29.9 70.9 Q22.3 70.9 17.3 67.7 Q12.3 64.5 9.3 59.2 Q6.3 53.9 5.05 47.05 Q3.8 40.2 3.8 32.9 Q3.8 27.3 4.65 21.3 Q5.5 15.3 8.1 10.3 Q10.7 5.3 15.5 2.1 Q20.3 -1.1 28.2 -1.1 Q34.9 -1.1 39.45 1.15 Q44 3.4 46.75 6.85 Q49.5 10.3 50.7 14.5 Q51.9 18.7 51.9 22.6 Q51.9 27.5 50.4 31.7 Q48.9 35.9 46.15 39 Q43.4 42.1 39.35 43.85 Q35.3 45.6 30.2 45.6 Q24.4 45.6 19.95 43.4 Q15.5 41.2 12.5 36.3 L12.3 36.5 Q12.4 40.6 13.1 45.3 Q13.8 50 15.65 54.05 Q17.5 58.1 20.8 60.75 Q24.1 63.4 29.5 63.4 Q34.6 63.4 37.7 60.5 Q40.8 57.6 41.4 52.8 ZM28.6 38.1 Q32.2 38.1 34.9 36.8 Q37.6 35.5 39.4 33.35 Q41.2 31.2 42.05 28.25 Q42.9 25.3 42.9 22 Q42.9 18.9 41.95 16.05 Q41 13.2 39.2 11 Q37.4 8.8 34.75 7.55 Q32.1 6.3 28.6 6.3 Q25.1 6.3 22.35 7.55 Q19.6 8.8 17.75 10.9 Q15.9 13 14.9 15.9 Q13.9 18.8 13.9 22.1 Q13.9 25.4 14.85 28.35 Q15.8 31.3 17.7 33.45 Q19.6 35.6 22.3 36.85 Q25 38.1 28.6 38.1 Z"
        /><glyph unicode=")" horiz-adv-x="25.9" d="M-0.9 -19.7 L5.5 -19.7 Q13.3 -9.4 17.25 2.55 Q21.2 14.5 21.2 26.3 Q21.2 32.9 20.1 38.9 Q19 44.9 16.95 50.65 Q14.9 56.4 12 61.95 Q9.1 67.5 5.5 73.1 L-0.9 73.1 Q6.1 61.6 9.15 50.25 Q12.2 38.9 12.2 26.3 Q12.2 14.1 9.2 2.85 Q6.2 -8.4 -0.9 -19.7 Z"
        /><glyph unicode="x" horiz-adv-x="51.8" d="M20.3 27.2 L0.9 0 L11.2 0 L25.6 21.4 L40 0 L50.9 0 L30.9 27.9 L48.7 51.7 L38.5 51.7 L25.6 33.6 L13.2 51.7 L2.3 51.7 Z"
        /><glyph unicode="(" horiz-adv-x="25.9" d="M20.4 -19.7 L26.9 -19.7 Q19.8 -8.2 16.75 3.1 Q13.7 14.4 13.7 27 Q13.7 39.3 16.7 50.5 Q19.7 61.7 26.9 73.1 L20.4 73.1 Q12.6 62.8 8.65 50.8 Q4.7 38.8 4.7 27 Q4.7 20.4 5.8 14.4 Q6.9 8.4 8.95 2.7 Q11 -3 13.9 -8.55 Q16.8 -14.1 20.4 -19.7 Z"
        /><glyph unicode="f" horiz-adv-x="29.6" d="M9.9 44.2 L9.9 0 L18.4 0 L18.4 44.2 L28.4 44.2 L28.4 51.7 L18.4 51.7 L18.4 58.9 Q18.4 62.3 20.1 63.5 Q21.8 64.7 24.9 64.7 Q26 64.7 27.3 64.55 Q28.6 64.4 29.7 64 L29.7 71.4 Q28.5 71.8 26.95 72 Q25.4 72.2 24.2 72.2 Q17.2 72.2 13.55 68.95 Q9.9 65.7 9.9 59.4 L9.9 51.7 L1.2 51.7 L1.2 44.2 Z"
        /><glyph unicode="M" horiz-adv-x="87.1" d="M8 71.4 L8 0 L17 0 L17 59.4 L17.2 59.4 L39.5 0 L47.6 0 L69.9 59.4 L70.1 59.4 L70.1 0 L79.1 0 L79.1 71.4 L66.1 71.4 L43.5 11.4 L21 71.4 Z"
        /><glyph unicode="A" horiz-adv-x="64.8" d="M20.1 29.5 L32.2 62.8 L32.4 62.8 L44.3 29.5 ZM27.2 71.4 L-0.6 0 L9.1 0 L17.1 21.5 L47.3 21.5 L55.1 0 L65.6 0 L37.7 71.4 Z"
        /><glyph unicode="S" horiz-adv-x="64.8" d="M49.1 50.5 L58.1 50.5 Q57.9 56.4 55.85 60.65 Q53.8 64.9 50.25 67.7 Q46.7 70.5 42 71.8 Q37.3 73.1 31.8 73.1 Q26.9 73.1 22.25 71.85 Q17.6 70.6 13.95 68.05 Q10.3 65.5 8.1 61.55 Q5.9 57.6 5.9 52.2 Q5.9 47.3 7.85 44.05 Q9.8 40.8 13.05 38.75 Q16.3 36.7 20.4 35.45 Q24.5 34.2 28.75 33.25 Q33 32.3 37.1 31.4 Q41.2 30.5 44.45 29.05 Q47.7 27.6 49.65 25.3 Q51.6 23 51.6 19.3 Q51.6 15.4 50 12.9 Q48.4 10.4 45.8 8.95 Q43.2 7.5 39.95 6.9 Q36.7 6.3 33.5 6.3 Q29.5 6.3 25.7 7.3 Q21.9 8.3 19.05 10.4 Q16.2 12.5 14.45 15.75 Q12.7 19 12.7 23.5 L3.7 23.5 Q3.7 17 6.05 12.25 Q8.4 7.5 12.45 4.45 Q16.5 1.4 21.85 -0.1 Q27.2 -1.6 33.2 -1.6 Q38.1 -1.6 43.05 -0.45 Q48 0.7 52 3.25 Q56 5.8 58.55 9.85 Q61.1 13.9 61.1 19.6 Q61.1 24.9 59.15 28.4 Q57.2 31.9 53.95 34.2 Q50.7 36.5 46.6 37.85 Q42.5 39.2 38.25 40.2 Q34 41.2 29.9 42.05 Q25.8 42.9 22.55 44.2 Q19.3 45.5 17.35 47.55 Q15.4 49.6 15.4 52.9 Q15.4 56.4 16.75 58.75 Q18.1 61.1 20.35 62.5 Q22.6 63.9 25.5 64.5 Q28.4 65.1 31.4 65.1 Q38.8 65.1 43.55 61.65 Q48.3 58.2 49.1 50.5 Z"
        /><glyph unicode="G" horiz-adv-x="75.9" d="M61.2 8.9 L63.7 0 L69.7 0 L69.7 37.6 L38.4 37.6 L38.4 29.6 L61.2 29.6 Q61.4 24.7 59.9 20.45 Q58.4 16.2 55.45 13.05 Q52.5 9.9 48.2 8.1 Q43.9 6.3 38.3 6.3 Q32.3 6.3 27.75 8.65 Q23.2 11 20.1 14.95 Q17 18.9 15.4 24.05 Q13.8 29.2 13.8 34.8 Q13.8 40.5 15.2 45.95 Q16.6 51.4 19.55 55.65 Q22.5 59.9 27.15 62.5 Q31.8 65.1 38.3 65.1 Q42.3 65.1 45.85 64.15 Q49.4 63.2 52.2 61.3 Q55 59.4 56.9 56.45 Q58.8 53.5 59.5 49.4 L69 49.4 Q68 55.7 65.25 60.15 Q62.5 64.6 58.45 67.5 Q54.4 70.4 49.25 71.75 Q44.1 73.1 38.3 73.1 Q29.8 73.1 23.45 69.95 Q17.1 66.8 12.85 61.5 Q8.6 56.2 6.45 49.15 Q4.3 42.1 4.3 34.3 Q4.3 27.3 6.6 20.8 Q8.9 14.3 13.3 9.3 Q17.7 4.3 24 1.35 Q30.3 -1.6 38.3 -1.6 Q44.6 -1.6 50.8 0.85 Q57 3.3 61.2 8.9 Z"
        /><glyph unicode="C" horiz-adv-x="72.2" d="M58 49.9 L67.5 49.9 Q66.7 55.6 64.1 59.95 Q61.5 64.3 57.6 67.2 Q53.7 70.1 48.7 71.6 Q43.7 73.1 38.1 73.1 Q29.9 73.1 23.55 70.15 Q17.2 67.2 12.95 62.1 Q8.7 57 6.5 50.15 Q4.3 43.3 4.3 35.5 Q4.3 27.7 6.35 20.9 Q8.4 14.1 12.5 9.1 Q16.6 4.1 22.8 1.25 Q29 -1.6 37.3 -1.6 Q51 -1.6 58.9 5.9 Q66.8 13.4 68.2 26.9 L58.7 26.9 Q58.4 22.5 56.9 18.7 Q55.4 14.9 52.75 12.15 Q50.1 9.4 46.45 7.85 Q42.8 6.3 38.1 6.3 Q31.7 6.3 27.1 8.7 Q22.5 11.1 19.55 15.15 Q16.6 19.2 15.2 24.65 Q13.8 30.1 13.8 36.2 Q13.8 41.8 15.2 47 Q16.6 52.2 19.55 56.25 Q22.5 60.3 27.05 62.7 Q31.6 65.1 38 65.1 Q45.5 65.1 50.95 61.3 Q56.4 57.5 58 49.9 Z"
      /></font
      ><font horiz-adv-x="50.0" id="font2"
      ><font-face ascent="97.5" descent="21.699999" units-per-em="100" style="font-style:normal; font-family:Helvetica Neue; font-weight:bold;"
        /><missing-glyph horiz-adv-x="50.0" d="M39.1 60.7 L11.1 60.7 L11.1 9.5 L39.1 9.5 ZM48.2 69.8 L48.2 0.3 L1.7 0.3 L1.7 69.8 Z"
        /><glyph unicode="8" horiz-adv-x="55.6" d="M17.2 51 Q17.2 53.4 18.05 55.2 Q18.9 57 20.4 58.2 Q21.9 59.4 23.85 60.05 Q25.8 60.7 27.9 60.7 Q31.2 60.7 33.25 59.7 Q35.3 58.7 36.45 57.2 Q37.6 55.7 38 54.05 Q38.4 52.4 38.4 51 Q38.4 46.5 35.4 44.15 Q32.4 41.8 27.9 41.8 Q23.6 41.8 20.4 44.15 Q17.2 46.5 17.2 51 ZM4.3 52.3 Q4.3 47.1 6.9 43.2 Q9.5 39.3 14.6 37.9 L14.6 37.7 Q8.3 36.2 4.85 31.7 Q1.4 27.2 1.4 20.5 Q1.4 14.8 3.65 10.7 Q5.9 6.6 9.65 3.9 Q13.4 1.2 18.15 -0.05 Q22.9 -1.3 28 -1.3 Q32.9 -1.3 37.6 0.05 Q42.3 1.4 46 4.1 Q49.7 6.8 51.95 10.9 Q54.2 15 54.2 20.6 Q54.2 27.2 50.8 31.75 Q47.4 36.3 41.1 37.7 L41.1 37.9 Q46.2 39.6 48.75 43.5 Q51.3 47.4 51.3 52.6 Q51.3 55.2 50.1 58.45 Q48.9 61.7 46.15 64.55 Q43.4 67.4 38.9 69.4 Q34.4 71.4 27.9 71.4 Q23.6 71.4 19.4 70.2 Q15.2 69 11.85 66.6 Q8.5 64.2 6.4 60.6 Q4.3 57 4.3 52.3 ZM15.6 21.2 Q15.6 26.6 19.2 29.45 Q22.8 32.3 28 32.3 Q30.5 32.3 32.65 31.5 Q34.8 30.7 36.45 29.2 Q38.1 27.7 39.05 25.65 Q40 23.6 40 21.1 Q40 18.5 39.1 16.3 Q38.2 14.1 36.55 12.55 Q34.9 11 32.75 10.15 Q30.6 9.3 28 9.3 Q25.5 9.3 23.2 10.15 Q20.9 11 19.25 12.55 Q17.6 14.1 16.6 16.3 Q15.6 18.5 15.6 21.2 Z"
        /><glyph unicode=" " horiz-adv-x="27.8" d=""
        /><glyph unicode="m" horiz-adv-x="90.6" d="M5.8 51.7 L5.8 0 L20 0 L20 30 Q20 33.8 21.1 36.15 Q22.2 38.5 23.75 39.75 Q25.3 41 26.95 41.45 Q28.6 41.9 29.6 41.9 Q33 41.9 34.75 40.75 Q36.5 39.6 37.25 37.7 Q38 35.8 38.1 33.55 Q38.2 31.3 38.2 29 L38.2 0 L52.4 0 L52.4 28.8 Q52.4 31.2 52.75 33.55 Q53.1 35.9 54.15 37.75 Q55.2 39.6 57.05 40.75 Q58.9 41.9 61.9 41.9 Q64.9 41.9 66.65 40.9 Q68.4 39.9 69.3 38.2 Q70.2 36.5 70.4 34.2 Q70.6 31.9 70.6 29.3 L70.6 0 L84.8 0 L84.8 34.6 Q84.8 39.6 83.4 43.15 Q82 46.7 79.5 48.9 Q77 51.1 73.5 52.1 Q70 53.1 65.9 53.1 Q60.5 53.1 56.55 50.5 Q52.6 47.9 50.3 44.5 Q48.2 49.3 44.15 51.2 Q40.1 53.1 35.2 53.1 Q30.1 53.1 26.15 50.9 Q22.2 48.7 19.4 44.7 L19.2 44.7 L19.2 51.7 Z"
        /><glyph unicode="e" horiz-adv-x="57.4" d="M40.2 31.4 L17.1 31.4 Q17.2 32.9 17.75 34.8 Q18.3 36.7 19.65 38.4 Q21 40.1 23.25 41.25 Q25.5 42.4 28.9 42.4 Q34.1 42.4 36.65 39.6 Q39.2 36.8 40.2 31.4 ZM17.1 22.4 L54.4 22.4 Q54.8 28.4 53.4 33.9 Q52 39.4 48.85 43.7 Q45.7 48 40.8 50.55 Q35.9 53.1 29.3 53.1 Q23.4 53.1 18.55 51 Q13.7 48.9 10.2 45.25 Q6.7 41.6 4.8 36.6 Q2.9 31.6 2.9 25.8 Q2.9 19.8 4.75 14.8 Q6.6 9.8 10 6.2 Q13.4 2.6 18.3 0.65 Q23.2 -1.3 29.3 -1.3 Q38.1 -1.3 44.3 2.7 Q50.5 6.7 53.5 16 L41 16 Q40.3 13.6 37.2 11.45 Q34.1 9.3 29.8 9.3 Q23.8 9.3 20.6 12.4 Q17.4 15.5 17.1 22.4 Z"
        /><glyph unicode="l" horiz-adv-x="25.8" d="M5.8 71.4 L5.8 0 L20 0 L20 71.4 Z"
        /><glyph unicode="b" horiz-adv-x="61.1" d="M43.3 25.8 Q43.3 22.6 42.6 19.6 Q41.9 16.6 40.4 14.3 Q38.9 12 36.65 10.65 Q34.4 9.3 31.2 9.3 Q28.1 9.3 25.8 10.65 Q23.5 12 22 14.3 Q20.5 16.6 19.8 19.6 Q19.1 22.6 19.1 25.8 Q19.1 29.1 19.8 32.1 Q20.5 35.1 22 37.4 Q23.5 39.7 25.8 41.05 Q28.1 42.4 31.2 42.4 Q34.4 42.4 36.65 41.05 Q38.9 39.7 40.4 37.4 Q41.9 35.1 42.6 32.1 Q43.3 29.1 43.3 25.8 ZM5.4 71.4 L5.4 0 L18.9 0 L18.9 6.6 L19.1 6.6 Q21.4 2.3 25.9 0.5 Q30.4 -1.3 36.1 -1.3 Q40 -1.3 43.8 0.3 Q47.6 1.9 50.65 5.2 Q53.7 8.5 55.6 13.65 Q57.5 18.8 57.5 25.9 Q57.5 33 55.6 38.15 Q53.7 43.3 50.65 46.6 Q47.6 49.9 43.8 51.5 Q40 53.1 36.1 53.1 Q31.3 53.1 26.85 51.25 Q22.4 49.4 19.8 45.4 L19.6 45.4 L19.6 71.4 Z"
        /><glyph unicode="o" horiz-adv-x="61.1" d="M18 25.8 Q18 28.9 18.6 31.9 Q19.2 34.9 20.65 37.2 Q22.1 39.5 24.5 40.95 Q26.9 42.4 30.5 42.4 Q34.1 42.4 36.55 40.95 Q39 39.5 40.45 37.2 Q41.9 34.9 42.5 31.9 Q43.1 28.9 43.1 25.8 Q43.1 22.7 42.5 19.75 Q41.9 16.8 40.45 14.45 Q39 12.1 36.55 10.7 Q34.1 9.3 30.5 9.3 Q26.9 9.3 24.5 10.7 Q22.1 12.1 20.65 14.45 Q19.2 16.8 18.6 19.75 Q18 22.7 18 25.8 ZM3.8 25.8 Q3.8 19.6 5.7 14.6 Q7.6 9.6 11.1 6.05 Q14.6 2.5 19.5 0.6 Q24.4 -1.3 30.5 -1.3 Q36.6 -1.3 41.55 0.6 Q46.5 2.5 50 6.05 Q53.5 9.6 55.4 14.6 Q57.3 19.6 57.3 25.8 Q57.3 32 55.4 37.05 Q53.5 42.1 50 45.65 Q46.5 49.2 41.55 51.15 Q36.6 53.1 30.5 53.1 Q24.4 53.1 19.5 51.15 Q14.6 49.2 11.1 45.65 Q7.6 42.1 5.7 37.05 Q3.8 32 3.8 25.8 Z"
        /><glyph unicode="r" horiz-adv-x="38.9" d="M5.4 51.7 L5.4 0 L19.6 0 L19.6 23.3 Q19.6 26.8 20.3 29.8 Q21 32.8 22.65 35.05 Q24.3 37.3 27 38.6 Q29.7 39.9 33.6 39.9 Q34.9 39.9 36.3 39.75 Q37.7 39.6 38.7 39.4 L38.7 52.6 Q37 53.1 35.6 53.1 Q32.9 53.1 30.4 52.3 Q27.9 51.5 25.7 50.05 Q23.5 48.6 21.8 46.55 Q20.1 44.5 19.1 42.1 L18.9 42.1 L18.9 51.7 Z"
        /><glyph unicode="P" horiz-adv-x="66.7" d="M22.6 37.8 L22.6 59.2 L34.8 59.2 Q37.5 59.2 40 58.8 Q42.5 58.4 44.4 57.25 Q46.3 56.1 47.45 54 Q48.6 51.9 48.6 48.5 Q48.6 45.1 47.45 43 Q46.3 40.9 44.4 39.75 Q42.5 38.6 40 38.2 Q37.5 37.8 34.8 37.8 ZM6.9 71.4 L6.9 0 L22.6 0 L22.6 25.6 L39.1 25.6 Q45.8 25.6 50.5 27.55 Q55.2 29.5 58.15 32.7 Q61.1 35.9 62.45 40.05 Q63.8 44.2 63.8 48.5 Q63.8 52.9 62.45 57 Q61.1 61.1 58.15 64.3 Q55.2 67.5 50.5 69.45 Q45.8 71.4 39.1 71.4 Z"
      /></font
    ></defs
    ><g style="fill:white; stroke:white;"
    ><rect x="0" y="0" width="560" style="clip-path:url(#clipPath1); stroke:none;" height="420"
    /></g
    ><g style="fill:white; text-rendering:optimizeSpeed; color-rendering:optimizeSpeed; image-rendering:optimizeSpeed; shape-rendering:crispEdges; stroke:white; color-interpolation:sRGB;"
    ><rect x="0" width="560" height="420" y="0" style="stroke:none;"
      /><path style="stroke:none;" d="M73 374 L507 374 L507 31.5 L73 31.5 Z"
    /></g
    ><g style="fill:rgb(38,38,38); text-rendering:geometricPrecision; image-rendering:optimizeQuality; color-rendering:optimizeQuality; stroke-linejoin:round; stroke:rgb(38,38,38); color-interpolation:linearRGB; stroke-width:0.5;"
    ><line y2="374" style="fill:none;" x1="73" x2="507" y1="374"
      /><line y2="369.66" style="fill:none;" x1="73" x2="73" y1="374"
      /><line y2="369.66" style="fill:none;" x1="116.4" x2="116.4" y1="374"
      /><line y2="369.66" style="fill:none;" x1="159.8" x2="159.8" y1="374"
      /><line y2="369.66" style="fill:none;" x1="203.2" x2="203.2" y1="374"
      /><line y2="369.66" style="fill:none;" x1="246.6" x2="246.6" y1="374"
      /><line y2="369.66" style="fill:none;" x1="290" x2="290" y1="374"
      /><line y2="369.66" style="fill:none;" x1="333.4" x2="333.4" y1="374"
      /><line y2="369.66" style="fill:none;" x1="376.8" x2="376.8" y1="374"
      /><line y2="369.66" style="fill:none;" x1="420.2" x2="420.2" y1="374"
      /><line y2="369.66" style="fill:none;" x1="463.6" x2="463.6" y1="374"
      /><line y2="369.66" style="fill:none;" x1="507" x2="507" y1="374"
    /></g
    ><g transform="translate(73,378)" style="font-size:10px; fill:rgb(38,38,38); text-rendering:geometricPrecision; image-rendering:optimizeQuality; color-rendering:optimizeQuality; font-family:'Helvetica Neue'; stroke:rgb(38,38,38); color-interpolation:linearRGB;"
    ><text x="-3" xml:space="preserve" y="10" style="stroke:none;"
      >0</text
    ></g
    ><g transform="translate(116.4,378)" style="font-size:10px; fill:rgb(38,38,38); text-rendering:geometricPrecision; image-rendering:optimizeQuality; color-rendering:optimizeQuality; font-family:'Helvetica Neue'; stroke:rgb(38,38,38); color-interpolation:linearRGB;"
    ><text x="-6" xml:space="preserve" y="10" style="stroke:none;"
      >50</text
    ></g
    ><g transform="translate(159.8,378)" style="font-size:10px; fill:rgb(38,38,38); text-rendering:geometricPrecision; image-rendering:optimizeQuality; color-rendering:optimizeQuality; font-family:'Helvetica Neue'; stroke:rgb(38,38,38); color-interpolation:linearRGB;"
    ><text x="-8.5" xml:space="preserve" y="10" style="stroke:none;"
      >100</text
    ></g
    ><g transform="translate(203.2,378)" style="font-size:10px; fill:rgb(38,38,38); text-rendering:geometricPrecision; image-rendering:optimizeQuality; color-rendering:optimizeQuality; font-family:'Helvetica Neue'; stroke:rgb(38,38,38); color-interpolation:linearRGB;"
    ><text x="-8.5" xml:space="preserve" y="10" style="stroke:none;"
      >150</text
    ></g
    ><g transform="translate(246.6,378)" style="font-size:10px; fill:rgb(38,38,38); text-rendering:geometricPrecision; image-rendering:optimizeQuality; color-rendering:optimizeQuality; font-family:'Helvetica Neue'; stroke:rgb(38,38,38); color-interpolation:linearRGB;"
    ><text x="-8.5" xml:space="preserve" y="10" style="stroke:none;"
      >200</text
    ></g
    ><g transform="translate(290,378)" style="font-size:10px; fill:rgb(38,38,38); text-rendering:geometricPrecision; image-rendering:optimizeQuality; color-rendering:optimizeQuality; font-family:'Helvetica Neue'; stroke:rgb(38,38,38); color-interpolation:linearRGB;"
    ><text x="-8.5" xml:space="preserve" y="10" style="stroke:none;"
      >250</text
    ></g
    ><g transform="translate(333.4,378)" style="font-size:10px; fill:rgb(38,38,38); text-rendering:geometricPrecision; image-rendering:optimizeQuality; color-rendering:optimizeQuality; font-family:'Helvetica Neue'; stroke:rgb(38,38,38); color-interpolation:linearRGB;"
    ><text x="-8.5" xml:space="preserve" y="10" style="stroke:none;"
      >300</text
    ></g
    ><g transform="translate(376.8,378)" style="font-size:10px; fill:rgb(38,38,38); text-rendering:geometricPrecision; image-rendering:optimizeQuality; color-rendering:optimizeQuality; font-family:'Helvetica Neue'; stroke:rgb(38,38,38); color-interpolation:linearRGB;"
    ><text x="-8.5" xml:space="preserve" y="10" style="stroke:none;"
      >350</text
    ></g
    ><g transform="translate(420.2,378)" style="font-size:10px; fill:rgb(38,38,38); text-rendering:geometricPrecision; image-rendering:optimizeQuality; color-rendering:optimizeQuality; font-family:'Helvetica Neue'; stroke:rgb(38,38,38); color-interpolation:linearRGB;"
    ><text x="-8.5" xml:space="preserve" y="10" style="stroke:none;"
      >400</text
    ></g
    ><g transform="translate(463.6,378)" style="font-size:10px; fill:rgb(38,38,38); text-rendering:geometricPrecision; image-rendering:optimizeQuality; color-rendering:optimizeQuality; font-family:'Helvetica Neue'; stroke:rgb(38,38,38); color-interpolation:linearRGB;"
    ><text x="-8.5" xml:space="preserve" y="10" style="stroke:none;"
      >450</text
    ></g
    ><g transform="translate(507,378)" style="font-size:10px; fill:rgb(38,38,38); text-rendering:geometricPrecision; image-rendering:optimizeQuality; color-rendering:optimizeQuality; font-family:'Helvetica Neue'; stroke:rgb(38,38,38); color-interpolation:linearRGB;"
    ><text x="-8.5" xml:space="preserve" y="10" style="stroke:none;"
      >500</text
    ></g
    ><g transform="translate(290.0002,391.5)" style="font-size:11px; fill:rgb(38,38,38); text-rendering:geometricPrecision; image-rendering:optimizeQuality; color-rendering:optimizeQuality; font-family:'Helvetica Neue'; stroke:rgb(38,38,38); color-interpolation:linearRGB;"
    ><text x="-28.5" xml:space="preserve" y="11" style="stroke:none;"
      >N Iterations</text
    ></g
    ><g style="fill:rgb(38,38,38); text-rendering:geometricPrecision; image-rendering:optimizeQuality; color-rendering:optimizeQuality; stroke-linejoin:round; stroke:rgb(38,38,38); color-interpolation:linearRGB; stroke-width:0.5;"
    ><line y2="31.5" style="fill:none;" x1="73" x2="73" y1="374"
      /><line y2="374" style="fill:none;" x1="73" x2="77.34" y1="374"
      /><line y2="339.75" style="fill:none;" x1="73" x2="77.34" y1="339.75"
      /><line y2="305.5" style="fill:none;" x1="73" x2="77.34" y1="305.5"
      /><line y2="271.25" style="fill:none;" x1="73" x2="77.34" y1="271.25"
      /><line y2="237" style="fill:none;" x1="73" x2="77.34" y1="237"
      /><line y2="202.75" style="fill:none;" x1="73" x2="77.34" y1="202.75"
      /><line y2="168.5" style="fill:none;" x1="73" x2="77.34" y1="168.5"
      /><line y2="134.25" style="fill:none;" x1="73" x2="77.34" y1="134.25"
      /><line y2="100" style="fill:none;" x1="73" x2="77.34" y1="100"
      /><line y2="65.75" style="fill:none;" x1="73" x2="77.34" y1="65.75"
      /><line y2="31.5" style="fill:none;" x1="73" x2="77.34" y1="31.5"
    /></g
    ><g transform="translate(69,374)" style="font-size:10px; fill:rgb(38,38,38); text-rendering:geometricPrecision; image-rendering:optimizeQuality; color-rendering:optimizeQuality; font-family:'Helvetica Neue'; stroke:rgb(38,38,38); color-interpolation:linearRGB;"
    ><text x="-32" xml:space="preserve" y="3.5" style="stroke:none;"
      >-11000</text
    ></g
    ><g transform="translate(69,339.75)" style="font-size:10px; fill:rgb(38,38,38); text-rendering:geometricPrecision; image-rendering:optimizeQuality; color-rendering:optimizeQuality; font-family:'Helvetica Neue'; stroke:rgb(38,38,38); color-interpolation:linearRGB;"
    ><text x="-32" xml:space="preserve" y="3.5" style="stroke:none;"
      >-10000</text
    ></g
    ><g transform="translate(69,305.5)" style="font-size:10px; fill:rgb(38,38,38); text-rendering:geometricPrecision; image-rendering:optimizeQuality; color-rendering:optimizeQuality; font-family:'Helvetica Neue'; stroke:rgb(38,38,38); color-interpolation:linearRGB;"
    ><text x="-27" xml:space="preserve" y="3.5" style="stroke:none;"
      >-9000</text
    ></g
    ><g transform="translate(69,271.25)" style="font-size:10px; fill:rgb(38,38,38); text-rendering:geometricPrecision; image-rendering:optimizeQuality; color-rendering:optimizeQuality; font-family:'Helvetica Neue'; stroke:rgb(38,38,38); color-interpolation:linearRGB;"
    ><text x="-27" xml:space="preserve" y="3.5" style="stroke:none;"
      >-8000</text
    ></g
    ><g transform="translate(69,237)" style="font-size:10px; fill:rgb(38,38,38); text-rendering:geometricPrecision; image-rendering:optimizeQuality; color-rendering:optimizeQuality; font-family:'Helvetica Neue'; stroke:rgb(38,38,38); color-interpolation:linearRGB;"
    ><text x="-27" xml:space="preserve" y="3.5" style="stroke:none;"
      >-7000</text
    ></g
    ><g transform="translate(69,202.75)" style="font-size:10px; fill:rgb(38,38,38); text-rendering:geometricPrecision; image-rendering:optimizeQuality; color-rendering:optimizeQuality; font-family:'Helvetica Neue'; stroke:rgb(38,38,38); color-interpolation:linearRGB;"
    ><text x="-27" xml:space="preserve" y="3.5" style="stroke:none;"
      >-6000</text
    ></g
    ><g transform="translate(69,168.5)" style="font-size:10px; fill:rgb(38,38,38); text-rendering:geometricPrecision; image-rendering:optimizeQuality; color-rendering:optimizeQuality; font-family:'Helvetica Neue'; stroke:rgb(38,38,38); color-interpolation:linearRGB;"
    ><text x="-27" xml:space="preserve" y="3.5" style="stroke:none;"
      >-5000</text
    ></g
    ><g transform="translate(69,134.25)" style="font-size:10px; fill:rgb(38,38,38); text-rendering:geometricPrecision; image-rendering:optimizeQuality; color-rendering:optimizeQuality; font-family:'Helvetica Neue'; stroke:rgb(38,38,38); color-interpolation:linearRGB;"
    ><text x="-27" xml:space="preserve" y="3.5" style="stroke:none;"
      >-4000</text
    ></g
    ><g transform="translate(69,100)" style="font-size:10px; fill:rgb(38,38,38); text-rendering:geometricPrecision; image-rendering:optimizeQuality; color-rendering:optimizeQuality; font-family:'Helvetica Neue'; stroke:rgb(38,38,38); color-interpolation:linearRGB;"
    ><text x="-27" xml:space="preserve" y="3.5" style="stroke:none;"
      >-3000</text
    ></g
    ><g transform="translate(69,65.75)" style="font-size:10px; fill:rgb(38,38,38); text-rendering:geometricPrecision; image-rendering:optimizeQuality; color-rendering:optimizeQuality; font-family:'Helvetica Neue'; stroke:rgb(38,38,38); color-interpolation:linearRGB;"
    ><text x="-27" xml:space="preserve" y="3.5" style="stroke:none;"
      >-2000</text
    ></g
    ><g transform="translate(69,31.5)" style="font-size:10px; fill:rgb(38,38,38); text-rendering:geometricPrecision; image-rendering:optimizeQuality; color-rendering:optimizeQuality; font-family:'Helvetica Neue'; stroke:rgb(38,38,38); color-interpolation:linearRGB;"
    ><text x="-27" xml:space="preserve" y="3.5" style="stroke:none;"
      >-1000</text
    ></g
    ><g transform="translate(34,202.7498) rotate(-90)" style="font-size:11px; fill:rgb(38,38,38); text-rendering:geometricPrecision; image-rendering:optimizeQuality; color-rendering:optimizeQuality; font-family:'Helvetica Neue'; stroke:rgb(38,38,38); color-interpolation:linearRGB;"
    ><text x="-23" xml:space="preserve" y="-3" style="stroke:none;"
      >Mean f(x)</text
    ></g
    ><g transform="translate(290.0003,30.125)" style="font-size:11px; text-rendering:geometricPrecision; image-rendering:optimizeQuality; color-rendering:optimizeQuality; font-family:'Helvetica Neue'; color-interpolation:linearRGB; font-weight:bold;"
    ><text x="-27" xml:space="preserve" y="-3" style="stroke:none;"
      >Problem 8</text
    ></g
    ><g style="stroke-linecap:butt; fill:lime; text-rendering:geometricPrecision; image-rendering:optimizeQuality; color-rendering:optimizeQuality; stroke-linejoin:round; stroke:lime; color-interpolation:linearRGB; stroke-width:3;"
    ><path d="M73.868 347.1151 L74.736 347.1151 L75.604 347.1151 L76.472 347.1151 L77.34 347.1151 L78.208 347.1151 L79.076 347.1151 L79.944 347.1151 L80.812 347.1151 L81.68 347.1151 L82.548 347.1151 L83.416 347.1151 L84.284 347.1151 L85.152 347.1151 L86.02 347.1151 L86.888 347.1151 L87.756 347.1151 L88.624 347.1151 L89.492 347.1151 L90.36 347.1151 L91.228 347.1151 L92.096 347.1151 L92.964 347.1151 L93.832 347.1151 L94.7 347.1151 L95.568 347.1151 L96.436 347.1151 L97.304 347.1151 L98.172 347.1151 L99.04 347.1151 L99.908 347.1151 L100.776 347.1151 L101.644 347.1151 L102.512 347.1151 L103.38 347.1151 L104.248 347.1151 L105.116 347.1151 L105.984 347.1151 L106.852 347.1151 L107.72 347.1151 L108.588 347.1151 L109.456 347.1151 L110.324 347.1151 L111.192 347.1151 L112.06 347.1151 L112.928 347.1151 L113.796 347.1151 L114.664 347.1151 L115.532 347.1151 L116.4 347.1151 L117.268 347.1151 L118.136 347.1151 L119.004 347.1151 L119.872 347.1151 L120.74 347.1151 L121.608 347.1151 L122.476 347.1151 L123.344 347.1151 L124.212 347.1151 L125.08 347.1151 L125.948 347.1151 L126.816 347.1151 L127.684 347.1151 L128.552 347.1151 L129.42 347.1151 L130.288 347.1151 L131.156 347.1151 L132.024 347.1151 L132.892 347.1151 L133.76 347.1151 L134.628 347.1151 L135.496 347.1151 L136.364 347.1151 L137.232 347.1151 L138.1 347.1151 L138.968 347.1151 L139.836 347.1151 L140.704 347.1151 L141.572 347.1151 L142.44 347.1151 L143.308 347.1151 L144.176 347.1151 L145.044 347.1151 L145.912 347.1151 L146.78 347.1151 L147.648 347.1151 L148.516 347.1151 L149.384 347.1151 L150.252 347.1151 L151.12 347.1151 L151.988 347.1151 L152.856 347.1151 L153.724 347.1151 L154.592 347.1151 L155.46 347.1151 L156.328 347.1151 L157.196 347.1151 L158.064 347.1151 L158.932 347.1151 L159.8 347.1151 L160.668 347.1151 L161.536 347.1151 L162.404 347.1151 L163.272 347.1151 L164.14 347.1151 L165.008 347.1151 L165.876 347.1151 L166.744 347.1151 L167.612 349.3933 L168.48 349.3933 L169.348 349.3933 L170.216 349.3933 L171.084 349.3933 L171.952 349.3933 L172.82 349.3933 L173.688 349.3933 L174.556 349.3933 L175.424 349.3933 L176.292 349.3933 L177.16 349.3933 L178.028 349.3933 L178.896 349.3933 L179.764 349.3933 L180.632 349.3933 L181.5 349.3933 L182.368 349.3933 L183.236 349.3933 L184.104 349.3933 L184.972 349.3933 L185.84 349.3933 L186.708 349.3933 L187.576 349.3933 L188.444 349.3933 L189.312 349.3933 L190.18 349.3933 L191.048 349.3933 L191.916 349.3933 L192.784 349.3933 L193.652 349.3933 L194.52 349.3933 L195.388 349.3933 L196.256 349.3933 L197.124 349.3933 L197.992 349.3933 L198.86 349.3933 L199.728 349.3933 L200.596 349.3933 L201.464 349.3933 L202.332 349.3933 L203.2 349.3933 L204.068 349.3933 L204.936 349.3933 L205.804 349.3933 L206.672 349.3933 L207.54 349.3933 L208.408 349.3933 L209.276 349.3933 L210.144 349.3933 L211.012 349.3933 L211.88 349.3933 L212.748 349.3933 L213.616 349.3933 L214.484 349.3933 L215.352 349.3933 L216.22 349.3933 L217.088 349.3933 L217.956 349.3933 L218.824 349.3933 L219.692 349.3933 L220.56 349.3933 L221.428 349.3933 L222.296 349.3933 L223.164 349.3933 L224.032 349.3933 L224.9 349.3933 L225.768 349.3933 L226.636 349.3933 L227.504 349.3933 L228.372 349.3933 L229.24 349.3933 L230.108 349.3933 L230.976 349.3933 L231.844 349.3933 L232.712 349.3933 L233.58 349.3933 L234.448 349.3933 L235.316 349.3933 L236.184 349.3933 L237.052 349.3933 L237.92 349.3933 L238.788 349.3933 L239.656 349.3933 L240.524 349.3933 L241.392 349.3933 L242.26 349.3933 L243.128 349.3933 L243.996 349.3933 L244.864 349.3933 L245.732 349.3933 L246.6 349.3933 L247.468 349.3933 L248.336 349.3933 L249.204 349.3933 L250.072 349.3933 L250.94 349.3933 L251.808 349.3933 L252.676 349.3933 L253.544 349.3933 L254.412 349.3933 L255.28 349.3933 L256.148 349.3933 L257.016 349.3933 L257.884 349.3933 L258.752 349.3933 L259.62 349.3933 L260.488 349.3933 L261.356 349.3933 L262.224 349.3933 L263.092 349.3933 L263.96 349.3933 L264.828 349.3933 L265.696 349.3933 L266.564 349.3933 L267.432 349.3933 L268.3 349.3933 L269.168 349.3933 L270.036 349.3933 L270.904 349.3933 L271.772 349.3933 L272.64 349.3933 L273.508 349.3933 L274.376 349.3933 L275.244 349.3933 L276.112 349.3933 L276.98 349.8005 L277.848 349.8005 L278.716 349.8005 L279.584 349.8005 L280.452 349.8005 L281.32 349.8005 L282.188 349.8005 L283.056 349.8005 L283.924 349.8005 L284.792 349.8005 L285.66 349.8005 L286.528 349.8005 L287.396 349.8005 L288.264 349.8005 L289.132 349.8005 L290 349.8005 L290.868 349.8005 L291.736 349.8005 L292.604 349.8005 L293.472 349.8005 L294.34 349.8005 L295.208 349.8005 L296.076 349.8005 L296.944 349.8005 L297.812 349.8005 L298.68 349.8005 L299.548 349.8005 L300.416 349.8005 L301.284 349.8005 L302.152 349.8005 L303.02 360.8436 L303.888 360.8436 L304.756 360.8436 L305.624 360.8436 L306.492 360.8436 L307.36 360.8436 L308.228 360.8436 L309.096 360.8436 L309.964 360.8436 L310.832 360.8436 L311.7 360.8436 L312.568 360.8436 L313.436 360.8436 L314.304 360.8436 L315.172 360.8436 L316.04 360.8436 L316.908 360.8436 L317.776 360.8436 L318.644 360.8436 L319.512 360.8436 L320.38 360.8436 L321.248 360.8436 L322.116 360.8436 L322.984 360.8436 L323.852 360.8436 L324.72 360.8436 L325.588 360.8436 L326.456 360.8436 L327.324 360.8436 L328.192 360.8436 L329.06 360.8436 L329.928 360.8436 L330.796 360.8436 L331.664 360.8436 L332.532 360.8436 L333.4 360.8436 L334.268 360.8436 L335.136 360.8436 L336.004 360.8436 L336.872 360.8436 L337.74 360.8436 L338.608 360.8436 L339.476 360.8436 L340.344 360.8436 L341.212 360.8436 L342.08 360.8436 L342.948 360.8436 L343.816 360.8436 L344.684 360.8436 L345.552 360.8436 L346.42 360.8436 L347.288 360.8436 L348.156 360.8436 L349.024 360.8436 L349.892 360.8436 L350.76 360.8436 L351.628 360.8436 L352.496 360.8436 L353.364 360.8436 L354.232 360.8436 L355.1 360.8436 L355.968 360.8436 L356.836 360.8436 L357.704 360.8436 L358.572 360.8436 L359.44 360.8436 L360.308 360.8436 L361.176 360.8436 L362.044 360.8436 L362.912 360.8436 L363.78 360.8436 L364.648 360.8436 L365.516 360.8436 L366.384 360.8436 L367.252 360.8436 L368.12 360.8436 L368.988 360.8436 L369.856 360.8436 L370.724 360.8436 L371.592 360.8436 L372.46 360.8436 L373.328 360.8436 L374.196 360.8436 L375.064 360.8436 L375.932 360.8436 L376.8 360.8436 L377.668 360.8436 L378.536 360.8436 L379.404 360.8436 L380.272 360.8436 L381.14 360.8436 L382.008 360.8436 L382.876 360.8436 L383.744 360.8436 L384.612 360.8436 L385.48 360.8436 L386.348 360.8436 L387.216 360.8436 L388.084 360.8436 L388.952 360.8436 L389.82 360.8436 L390.688 360.8436 L391.556 360.8436 L392.424 360.8436 L393.292 360.8436 L394.16 360.8436 L395.028 360.8436 L395.896 360.8436 L396.764 360.8436 L397.632 360.8436 L398.5 360.8436 L399.368 360.8436 L400.236 360.8436 L401.104 360.8436 L401.972 360.8436 L402.84 360.8436 L403.708 360.8436 L404.576 360.8436 L405.444 360.8436 L406.312 360.8436 L407.18 360.8436 L408.048 360.8436 L408.916 360.8436 L409.784 360.8436 L410.652 360.8436 L411.52 360.8436 L412.388 360.8436 L413.256 360.8436 L414.124 360.8436 L414.992 360.8436 L415.86 360.8436 L416.728 360.8436 L417.596 360.8436 L418.464 360.8436 L419.332 360.8436 L420.2 360.8436 L421.068 360.8436 L421.936 360.8436 L422.804 360.8436 L423.672 360.8436 L424.54 360.8436 L425.408 360.8436 L426.276 360.8436 L427.144 360.8436 L428.012 360.8436 L428.88 360.8436 L429.748 360.8436 L430.616 360.8436 L431.484 360.8436 L432.352 360.8436 L433.22 360.8436 L434.088 360.8436 L434.956 360.8436 L435.824 360.8436 L436.692 360.8436 L437.56 360.8436 L438.428 360.8436 L439.296 360.8436 L440.164 360.8436 L441.032 360.8436 L441.9 360.8436 L442.768 360.8436 L443.636 360.8436 L444.504 360.8436 L445.372 360.8436 L446.24 360.8436 L447.108 360.8436 L447.976 360.8436 L448.844 360.8436 L449.712 360.8436 L450.58 360.8436 L451.448 360.8436 L452.316 360.8436 L453.184 360.8436 L454.052 360.8436 L454.92 360.8436 L455.788 360.8436 L456.656 360.8436 L457.524 360.8436 L458.392 360.8436 L459.26 360.8436 L460.128 360.8436 L460.996 360.8436 L461.864 360.8436 L462.732 360.8436 L463.6 360.8436 L464.468 360.8436 L465.336 360.8436 L466.204 360.8436 L467.072 360.8436 L467.94 360.8436 L468.808 360.8436 L469.676 360.8436 L470.544 360.8436 L471.412 360.8436 L472.28 360.8436 L473.148 360.8436 L474.016 360.8436 L474.884 360.8436 L475.752 360.8436 L476.62 360.8436 L477.488 360.8436 L478.356 360.8436 L479.224 360.8436 L480.092 360.8436 L480.96 360.8436 L481.828 360.8436 L482.696 360.8436 L483.564 360.8436 L484.432 360.8436 L485.3 360.8436 L486.168 360.8436 L487.036 360.8436 L487.904 360.8436 L488.772 360.8436 L489.64 360.8436 L490.508 360.8436 L491.376 360.8436 L492.244 360.8436 L493.112 360.8436 L493.98 360.8436 L494.848 360.8436 L495.716 360.8436 L496.584 360.8436 L497.452 360.8436 L498.32 360.8436 L499.188 360.8436 L500.056 360.8436 L500.924 360.8436 L501.792 360.8436 L502.66 360.8436 L503.528 360.8436 L504.396 360.8436 L505.264 360.8436 L506.132 360.8436 L507 360.8436" style="fill:none; fill-rule:evenodd;"
    /></g
    ><g style="stroke-linecap:butt; fill:blue; text-rendering:geometricPrecision; image-rendering:optimizeQuality; color-rendering:optimizeQuality; stroke-linejoin:bevel; stroke-dasharray:12,12; stroke:blue; color-interpolation:linearRGB; stroke-width:3; stroke-miterlimit:1;"
    ><path d="M73.868 62.1935 L74.736 65.1988 L75.604 70.3619 L76.472 76.8284 L77.34 82.4299 L78.208 90.4719 L79.076 99.5382 L79.944 107.7056 L80.812 118.3173 L81.68 126.6506 L82.548 133.4758 L83.416 139.0428 L84.284 142.9273 L85.152 145.458 L86.02 146.4226 L86.888 147.1042 L87.756 147.6768 L88.624 147.6809 L89.492 147.6809 L90.36 147.6809 L91.228 147.6809 L92.096 147.6809 L92.964 147.6809 L93.832 147.6809 L94.7 147.6809 L95.568 147.6809 L96.436 147.6809 L97.304 147.6809 L98.172 147.7059 L99.04 147.8238 L99.908 147.9153 L100.776 147.9664 L101.644 147.9837 L102.512 148.0318 L103.38 148.1679 L104.248 148.3524 L105.116 148.5155 L105.984 148.7871 L106.852 149.0411 L107.72 149.2787 L108.588 149.3966 L109.456 149.6453 L110.324 149.9456 L111.192 150.2442 L112.06 150.6428 L112.928 151.0466 L113.796 151.289 L114.664 151.5226 L115.532 151.7268 L116.4 151.963 L117.268 152.2817 L118.136 152.6306 L119.004 152.8992 L119.872 153.1479 L120.74 153.3278 L121.608 153.3985 L122.476 153.4278 L123.344 153.4674 L124.212 153.5193 L125.08 153.5729 L125.948 153.6221 L126.816 153.6603 L127.684 153.7045 L128.552 153.7652 L129.42 153.7977 L130.288 153.8042 L131.156 153.8143 L132.024 153.815 L132.892 153.8174 L133.76 153.8199 L134.628 153.8201 L135.496 153.8449 L136.364 153.878 L137.232 153.8968 L138.1 153.8989 L138.968 153.8989 L139.836 153.8989 L140.704 153.8989 L141.572 153.8989 L142.44 153.8989 L143.308 153.8989 L144.176 153.8989 L145.044 153.8989 L145.912 153.8989 L146.78 153.8989 L147.648 153.8989 L148.516 153.8989 L149.384 153.8989 L150.252 153.8989 L151.12 153.8989 L151.988 153.8989 L152.856 153.8989 L153.724 153.8989 L154.592 153.8989 L155.46 153.8989 L156.328 153.8989 L157.196 153.8989 L158.064 153.8989 L158.932 153.8989 L159.8 153.8998 L160.668 153.91 L161.536 153.9102 L162.404 153.9205 L163.272 153.9226 L164.14 153.929 L165.008 153.9342 L165.876 153.9399 L166.744 153.9436 L167.612 153.9504 L168.48 153.9542 L169.348 153.9608 L170.216 153.9632 L171.084 153.9676 L171.952 153.9716 L172.82 153.9776 L173.688 153.9791 L174.556 153.9887 L175.424 153.9923 L176.292 153.9993 L177.16 154.0049 L178.028 154.0107 L178.896 154.0159 L179.764 154.0224 L180.632 154.0271 L181.5 154.0319 L182.368 154.0361 L183.236 154.0411 L184.104 154.0434 L184.972 154.0482 L185.84 154.0506 L186.708 154.057 L187.576 154.0611 L188.444 154.0668 L189.312 154.0704 L190.18 154.0759 L191.048 154.0794 L191.916 154.0843 L192.784 154.0882 L193.652 154.0921 L194.52 154.0973 L195.388 154.1037 L196.256 154.1079 L197.124 154.1146 L197.992 154.118 L198.86 154.1225 L199.728 154.1262 L200.596 154.1314 L201.464 154.1351 L202.332 154.1384 L203.2 154.1428 L204.068 154.1466 L204.936 154.1501 L205.804 154.1538 L206.672 154.1571 L207.54 154.1608 L208.408 154.1643 L209.276 154.1668 L210.144 154.17 L211.012 154.1724 L211.88 154.1752 L212.748 154.1777 L213.616 154.1798 L214.484 154.1826 L215.352 154.1845 L216.22 154.1867 L217.088 154.1891 L217.956 154.1909 L218.824 154.193 L219.692 154.1951 L220.56 154.1968 L221.428 154.1986 L222.296 154.2005 L223.164 154.2018 L224.032 154.2035 L224.9 154.2049 L225.768 154.2063 L226.636 154.2079 L227.504 154.2093 L228.372 154.2102 L229.24 154.2116 L230.108 154.2128 L230.976 154.2139 L231.844 154.2152 L232.712 154.2161 L233.58 154.2172 L234.448 154.2182 L235.316 154.2189 L236.184 154.2198 L237.052 154.2207 L237.92 154.2215 L238.788 154.2224 L239.656 154.2231 L240.524 154.2238 L241.392 154.2246 L242.26 154.2252 L243.128 154.226 L243.996 154.2268 L244.864 154.2273 L245.732 154.2279 L246.6 154.2283 L247.468 154.229 L248.336 154.2294 L249.204 154.2299 L250.072 154.2304 L250.94 154.2308 L251.808 154.2313 L252.676 154.2317 L253.544 154.2321 L254.412 154.2325 L255.28 154.2328 L256.148 154.2333 L257.016 154.2336 L257.884 154.2339 L258.752 154.2342 L259.62 154.2345 L260.488 154.2347 L261.356 154.235 L262.224 154.2353 L263.092 154.2356 L263.96 154.2359 L264.828 154.2361 L265.696 154.2364 L266.564 154.2366 L267.432 154.2369 L268.3 154.2371 L269.168 154.2374 L270.036 154.2376 L270.904 154.2377 L271.772 154.2379 L272.64 154.2381 L273.508 154.2382 L274.376 154.2384 L275.244 154.2386 L276.112 154.2387 L276.98 154.2389 L277.848 154.2391 L278.716 154.2392 L279.584 154.2393 L280.452 154.2394 L281.32 154.2395 L282.188 154.2397 L283.056 154.2398 L283.924 154.2399 L284.792 154.24 L285.66 154.2401 L286.528 154.2402 L287.396 154.2403 L288.264 154.2403 L289.132 154.2404 L290 154.2405 L290.868 154.2406 L291.736 154.2406 L292.604 154.2407 L293.472 154.2408 L294.34 154.2408 L295.208 154.2409 L296.076 154.241 L296.944 154.241 L297.812 154.2411 L298.68 154.2411 L299.548 154.2412 L300.416 154.2412 L301.284 154.2413 L302.152 154.2413 L303.02 154.2414 L303.888 154.2414 L304.756 154.2414 L305.624 154.2415 L306.492 154.2415 L307.36 154.2415 L308.228 154.2416 L309.096 154.2416 L309.964 154.2417 L310.832 154.2417 L311.7 154.2417 L312.568 154.2417 L313.436 154.2418 L314.304 154.2418 L315.172 154.2418 L316.04 154.2418 L316.908 154.2419 L317.776 154.2419 L318.644 154.2419 L319.512 154.2419 L320.38 154.2419 L321.248 154.242 L322.116 154.242 L322.984 154.242 L323.852 154.242 L324.72 154.2421 L325.588 154.2421 L326.456 154.2421 L327.324 154.2421 L328.192 154.2421 L329.06 154.2421 L329.928 154.2421 L330.796 154.2421 L331.664 154.2422 L332.532 154.2422 L333.4 154.2422 L334.268 154.2422 L335.136 154.2422 L336.004 154.2422 L336.872 154.2422 L337.74 154.2422 L338.608 154.2422 L339.476 154.2422 L340.344 154.2422 L341.212 154.2422 L342.08 154.2422 L342.948 154.2423 L343.816 154.2423 L344.684 154.2423 L345.552 154.2423 L346.42 154.2423 L347.288 154.2423 L348.156 154.2423 L349.024 154.2423 L349.892 154.2423 L350.76 154.2423 L351.628 154.2423 L352.496 154.2423 L353.364 154.2423 L354.232 154.2423 L355.1 154.2423 L355.968 154.2423 L356.836 154.2423 L357.704 154.2424 L358.572 154.2424 L359.44 154.2424 L360.308 154.2424 L361.176 154.2424 L362.044 154.2424 L362.912 154.2424 L363.78 154.2424 L364.648 154.2424 L365.516 154.2424 L366.384 154.2424 L367.252 154.2424 L368.12 154.2424 L368.988 154.2424 L369.856 154.2424 L370.724 154.2424 L371.592 154.2424 L372.46 154.2424 L373.328 154.2424 L374.196 154.2424 L375.064 154.2424 L375.932 154.2424 L376.8 154.2424 L377.668 154.2424 L378.536 154.2424 L379.404 154.2424 L380.272 154.2424 L381.14 154.2424 L382.008 154.2424 L382.876 154.2424 L383.744 154.2424 L384.612 154.2424 L385.48 154.2424 L386.348 154.2424 L387.216 154.2424 L388.084 154.2424 L388.952 154.2424 L389.82 154.2424 L390.688 154.2424 L391.556 154.2424 L392.424 154.2424 L393.292 154.2424 L394.16 154.2424 L395.028 154.2424 L395.896 154.2424 L396.764 154.2424 L397.632 154.2424 L398.5 154.2424 L399.368 154.2424 L400.236 154.2424 L401.104 154.2424 L401.972 154.2424 L402.84 154.2424 L403.708 154.2424 L404.576 154.2424 L405.444 154.2424 L406.312 154.2424 L407.18 154.2424 L408.048 154.2424 L408.916 154.2424 L409.784 154.2424 L410.652 154.2424 L411.52 154.2424 L412.388 154.2424 L413.256 154.2424 L414.124 154.2424 L414.992 154.2424 L415.86 154.2424 L416.728 154.2424 L417.596 154.2424 L418.464 154.2424 L419.332 154.2424 L420.2 154.2424 L421.068 154.2424 L421.936 154.2424 L422.804 154.2424 L423.672 154.2424 L424.54 154.2424 L425.408 154.2424 L426.276 154.2424 L427.144 154.2424 L428.012 154.2424 L428.88 154.2424 L429.748 154.2424 L430.616 154.2424 L431.484 154.2424 L432.352 154.2424 L433.22 154.2424 L434.088 154.2424 L434.956 154.2424 L435.824 154.2424 L436.692 154.2424 L437.56 154.2424 L438.428 154.2424 L439.296 154.2424 L440.164 154.2424 L441.032 154.2424 L441.9 154.2424 L442.768 154.2424 L443.636 154.2424 L444.504 154.2424 L445.372 154.2424 L446.24 154.2424 L447.108 154.2424 L447.976 154.2424 L448.844 154.2424 L449.712 154.2424 L450.58 154.2424 L451.448 154.2424 L452.316 154.2424 L453.184 154.2424 L454.052 154.2424 L454.92 154.2424 L455.788 154.2424 L456.656 154.2424 L457.524 154.2424 L458.392 154.2424 L459.26 154.2424 L460.128 154.2424 L460.996 154.2424 L461.864 154.2424 L462.732 154.2424 L463.6 154.2424 L464.468 154.2424 L465.336 154.2424 L466.204 154.2424 L467.072 154.2424 L467.94 154.2424 L468.808 154.2424 L469.676 154.2424 L470.544 154.2424 L471.412 154.2424 L472.28 154.2424 L473.148 154.2424 L474.016 154.2424 L474.884 154.2424 L475.752 154.2424 L476.62 154.2424 L477.488 154.2424 L478.356 154.2424 L479.224 154.2424 L480.092 154.2424 L480.96 154.2424 L481.828 154.2424 L482.696 154.2424 L483.564 154.2424 L484.432 154.2424 L485.3 154.2424 L486.168 154.2424 L487.036 154.2424 L487.904 154.2424 L488.772 154.2424 L489.64 154.2424 L490.508 154.2424 L491.376 154.2424 L492.244 154.2424 L493.112 154.2424 L493.98 154.2424 L494.848 154.2424 L495.716 154.2424 L496.584 154.2424 L497.452 154.2424 L498.32 154.2424 L499.188 154.2424 L500.056 154.2424 L500.924 154.2424 L501.792 154.2424 L502.66 154.2424 L503.528 154.2424 L504.396 154.2424 L505.264 154.2424 L506.132 154.2424 L507 154.2424" style="fill:none; fill-rule:evenodd;"
    /></g
    ><g style="stroke-linecap:butt; fill:red; text-rendering:geometricPrecision; image-rendering:optimizeQuality; color-rendering:optimizeQuality; stroke-linejoin:bevel; stroke-dasharray:10,6; stroke:red; color-interpolation:linearRGB; stroke-width:0.5; stroke-miterlimit:1;"
    ><path d="M73.868 60.4964 L74.736 62.8009 L75.604 66.729 L76.472 72.9151 L77.34 82.4381 L78.208 98.7506 L79.076 112.3326 L79.944 124.5765 L80.812 134.0171 L81.68 144.3935 L82.548 150.9547 L83.416 153.1651 L84.284 153.7718 L85.152 153.8936 L86.02 153.8936 L86.888 153.9434 L87.756 153.9434 L88.624 153.9434 L89.492 153.9434 L90.36 153.9434 L91.228 153.9434 L92.096 153.9434 L92.964 153.9434 L93.832 153.9434 L94.7 153.9434 L95.568 153.9434 L96.436 154.1586 L97.304 154.8597 L98.172 155.7092 L99.04 156.5101 L99.908 157.1377 L100.776 157.313 L101.644 157.4088 L102.512 157.4654 L103.38 157.6133 L104.248 157.6856 L105.116 157.6856 L105.984 157.6856 L106.852 157.6856 L107.72 157.8126 L108.588 157.8585 L109.456 158.0676 L110.324 158.2231 L111.192 158.3809 L112.06 158.6585 L112.928 158.9079 L113.796 159.2273 L114.664 159.5314 L115.532 159.8519 L116.4 160.118 L117.268 160.8587 L118.136 161.2302 L119.004 161.9593 L119.872 162.6384 L120.74 163.4625 L121.608 163.9033 L122.476 164.9545 L123.344 165.3198 L124.212 166.054 L125.08 166.559 L125.948 167.3138 L126.816 167.9079 L127.684 168.6817 L128.552 169.1016 L129.42 169.9558 L130.288 170.4682 L131.156 170.8749 L132.024 171.6127 L132.892 172.2912 L133.76 172.8459 L134.628 173.5397 L135.496 174.1059 L136.364 174.7937 L137.232 175.6273 L138.1 176.2097 L138.968 177.3044 L139.836 177.8448 L140.704 178.2164 L141.572 179.0807 L142.44 179.7672 L143.308 180.4069 L144.176 181.0067 L145.044 181.7378 L145.912 182.679 L146.78 183.3031 L147.648 183.8554 L148.516 184.5686 L149.384 185.6889 L150.252 186.259 L151.12 187.1942 L151.988 187.8804 L152.856 188.7662 L153.724 189.3183 L154.592 190.4431 L155.46 191.1024 L156.328 192.3239 L157.196 193.1151 L158.064 193.8577 L158.932 194.8103 L159.8 195.7315 L160.668 196.3199 L161.536 196.9707 L162.404 197.8181 L163.272 198.7978 L164.14 199.4653 L165.008 200.0627 L165.876 200.9627 L166.744 201.8427 L167.612 202.5469 L168.48 203.7475 L169.348 204.3929 L170.216 205.0663 L171.084 206.016 L171.952 206.6755 L172.82 207.1714 L173.688 207.9746 L174.556 208.9227 L175.424 209.6068 L176.292 210.0682 L177.16 210.9163 L178.028 211.8341 L178.896 212.5299 L179.764 213.2898 L180.632 214.0176 L181.5 214.7362 L182.368 215.2886 L183.236 216.1172 L184.104 216.9924 L184.972 217.6488 L185.84 218.0649 L186.708 218.9906 L187.576 219.7482 L188.444 220.4194 L189.312 221.1671 L190.18 221.9536 L191.048 222.5503 L191.916 223.0221 L192.784 223.7957 L193.652 224.5814 L194.52 225.208 L195.388 225.5483 L196.256 226.358 L197.124 227.0436 L197.992 227.5938 L198.86 228.2301 L199.728 228.9049 L200.596 229.5211 L201.464 230.4555 L202.332 230.9943 L203.2 231.9751 L204.068 232.702 L204.936 232.9299 L205.804 233.9549 L206.672 234.4817 L207.54 235.4214 L208.408 236.0719 L209.276 236.435 L210.144 237.4656 L211.012 238.1216 L211.88 238.3429 L212.748 239.0905 L213.616 239.7223 L214.484 240.3807 L215.352 240.7304 L216.22 241.4702 L217.088 242.1253 L217.956 242.6792 L218.824 243.0403 L219.692 243.7585 L220.56 244.4335 L221.428 244.9799 L222.296 245.3277 L223.164 246.0582 L224.032 246.6882 L224.9 247.2893 L225.768 247.8367 L226.636 248.5331 L227.504 249.0325 L228.372 249.4371 L229.24 250.1489 L230.108 250.6671 L230.976 251.327 L231.844 251.9429 L232.712 252.5049 L233.58 253.2565 L234.448 253.7783 L235.316 254.2139 L236.184 254.8556 L237.052 255.3366 L237.92 255.6523 L238.788 256.2448 L239.656 256.809 L240.524 257.2958 L241.392 257.6322 L242.26 258.1574 L243.128 258.7316 L243.996 259.2049 L244.864 259.6585 L245.732 260.2656 L246.6 260.7262 L247.468 261.1379 L248.336 261.7234 L249.204 262.2341 L250.072 262.7032 L250.94 263.2611 L251.808 263.7544 L252.676 264.3488 L253.544 264.7808 L254.412 265.0617 L255.28 265.4891 L256.148 266.0034 L257.016 266.4391 L257.884 266.8257 L258.752 267.2997 L259.62 267.709 L260.488 268.1346 L261.356 268.6105 L262.224 269.0321 L263.092 269.4277 L263.96 269.9311 L264.828 270.344 L265.696 270.751 L266.564 271.1727 L267.432 271.5875 L268.3 272.0407 L269.168 272.4533 L270.036 272.7034 L270.904 273.1483 L271.772 273.5083 L272.64 273.9602 L273.508 274.3137 L274.376 274.5126 L275.244 274.7854 L276.112 275.197 L276.98 275.5045 L277.848 275.8108 L278.716 276.2249 L279.584 276.5685 L280.452 276.7585 L281.32 277.0748 L282.188 277.4263 L283.056 277.7278 L283.924 278.0014 L284.792 278.3428 L285.66 278.6639 L286.528 279.0207 L287.396 279.3624 L288.264 279.6714 L289.132 280.0412 L290 280.4757 L290.868 280.8406 L291.736 281.2216 L292.604 281.4903 L293.472 281.9197 L294.34 282.2732 L295.208 282.5841 L296.076 282.917 L296.944 283.1576 L297.812 283.3802 L298.68 283.7128 L299.548 284.0208 L300.416 284.2011 L301.284 284.4071 L302.152 284.6913 L303.02 284.9902 L303.888 285.1874 L304.756 285.5054 L305.624 285.7876 L306.492 285.9352 L307.36 286.1431 L308.228 286.4277 L309.096 286.6769 L309.964 286.909 L310.832 287.1801 L311.7 287.4418 L312.568 287.6396 L313.436 287.884 L314.304 288.1146 L315.172 288.3094 L316.04 288.5157 L316.908 288.7091 L317.776 288.9471 L318.644 289.1485 L319.512 289.3553 L320.38 289.5381 L321.248 289.7123 L322.116 289.9515 L322.984 290.1829 L323.852 290.3298 L324.72 290.4411 L325.588 290.6682 L326.456 290.83 L327.324 290.9441 L328.192 291.1079 L329.06 291.2594 L329.928 291.4292 L330.796 291.5318 L331.664 291.6546 L332.532 291.812 L333.4 291.9504 L334.268 292.0656 L335.136 292.1835 L336.004 292.3304 L336.872 292.4353 L337.74 292.5436 L338.608 292.6534 L339.476 292.7632 L340.344 292.8672 L341.212 292.9681 L342.08 293.0837 L342.948 293.1752 L343.816 293.2376 L344.684 293.3342 L345.552 293.4515 L346.42 293.5681 L347.288 293.6544 L348.156 293.7473 L349.024 293.8794 L349.892 294.0161 L350.76 294.1223 L351.628 294.2509 L352.496 294.393 L353.364 294.5345 L354.232 294.6565 L355.1 294.791 L355.968 294.8915 L356.836 295.002 L357.704 295.1613 L358.572 295.3043 L359.44 295.419 L360.308 295.5337 L361.176 295.6669 L362.044 295.8163 L362.912 295.9376 L363.78 296.0897 L364.648 296.219 L365.516 296.3303 L366.384 296.469 L367.252 296.6167 L368.12 296.7432 L368.988 296.8585 L369.856 296.9902 L370.724 297.1792 L371.592 297.2874 L372.46 297.4323 L373.328 297.5861 L374.196 297.7086 L375.064 297.8322 L375.932 297.9417 L376.8 298.0253 L377.668 298.1564 L378.536 298.2933 L379.404 298.4226 L380.272 298.4993 L381.14 298.5655 L382.008 298.6555 L382.876 298.7799 L383.744 298.8773 L384.612 298.9611 L385.48 299.0755 L386.348 299.1836 L387.216 299.2876 L388.084 299.4073 L388.952 299.5269 L389.82 299.6193 L390.688 299.697 L391.556 299.7784 L392.424 299.9013 L393.292 300.001 L394.16 300.0644 L395.028 300.1437 L395.896 300.2239 L396.764 300.2931 L397.632 300.3603 L398.5 300.4353 L399.368 300.4895 L400.236 300.5485 L401.104 300.6245 L401.972 300.674 L402.84 300.729 L403.708 300.7733 L404.576 300.84 L405.444 300.9123 L406.312 300.9598 L407.18 301.003 L408.048 301.0597 L408.916 301.0959 L409.784 301.1324 L410.652 301.1718 L411.52 301.2106 L412.388 301.251 L413.256 301.2999 L414.124 301.3455 L414.992 301.3698 L415.86 301.4034 L416.728 301.4389 L417.596 301.4744 L418.464 301.512 L419.332 301.5335 L420.2 301.574 L421.068 301.608 L421.936 301.6432 L422.804 301.6731 L423.672 301.7126 L424.54 301.7435 L425.408 301.7724 L426.276 301.8017 L427.144 301.8324 L428.012 301.8567 L428.88 301.8768 L429.748 301.8981 L430.616 301.921 L431.484 301.9481 L432.352 301.9688 L433.22 301.9798 L434.088 302.006 L434.956 302.0329 L435.824 302.0484 L436.692 302.0635 L437.56 302.0828 L438.428 302.1006 L439.296 302.1153 L440.164 302.1313 L441.032 302.1461 L441.9 302.1587 L442.768 302.1713 L443.636 302.1821 L444.504 302.1971 L445.372 302.2141 L446.24 302.2294 L447.108 302.2407 L447.976 302.255 L448.844 302.2641 L449.712 302.2749 L450.58 302.2876 L451.448 302.3024 L452.316 302.3153 L453.184 302.3246 L454.052 302.3343 L454.92 302.3452 L455.788 302.3536 L456.656 302.3666 L457.524 302.3766 L458.392 302.3855 L459.26 302.3907 L460.128 302.396 L460.996 302.403 L461.864 302.4121 L462.732 302.4191 L463.6 302.4275 L464.468 302.4325 L465.336 302.4398 L466.204 302.4475 L467.072 302.4526 L467.94 302.4581 L468.808 302.4623 L469.676 302.4676 L470.544 302.4717 L471.412 302.4781 L472.28 302.4817 L473.148 302.487 L474.016 302.4902 L474.884 302.4951 L475.752 302.5016 L476.62 302.5068 L477.488 302.5131 L478.356 302.5171 L479.224 302.5218 L480.092 302.5277 L480.96 302.5311 L481.828 302.535 L482.696 302.5369 L483.564 302.5383 L484.432 302.5409 L485.3 302.5432 L486.168 302.5451 L487.036 302.547 L487.904 302.5488 L488.772 302.55 L489.64 302.5519 L490.508 302.5543 L491.376 302.5559 L492.244 302.557 L493.112 302.5585 L493.98 302.5593 L494.848 302.5598 L495.716 302.5604 L496.584 302.5609 L497.452 302.5613 L498.32 302.5618 L499.188 302.5625 L500.056 302.5629 L500.924 302.5631 L501.792 302.5633 L502.66 302.5636 L503.528 302.564 L504.396 302.5642 L505.264 302.5644 L506.132 302.5645 L507 302.5646" style="fill:none; fill-rule:evenodd;"
    /></g
    ><g transform="translate(73.868,60.4964)" style="stroke-linecap:butt; fill:red; text-rendering:geometricPrecision; color-rendering:optimizeQuality; image-rendering:optimizeQuality; color-interpolation:linearRGB; stroke:red;"
    ><circle r="3" style="fill:none;" cx="0" cy="0"
      /><circle r="3" style="fill:none;" cx="0" transform="translate(17.36,93.4471)" cy="0"
      /><circle r="3" style="fill:none;" cx="0" transform="translate(34.72,97.3621)" cy="0"
      /><circle r="3" style="fill:none;" cx="0" transform="translate(52.08,106.8174)" cy="0"
      /><circle r="3" style="fill:none;" cx="0" transform="translate(69.44,119.9105)" cy="0"
      /><circle r="3" style="fill:none;" cx="0" transform="translate(86.8,135.8235)" cy="0"
      /><circle r="3" style="fill:none;" cx="0" transform="translate(104.16,151.3377)" cy="0"
      /><circle r="3" style="fill:none;" cx="0" transform="translate(121.52,165.0519)" cy="0"
      /><circle r="3" style="fill:none;" cx="0" transform="translate(138.88,178.5941)" cy="0"
      /><circle r="3" style="fill:none;" cx="0" transform="translate(156.24,190.1708)" cy="0"
      /><circle r="3" style="fill:none;" cx="0" transform="translate(173.6,200.6415)" cy="0"
      /><circle r="3" style="fill:none;" cx="0" transform="translate(190.96,209.8476)" cy="0"
      /><circle r="3" style="fill:none;" cx="0" transform="translate(208.32,216.9299)" cy="0"
      /><circle r="3" style="fill:none;" cx="0" transform="translate(225.68,223.5245)" cy="0"
      /><circle r="3" style="fill:none;" cx="0" transform="translate(243.04,228.2128)" cy="0"
      /><circle r="3" style="fill:none;" cx="0" transform="translate(260.4,231.5693)" cy="0"
      /><circle r="3" style="fill:none;" cx="0" transform="translate(277.76,233.7546)" cy="0"
      /><circle r="3" style="fill:none;" cx="0" transform="translate(295.12,236.3621)" cy="0"
      /><circle r="3" style="fill:none;" cx="0" transform="translate(312.48,238.6872)" cy="0"
      /><circle r="3" style="fill:none;" cx="0" transform="translate(329.84,240.2769)" cy="0"
      /><circle r="3" style="fill:none;" cx="0" transform="translate(347.2,241.1117)" cy="0"
      /><circle r="3" style="fill:none;" cx="0" transform="translate(364.56,241.6043)" cy="0"
      /><circle r="3" style="fill:none;" cx="0" transform="translate(381.92,241.8572)" cy="0"
      /><circle r="3" style="fill:none;" cx="0" transform="translate(399.28,241.9906)" cy="0"
      /><circle r="3" style="fill:none;" cx="0" transform="translate(416.64,242.0579)" cy="0"
    /></g
    ><g style="stroke-linecap:butt; text-rendering:geometricPrecision; image-rendering:optimizeQuality; color-rendering:optimizeQuality; stroke-linejoin:bevel; stroke-dasharray:10,6; color-interpolation:linearRGB; stroke-width:0.5; stroke-miterlimit:1;"
    ><path d="M73.868 343.215 L74.736 343.215 L75.604 343.215 L76.472 343.215 L77.34 343.215 L78.208 343.215 L79.076 343.215 L79.944 343.215 L80.812 343.215 L81.68 343.215 L82.548 343.215 L83.416 343.215 L84.284 343.215 L85.152 343.215 L86.02 343.215 L86.888 343.215 L87.756 343.215 L88.624 343.215 L89.492 343.215 L90.36 343.215 L91.228 343.215 L92.096 343.215 L92.964 343.215 L93.832 343.215 L94.7 343.215 L95.568 343.215 L96.436 343.215 L97.304 343.215 L98.172 343.215 L99.04 343.215 L99.908 343.215 L100.776 343.215 L101.644 343.215 L102.512 343.215 L103.38 343.215 L104.248 343.215 L105.116 343.215 L105.984 343.215 L106.852 343.215 L107.72 343.215 L108.588 343.215 L109.456 343.215 L110.324 343.215 L111.192 343.215 L112.06 343.215 L112.928 343.215 L113.796 343.215 L114.664 343.215 L115.532 343.215 L116.4 343.215 L117.268 343.215 L118.136 343.215 L119.004 343.215 L119.872 343.215 L120.74 343.215 L121.608 343.215 L122.476 343.215 L123.344 343.215 L124.212 343.215 L125.08 343.215 L125.948 343.215 L126.816 343.215 L127.684 343.215 L128.552 343.215 L129.42 343.215 L130.288 343.215 L131.156 343.215 L132.024 343.215 L132.892 343.215 L133.76 343.215 L134.628 343.215 L135.496 343.215 L136.364 343.215 L137.232 343.215 L138.1 343.215 L138.968 343.215 L139.836 343.215 L140.704 343.215 L141.572 343.215 L142.44 343.215 L143.308 343.215 L144.176 343.215 L145.044 343.215 L145.912 343.215 L146.78 343.215 L147.648 343.215 L148.516 343.215 L149.384 343.215 L150.252 343.215 L151.12 343.215 L151.988 343.215 L152.856 343.215 L153.724 343.215 L154.592 343.215 L155.46 343.215 L156.328 343.215 L157.196 343.215 L158.064 343.215 L158.932 343.215 L159.8 343.215 L160.668 343.215 L161.536 343.215 L162.404 343.215 L163.272 343.215 L164.14 343.215 L165.008 343.215 L165.876 343.215 L166.744 343.215 L167.612 343.215 L168.48 343.215 L169.348 343.215 L170.216 343.215 L171.084 343.215 L171.952 343.215 L172.82 343.215 L173.688 343.215 L174.556 343.215 L175.424 343.215 L176.292 343.215 L177.16 343.215 L178.028 343.215 L178.896 343.215 L179.764 343.215 L180.632 343.215 L181.5 343.215 L182.368 343.215 L183.236 343.215 L184.104 343.215 L184.972 343.215 L185.84 343.215 L186.708 343.215 L187.576 343.215 L188.444 343.215 L189.312 343.215 L190.18 343.215 L191.048 343.215 L191.916 343.215 L192.784 343.215 L193.652 343.215 L194.52 343.215 L195.388 343.215 L196.256 343.215 L197.124 343.215 L197.992 343.215 L198.86 343.215 L199.728 343.215 L200.596 343.215 L201.464 343.215 L202.332 343.215 L203.2 343.215 L204.068 343.215 L204.936 343.215 L205.804 343.215 L206.672 343.215 L207.54 343.215 L208.408 343.215 L209.276 343.215 L210.144 343.215 L211.012 343.215 L211.88 343.215 L212.748 343.215 L213.616 343.215 L214.484 343.215 L215.352 343.215 L216.22 343.215 L217.088 343.215 L217.956 343.215 L218.824 343.215 L219.692 343.215 L220.56 343.215 L221.428 343.215 L222.296 343.215 L223.164 343.215 L224.032 343.215 L224.9 343.215 L225.768 343.215 L226.636 343.215 L227.504 343.215 L228.372 343.215 L229.24 343.215 L230.108 343.215 L230.976 343.215 L231.844 343.215 L232.712 343.215 L233.58 343.215 L234.448 343.215 L235.316 343.215 L236.184 343.215 L237.052 343.215 L237.92 343.215 L238.788 343.215 L239.656 343.215 L240.524 343.215 L241.392 343.215 L242.26 343.215 L243.128 343.215 L243.996 343.215 L244.864 343.215 L245.732 343.215 L246.6 343.215 L247.468 343.215 L248.336 343.215 L249.204 343.215 L250.072 343.215 L250.94 343.215 L251.808 343.215 L252.676 343.215 L253.544 343.215 L254.412 343.215 L255.28 343.215 L256.148 343.215 L257.016 343.215 L257.884 343.215 L258.752 343.215 L259.62 343.215 L260.488 343.215 L261.356 343.215 L262.224 343.215 L263.092 343.215 L263.96 343.215 L264.828 343.215 L265.696 343.215 L266.564 343.215 L267.432 343.215 L268.3 343.215 L269.168 343.215 L270.036 343.215 L270.904 343.215 L271.772 343.215 L272.64 343.215 L273.508 343.215 L274.376 343.215 L275.244 343.215 L276.112 343.215 L276.98 343.215 L277.848 343.215 L278.716 343.215 L279.584 343.215 L280.452 343.215 L281.32 343.215 L282.188 343.215 L283.056 343.215 L283.924 343.215 L284.792 343.215 L285.66 343.215 L286.528 343.215 L287.396 343.215 L288.264 343.215 L289.132 343.215 L290 343.215 L290.868 343.215 L291.736 343.215 L292.604 343.215 L293.472 343.215 L294.34 343.215 L295.208 343.215 L296.076 343.215 L296.944 343.215 L297.812 343.215 L298.68 343.215 L299.548 343.215 L300.416 343.215 L301.284 343.215 L302.152 343.215 L303.02 343.215 L303.888 343.215 L304.756 343.215 L305.624 343.215 L306.492 343.215 L307.36 343.215 L308.228 343.215 L309.096 343.215 L309.964 343.215 L310.832 343.215 L311.7 343.215 L312.568 343.215 L313.436 343.215 L314.304 343.215 L315.172 343.215 L316.04 343.215 L316.908 343.215 L317.776 343.215 L318.644 343.215 L319.512 343.215 L320.38 343.215 L321.248 343.215 L322.116 343.215 L322.984 343.215 L323.852 343.215 L324.72 343.215 L325.588 343.215 L326.456 343.215 L327.324 343.215 L328.192 343.215 L329.06 343.215 L329.928 343.215 L330.796 343.215 L331.664 343.215 L332.532 343.215 L333.4 343.215 L334.268 343.215 L335.136 343.215 L336.004 343.215 L336.872 343.215 L337.74 343.215 L338.608 343.215 L339.476 343.215 L340.344 343.215 L341.212 343.215 L342.08 343.215 L342.948 343.215 L343.816 343.215 L344.684 343.215 L345.552 343.215 L346.42 343.215 L347.288 343.215 L348.156 343.215 L349.024 343.215 L349.892 343.215 L350.76 343.215 L351.628 343.215 L352.496 343.215 L353.364 343.215 L354.232 343.215 L355.1 343.215 L355.968 343.215 L356.836 343.215 L357.704 343.215 L358.572 343.215 L359.44 343.215 L360.308 343.215 L361.176 343.215 L362.044 343.215 L362.912 343.215 L363.78 343.215 L364.648 343.215 L365.516 343.215 L366.384 343.215 L367.252 343.215 L368.12 343.215 L368.988 343.215 L369.856 343.215 L370.724 343.215 L371.592 343.215 L372.46 343.215 L373.328 343.215 L374.196 343.215 L375.064 343.215 L375.932 343.215 L376.8 343.215 L377.668 343.215 L378.536 343.215 L379.404 343.215 L380.272 343.215 L381.14 343.215 L382.008 343.215 L382.876 343.215 L383.744 343.215 L384.612 343.215 L385.48 343.215 L386.348 343.215 L387.216 343.215 L388.084 343.215 L388.952 343.215 L389.82 343.215 L390.688 343.215 L391.556 343.215 L392.424 343.215 L393.292 343.215 L394.16 343.215 L395.028 343.215 L395.896 343.215 L396.764 343.215 L397.632 343.215 L398.5 343.215 L399.368 343.215 L400.236 343.215 L401.104 343.215 L401.972 343.215 L402.84 343.215 L403.708 343.215 L404.576 343.215 L405.444 343.215 L406.312 343.215 L407.18 343.215 L408.048 343.215 L408.916 343.215 L409.784 343.215 L410.652 343.215 L411.52 343.215 L412.388 343.215 L413.256 343.215 L414.124 343.215 L414.992 343.215 L415.86 343.215 L416.728 343.215 L417.596 343.215 L418.464 343.215 L419.332 343.215 L420.2 343.215 L421.068 343.215 L421.936 343.215 L422.804 343.215 L423.672 343.215 L424.54 343.215 L425.408 343.215 L426.276 343.215 L427.144 343.215 L428.012 343.215 L428.88 343.215 L429.748 343.215 L430.616 343.215 L431.484 343.215 L432.352 343.215 L433.22 343.215 L434.088 343.215 L434.956 343.215 L435.824 343.215 L436.692 343.215 L437.56 343.215 L438.428 343.215 L439.296 343.215 L440.164 343.215 L441.032 343.215 L441.9 343.215 L442.768 343.215 L443.636 343.215 L444.504 343.215 L445.372 343.215 L446.24 343.215 L447.108 343.215 L447.976 343.215 L448.844 343.215 L449.712 343.215 L450.58 343.215 L451.448 343.215 L452.316 343.215 L453.184 343.215 L454.052 343.215 L454.92 343.215 L455.788 343.215 L456.656 343.215 L457.524 343.215 L458.392 343.215 L459.26 343.215 L460.128 343.215 L460.996 343.215 L461.864 343.215 L462.732 343.215 L463.6 343.215 L464.468 343.215 L465.336 343.215 L466.204 343.215 L467.072 343.215 L467.94 343.215 L468.808 343.215 L469.676 343.215 L470.544 343.215 L471.412 343.215 L472.28 343.215 L473.148 343.215 L474.016 343.215 L474.884 343.215 L475.752 343.215 L476.62 343.215 L477.488 343.215 L478.356 343.215 L479.224 343.215 L480.092 343.215 L480.96 343.215 L481.828 343.215 L482.696 343.215 L483.564 343.215 L484.432 343.215 L485.3 343.215 L486.168 343.215 L487.036 343.215 L487.904 343.215 L488.772 343.215 L489.64 343.215 L490.508 343.215 L491.376 343.215 L492.244 343.215 L493.112 343.215 L493.98 343.215 L494.848 343.215 L495.716 343.215 L496.584 343.215 L497.452 343.215 L498.32 343.215 L499.188 343.215 L500.056 343.215 L500.924 343.215 L501.792 343.215 L502.66 343.215 L503.528 343.215 L504.396 343.215 L505.264 343.215 L506.132 343.215 L507 343.215" style="fill:none; fill-rule:evenodd;"
    /></g
    ><g transform="translate(73.868,343.215)" style="text-rendering:geometricPrecision; color-rendering:optimizeQuality; color-interpolation:linearRGB; stroke-linecap:butt; image-rendering:optimizeQuality;"
    ><path style="fill:none;" d="M-3 0 L0 3.99 L3 0 L0 -3.99 Z"
      /><path d="M-3 0 L0 3.99 L3 0 L0 -3.99 Z" style="fill:none;" transform="translate(17.36,0)"
      /><path d="M-3 0 L0 3.99 L3 0 L0 -3.99 Z" style="fill:none;" transform="translate(34.72,0)"
      /><path d="M-3 0 L0 3.99 L3 0 L0 -3.99 Z" style="fill:none;" transform="translate(52.08,0)"
      /><path d="M-3 0 L0 3.99 L3 0 L0 -3.99 Z" style="fill:none;" transform="translate(69.44,0)"
      /><path d="M-3 0 L0 3.99 L3 0 L0 -3.99 Z" style="fill:none;" transform="translate(86.8,0)"
      /><path d="M-3 0 L0 3.99 L3 0 L0 -3.99 Z" style="fill:none;" transform="translate(104.16,0)"
      /><path d="M-3 0 L0 3.99 L3 0 L0 -3.99 Z" style="fill:none;" transform="translate(121.52,0)"
      /><path d="M-3 0 L0 3.99 L3 0 L0 -3.99 Z" style="fill:none;" transform="translate(138.88,0)"
      /><path d="M-3 0 L0 3.99 L3 0 L0 -3.99 Z" style="fill:none;" transform="translate(156.24,0)"
      /><path d="M-3 0 L0 3.99 L3 0 L0 -3.99 Z" style="fill:none;" transform="translate(173.6,0)"
      /><path d="M-3 0 L0 3.99 L3 0 L0 -3.99 Z" style="fill:none;" transform="translate(190.96,0)"
      /><path d="M-3 0 L0 3.99 L3 0 L0 -3.99 Z" style="fill:none;" transform="translate(208.32,0)"
      /><path d="M-3 0 L0 3.99 L3 0 L0 -3.99 Z" style="fill:none;" transform="translate(225.68,0)"
      /><path d="M-3 0 L0 3.99 L3 0 L0 -3.99 Z" style="fill:none;" transform="translate(243.04,0)"
      /><path d="M-3 0 L0 3.99 L3 0 L0 -3.99 Z" style="fill:none;" transform="translate(260.4,0)"
      /><path d="M-3 0 L0 3.99 L3 0 L0 -3.99 Z" style="fill:none;" transform="translate(277.76,0)"
      /><path d="M-3 0 L0 3.99 L3 0 L0 -3.99 Z" style="fill:none;" transform="translate(295.12,0)"
      /><path d="M-3 0 L0 3.99 L3 0 L0 -3.99 Z" style="fill:none;" transform="translate(312.48,0)"
      /><path d="M-3 0 L0 3.99 L3 0 L0 -3.99 Z" style="fill:none;" transform="translate(329.84,0)"
      /><path d="M-3 0 L0 3.99 L3 0 L0 -3.99 Z" style="fill:none;" transform="translate(347.2,0)"
      /><path d="M-3 0 L0 3.99 L3 0 L0 -3.99 Z" style="fill:none;" transform="translate(364.56,0)"
      /><path d="M-3 0 L0 3.99 L3 0 L0 -3.99 Z" style="fill:none;" transform="translate(381.92,0)"
      /><path d="M-3 0 L0 3.99 L3 0 L0 -3.99 Z" style="fill:none;" transform="translate(399.28,0)"
      /><path d="M-3 0 L0 3.99 L3 0 L0 -3.99 Z" style="fill:none;" transform="translate(416.64,0)"
    /></g
    ><g style="fill:white; text-rendering:optimizeSpeed; color-rendering:optimizeSpeed; image-rendering:optimizeSpeed; shape-rendering:crispEdges; stroke:white; color-interpolation:sRGB;"
    ><path style="stroke:none;" d="M497 91 L497 41.5 L423 41.5 L423 91 Z"
    /></g
    ><g transform="translate(460,49)" style="font-size:9px; text-rendering:geometricPrecision; color-rendering:optimizeQuality; image-rendering:optimizeQuality; font-family:'Helvetica Neue'; color-interpolation:linearRGB;"
    ><text x="0" xml:space="preserve" y="3.5" style="stroke:none;"
      >MCGSA</text
    ></g
    ><g style="stroke-linecap:butt; fill:lime; text-rendering:geometricPrecision; image-rendering:optimizeQuality; color-rendering:optimizeQuality; stroke-linejoin:round; stroke:lime; color-interpolation:linearRGB; stroke-width:3;"
    ><line y2="49" style="fill:none;" x1="427" x2="457" y1="49"
    /></g
    ><g transform="translate(460,60.5)" style="font-size:9px; text-rendering:geometricPrecision; color-rendering:optimizeQuality; image-rendering:optimizeQuality; font-family:'Helvetica Neue'; color-interpolation:linearRGB;"
    ><text x="0" xml:space="preserve" y="3.5" style="stroke:none;"
      >GSA</text
    ></g
    ><g style="stroke-linecap:butt; fill:blue; text-rendering:geometricPrecision; image-rendering:optimizeQuality; color-rendering:optimizeQuality; stroke-linejoin:bevel; stroke-dasharray:12,12; stroke:blue; color-interpolation:linearRGB; stroke-width:3; stroke-miterlimit:1;"
    ><line y2="60.5" style="fill:none;" x1="427" x2="457" y1="60.5"
    /></g
    ><g transform="translate(460,72)" style="font-size:9px; text-rendering:geometricPrecision; color-rendering:optimizeQuality; image-rendering:optimizeQuality; font-family:'Helvetica Neue'; color-interpolation:linearRGB;"
    ><text x="0" xml:space="preserve" y="3.5" style="stroke:none;"
      >CGSA</text
    ></g
    ><g style="stroke-linecap:butt; fill:red; text-rendering:geometricPrecision; image-rendering:optimizeQuality; color-rendering:optimizeQuality; stroke-linejoin:bevel; stroke-dasharray:10,6; stroke:red; color-interpolation:linearRGB; stroke-width:0.5; stroke-miterlimit:1;"
    ><line y2="72" style="fill:none;" x1="427" x2="457" y1="72"
    /></g
    ><g transform="translate(442,72)" style="stroke-linecap:butt; fill:red; text-rendering:geometricPrecision; color-rendering:optimizeQuality; image-rendering:optimizeQuality; color-interpolation:linearRGB; stroke:red;"
    ><circle r="3" style="fill:none;" cx="0" cy="0"
    /></g
    ><g transform="translate(460,83.5)" style="font-size:9px; text-rendering:geometricPrecision; color-rendering:optimizeQuality; image-rendering:optimizeQuality; font-family:'Helvetica Neue'; color-interpolation:linearRGB;"
    ><text x="0" xml:space="preserve" y="3.5" style="stroke:none;"
      >MGSA</text
    ></g
    ><g style="stroke-linecap:butt; text-rendering:geometricPrecision; image-rendering:optimizeQuality; color-rendering:optimizeQuality; stroke-linejoin:bevel; stroke-dasharray:10,6; color-interpolation:linearRGB; stroke-width:0.5; stroke-miterlimit:1;"
    ><line y2="83.5" style="fill:none;" x1="427" x2="457" y1="83.5"
    /></g
    ><g transform="translate(442,83.5)" style="text-rendering:geometricPrecision; color-rendering:optimizeQuality; color-interpolation:linearRGB; stroke-linecap:butt; image-rendering:optimizeQuality;"
    ><path style="fill:none;" d="M-3 0 L0 3.99 L3 0 L0 -3.99 Z"
      /><path transform="translate(-442,-83.5)" style="fill:none; stroke-width:0.5; fill-rule:evenodd; stroke:rgb(38,38,38);" d="M423 91 L423 41.5 L497 41.5 L497 91 Z"
    /></g
  ></g
></svg
>
