<?xml version="1.0"?>
<!DOCTYPE svg PUBLIC '-//W3C//DTD SVG 1.0//EN'
          'http://www.w3.org/TR/2001/REC-SVG-20010904/DTD/svg10.dtd'>
<svg xmlns:xlink="http://www.w3.org/1999/xlink" style="fill-opacity:1; color-rendering:auto; color-interpolation:auto; text-rendering:auto; stroke:black; stroke-linecap:square; stroke-miterlimit:10; shape-rendering:auto; stroke-opacity:1; fill:black; stroke-dasharray:none; font-weight:normal; stroke-width:1; font-family:'Dialog'; font-style:normal; stroke-linejoin:miter; font-size:12px; stroke-dashoffset:0; image-rendering:auto;" width="560" height="420" xmlns="http://www.w3.org/2000/svg"
><!--Generated by the Batik Graphics2D SVG Generator--><defs id="genericDefs"
  /><g
  ><defs id="defs1"
    ><clipPath clipPathUnits="userSpaceOnUse" id="clipPath1"
      ><path d="M0 0 L560 0 L560 420 L0 420 L0 0 Z"
      /></clipPath
      ><font horiz-adv-x="50.0" id="font1"
      ><font-face ascent="95.200005" descent="21.3" units-per-em="100" style="font-style:normal; font-family:Helvetica Neue; font-weight:normal;"
        /><missing-glyph horiz-adv-x="50.0" d="M40.9 66.6 L10.2 66.6 L10.2 4.7 L40.9 4.7 ZM46 71.2 L46 0.1 L5.1 0.1 L5.1 71.2 Z"
        /><glyph unicode="0" horiz-adv-x="55.6" d="M13.2 34.9 Q13.2 37.5 13.25 40.65 Q13.3 43.8 13.75 46.95 Q14.2 50.1 15.05 53.1 Q15.9 56.1 17.55 58.35 Q19.2 60.6 21.7 62 Q24.2 63.4 27.8 63.4 Q31.4 63.4 33.9 62 Q36.4 60.6 38.05 58.35 Q39.7 56.1 40.55 53.1 Q41.4 50.1 41.85 46.95 Q42.3 43.8 42.35 40.65 Q42.4 37.5 42.4 34.9 Q42.4 30.9 42.15 25.95 Q41.9 21 40.55 16.65 Q39.2 12.3 36.2 9.3 Q33.2 6.3 27.8 6.3 Q22.4 6.3 19.4 9.3 Q16.4 12.3 15.05 16.65 Q13.7 21 13.45 25.95 Q13.2 30.9 13.2 34.9 ZM4.2 34.8 Q4.2 30.9 4.4 26.7 Q4.6 22.5 5.4 18.5 Q6.2 14.5 7.7 10.95 Q9.2 7.4 11.8 4.7 Q14.4 2 18.35 0.45 Q22.3 -1.1 27.8 -1.1 Q33.4 -1.1 37.3 0.45 Q41.2 2 43.8 4.7 Q46.4 7.4 47.9 10.95 Q49.4 14.5 50.2 18.5 Q51 22.5 51.2 26.7 Q51.4 30.9 51.4 34.8 Q51.4 38.7 51.2 42.9 Q51 47.1 50.2 51.1 Q49.4 55.1 47.9 58.7 Q46.4 62.3 43.8 65 Q41.2 67.7 37.25 69.3 Q33.3 70.9 27.8 70.9 Q22.3 70.9 18.35 69.3 Q14.4 67.7 11.8 65 Q9.2 62.3 7.7 58.7 Q6.2 55.1 5.4 51.1 Q4.6 47.1 4.4 42.9 Q4.2 38.7 4.2 34.8 Z"
        /><glyph unicode="5" horiz-adv-x="55.6" d="M47 62.2 L47 69.7 L12 69.7 L5.4 32.9 L12.7 32.5 Q15.2 35.5 18.45 37.35 Q21.7 39.2 25.9 39.2 Q29.5 39.2 32.45 38 Q35.4 36.8 37.5 34.65 Q39.6 32.5 40.75 29.55 Q41.9 26.6 41.9 23.1 Q41.9 18.9 40.7 15.75 Q39.5 12.6 37.45 10.5 Q35.4 8.4 32.65 7.35 Q29.9 6.3 26.9 6.3 Q23.7 6.3 21.05 7.25 Q18.4 8.2 16.45 9.95 Q14.5 11.7 13.35 14.05 Q12.2 16.4 12 19.1 L3.5 19.1 Q3.6 14.3 5.4 10.5 Q7.2 6.7 10.3 4.15 Q13.4 1.6 17.45 0.25 Q21.5 -1.1 26.1 -1.1 Q32.3 -1.1 36.95 0.85 Q41.6 2.8 44.7 6.1 Q47.8 9.4 49.35 13.65 Q50.9 17.9 50.9 22.4 Q50.9 28.5 49.1 33.05 Q47.3 37.6 44.2 40.65 Q41.1 43.7 36.9 45.2 Q32.7 46.7 28 46.7 Q24.4 46.7 20.75 45.45 Q17.1 44.2 14.8 41.6 L14.6 41.8 L18.4 62.2 Z"
        /><glyph unicode="1" horiz-adv-x="55.6" d="M35.6 0 L35.6 70.9 L29.1 70.9 Q28.4 66.9 26.5 64.3 Q24.6 61.7 21.85 60.2 Q19.1 58.7 15.7 58.15 Q12.3 57.6 8.7 57.6 L8.7 50.8 L27.1 50.8 L27.1 0 Z"
        /><glyph unicode="2" horiz-adv-x="55.6" d="M4.4 45.8 L12.9 45.8 Q12.8 49 13.55 52.15 Q14.3 55.3 16 57.8 Q17.7 60.3 20.35 61.85 Q23 63.4 26.7 63.4 Q29.5 63.4 32 62.5 Q34.5 61.6 36.35 59.9 Q38.2 58.2 39.3 55.85 Q40.4 53.5 40.4 50.6 Q40.4 46.9 39.25 44.1 Q38.1 41.3 35.85 38.9 Q33.6 36.5 30.2 34.15 Q26.8 31.8 22.3 29 Q18.6 26.8 15.2 24.3 Q11.8 21.8 9.1 18.5 Q6.4 15.2 4.65 10.75 Q2.9 6.3 2.4 0 L48.7 0 L48.7 7.5 L12.3 7.5 Q12.9 10.8 14.85 13.35 Q16.8 15.9 19.55 18.1 Q22.3 20.3 25.6 22.25 Q28.9 24.2 32.2 26.2 Q35.5 28.3 38.6 30.6 Q41.7 32.9 44.1 35.75 Q46.5 38.6 47.95 42.2 Q49.4 45.8 49.4 50.5 Q49.4 55.5 47.65 59.3 Q45.9 63.1 42.9 65.65 Q39.9 68.2 35.85 69.55 Q31.8 70.9 27.2 70.9 Q21.6 70.9 17.2 69 Q12.8 67.1 9.85 63.75 Q6.9 60.4 5.5 55.8 Q4.1 51.2 4.4 45.8 Z"
        /><glyph unicode="3" horiz-adv-x="55.6" d="M21.8 40.5 L21.8 33.3 Q24.2 33.6 26.9 33.6 Q30.1 33.6 32.85 32.75 Q35.6 31.9 37.6 30.15 Q39.6 28.4 40.8 25.85 Q42 23.3 42 20 Q42 16.8 40.75 14.25 Q39.5 11.7 37.4 9.95 Q35.3 8.2 32.5 7.25 Q29.7 6.3 26.6 6.3 Q19.3 6.3 15.5 10.65 Q11.7 15 11.5 21.9 L3 21.9 Q2.9 16.4 4.55 12.1 Q6.2 7.8 9.3 4.85 Q12.4 1.9 16.8 0.4 Q21.2 -1.1 26.6 -1.1 Q31.6 -1.1 36.05 0.25 Q40.5 1.6 43.8 4.3 Q47.1 7 49.05 11.05 Q51 15.1 51 20.4 Q51 26.8 47.85 31.5 Q44.7 36.2 38.2 37.6 L38.2 37.8 Q42.4 39.7 45.2 43.4 Q48 47.1 48 51.9 Q48 56.8 46.35 60.4 Q44.7 64 41.8 66.3 Q38.9 68.6 34.95 69.75 Q31 70.9 26.4 70.9 Q21.1 70.9 17.05 69.2 Q13 67.5 10.3 64.5 Q7.6 61.5 6.15 57.3 Q4.7 53.1 4.5 48 L13 48 Q13 51.1 13.8 53.9 Q14.6 56.7 16.25 58.8 Q17.9 60.9 20.45 62.15 Q23 63.4 26.4 63.4 Q31.8 63.4 35.4 60.55 Q39 57.7 39 52 Q39 49.2 37.9 47 Q36.8 44.8 34.95 43.35 Q33.1 41.9 30.65 41.15 Q28.2 40.4 25.5 40.4 L23.7 40.4 Q23.2 40.4 22.7 40.4 Q22.3 40.4 21.8 40.5 Z"
        /><glyph unicode="4" horiz-adv-x="55.6" d="M33.9 24.1 L10.1 24.1 L33.7 58.8 L33.9 58.8 ZM41.9 24.1 L41.9 70.9 L35.1 70.9 L2.8 24.8 L2.8 16.6 L33.9 16.6 L33.9 0 L41.9 0 L41.9 16.6 L51.5 16.6 L51.5 24.1 Z"
        /><glyph unicode="s" horiz-adv-x="50.0" d="M11.6 16.3 L3.1 16.3 Q3.3 11.5 5.1 8.15 Q6.9 4.8 9.9 2.75 Q12.9 0.7 16.8 -0.2 Q20.7 -1.1 25 -1.1 Q28.9 -1.1 32.85 -0.35 Q36.8 0.4 39.95 2.3 Q43.1 4.2 45.05 7.3 Q47 10.4 47 15.1 Q47 18.8 45.55 21.3 Q44.1 23.8 41.75 25.45 Q39.4 27.1 36.35 28.1 Q33.3 29.1 30.1 29.8 Q27.1 30.5 24.1 31.15 Q21.1 31.8 18.7 32.75 Q16.3 33.7 14.75 35.15 Q13.2 36.6 13.2 38.8 Q13.2 40.8 14.2 42.05 Q15.2 43.3 16.8 44.05 Q18.4 44.8 20.35 45.1 Q22.3 45.4 24.2 45.4 Q26.3 45.4 28.35 44.95 Q30.4 44.5 32.1 43.5 Q33.8 42.5 34.9 40.85 Q36 39.2 36.2 36.7 L44.7 36.7 Q44.4 41.4 42.7 44.55 Q41 47.7 38.15 49.55 Q35.3 51.4 31.6 52.15 Q27.9 52.9 23.5 52.9 Q20.1 52.9 16.65 52.05 Q13.2 51.2 10.45 49.45 Q7.7 47.7 5.95 44.9 Q4.2 42.1 4.2 38.2 Q4.2 33.2 6.7 30.4 Q9.2 27.6 12.95 26.05 Q16.7 24.5 21.1 23.65 Q25.5 22.8 29.25 21.75 Q33 20.7 35.5 19 Q38 17.3 38 14 Q38 11.6 36.8 10.05 Q35.6 8.5 33.75 7.7 Q31.9 6.9 29.7 6.6 Q27.5 6.3 25.5 6.3 Q22.9 6.3 20.45 6.8 Q18 7.3 16.05 8.45 Q14.1 9.6 12.9 11.55 Q11.7 13.5 11.6 16.3 Z"
        /><glyph unicode="n" horiz-adv-x="55.6" d="M6.4 51.7 L6.4 0 L14.9 0 L14.9 29.2 Q14.9 32.7 15.85 35.65 Q16.8 38.6 18.7 40.8 Q20.6 43 23.45 44.2 Q26.3 45.4 30.2 45.4 Q35.1 45.4 37.9 42.6 Q40.7 39.8 40.7 35 L40.7 0 L49.2 0 L49.2 34 Q49.2 38.2 48.35 41.65 Q47.5 45.1 45.4 47.6 Q43.3 50.1 39.9 51.5 Q36.5 52.9 31.4 52.9 Q19.9 52.9 14.6 43.5 L14.4 43.5 L14.4 51.7 Z"
        /><glyph unicode="o" horiz-adv-x="57.4" d="M12.6 25.8 Q12.6 30.5 13.85 34.15 Q15.1 37.8 17.3 40.3 Q19.5 42.8 22.45 44.1 Q25.4 45.4 28.7 45.4 Q32 45.4 34.95 44.1 Q37.9 42.8 40.1 40.3 Q42.3 37.8 43.55 34.15 Q44.8 30.5 44.8 25.8 Q44.8 21.1 43.55 17.45 Q42.3 13.8 40.1 11.35 Q37.9 8.9 34.95 7.6 Q32 6.3 28.7 6.3 Q25.4 6.3 22.45 7.6 Q19.5 8.9 17.3 11.35 Q15.1 13.8 13.85 17.45 Q12.6 21.1 12.6 25.8 ZM3.6 25.8 Q3.6 20.1 5.2 15.2 Q6.8 10.3 10 6.65 Q13.2 3 17.9 0.95 Q22.6 -1.1 28.7 -1.1 Q34.9 -1.1 39.55 0.95 Q44.2 3 47.4 6.65 Q50.6 10.3 52.2 15.2 Q53.8 20.1 53.8 25.8 Q53.8 31.5 52.2 36.45 Q50.6 41.4 47.4 45.05 Q44.2 48.7 39.55 50.8 Q34.9 52.9 28.7 52.9 Q22.6 52.9 17.9 50.8 Q13.2 48.7 10 45.05 Q6.8 41.4 5.2 36.45 Q3.6 31.5 3.6 25.8 Z"
        /><glyph unicode="i" horiz-adv-x="22.2" d="M15.4 61 L15.4 71.4 L6.9 71.4 L6.9 61 ZM6.9 51.7 L6.9 0 L15.4 0 L15.4 51.7 Z"
        /><glyph unicode="a" horiz-adv-x="53.7" d="M52.2 0.2 Q50 -1.1 46.1 -1.1 Q42.8 -1.1 40.85 0.75 Q38.9 2.6 38.9 6.8 Q35.4 2.6 30.75 0.75 Q26.1 -1.1 20.7 -1.1 Q17.2 -1.1 14.05 -0.3 Q10.9 0.5 8.6 2.2 Q6.3 3.9 4.95 6.65 Q3.6 9.4 3.6 13.3 Q3.6 17.7 5.1 20.5 Q6.6 23.3 9.05 25.05 Q11.5 26.8 14.65 27.7 Q17.8 28.6 21.1 29.2 Q24.6 29.9 27.75 30.25 Q30.9 30.6 33.3 31.25 Q35.7 31.9 37.1 33.15 Q38.5 34.4 38.5 36.8 Q38.5 39.6 37.45 41.3 Q36.4 43 34.75 43.9 Q33.1 44.8 31.05 45.1 Q29 45.4 27 45.4 Q21.6 45.4 18 43.35 Q14.4 41.3 14.1 35.6 L5.6 35.6 Q5.8 40.4 7.6 43.7 Q9.4 47 12.4 49.05 Q15.4 51.1 19.25 52 Q23.1 52.9 27.5 52.9 Q31 52.9 34.45 52.4 Q37.9 51.9 40.7 50.35 Q43.5 48.8 45.2 46 Q46.9 43.2 46.9 38.7 L46.9 12.1 Q46.9 9.1 47.25 7.7 Q47.6 6.3 49.6 6.3 Q50.7 6.3 52.2 6.8 ZM38.4 26.7 Q36.8 25.5 34.2 24.95 Q31.6 24.4 28.75 24.05 Q25.9 23.7 23 23.25 Q20.1 22.8 17.8 21.8 Q15.5 20.8 14.05 18.95 Q12.6 17.1 12.6 13.9 Q12.6 11.8 13.45 10.35 Q14.3 8.9 15.65 8 Q17 7.1 18.8 6.7 Q20.6 6.3 22.6 6.3 Q26.8 6.3 29.8 7.45 Q32.8 8.6 34.7 10.35 Q36.6 12.1 37.5 14.15 Q38.4 16.2 38.4 18 Z"
        /><glyph unicode="r" horiz-adv-x="33.3" d="M6.1 51.7 L6.1 0 L14.6 0 L14.6 23 Q14.6 28 15.6 31.85 Q16.6 35.7 18.8 38.4 Q21 41.1 24.6 42.5 Q28.2 43.9 33.3 43.9 L33.3 52.9 Q26.4 53.1 21.9 50.1 Q17.4 47.1 14.3 40.8 L14.1 40.8 L14.1 51.7 Z"
        /><glyph unicode="e" horiz-adv-x="53.7" d="M42.3 30.8 L12.6 30.8 Q12.8 33.8 13.9 36.45 Q15 39.1 16.9 41.1 Q18.8 43.1 21.45 44.25 Q24.1 45.4 27.4 45.4 Q30.6 45.4 33.25 44.25 Q35.9 43.1 37.85 41.15 Q39.8 39.2 40.95 36.5 Q42.1 33.8 42.3 30.8 ZM50.5 16.4 L42.1 16.4 Q41 11.3 37.55 8.8 Q34.1 6.3 28.7 6.3 Q24.5 6.3 21.4 7.7 Q18.3 9.1 16.3 11.45 Q14.3 13.8 13.4 16.85 Q12.5 19.9 12.6 23.3 L51.3 23.3 Q51.5 28 50.45 33.2 Q49.4 38.4 46.65 42.8 Q43.9 47.2 39.35 50.05 Q34.8 52.9 27.9 52.9 Q22.6 52.9 18.15 50.9 Q13.7 48.9 10.45 45.3 Q7.2 41.7 5.4 36.8 Q3.6 31.9 3.6 26 Q3.8 20.1 5.35 15.1 Q6.9 10.1 10 6.5 Q13.1 2.9 17.65 0.9 Q22.2 -1.1 28.4 -1.1 Q37.2 -1.1 43 3.3 Q48.8 7.7 50.5 16.4 Z"
        /><glyph unicode="t" horiz-adv-x="31.5" d="M18.2 51.7 L18.2 67.2 L9.7 67.2 L9.7 51.7 L0.9 51.7 L0.9 44.2 L9.7 44.2 L9.7 11.3 Q9.7 7.7 10.4 5.5 Q11.1 3.3 12.55 2.1 Q14 0.9 16.35 0.45 Q18.7 0 22 0 L28.5 0 L28.5 7.5 L24.6 7.5 Q22.6 7.5 21.35 7.65 Q20.1 7.8 19.4 8.3 Q18.7 8.8 18.45 9.7 Q18.2 10.6 18.2 12.1 L18.2 44.2 L28.5 44.2 L28.5 51.7 Z"
        /><glyph unicode="I" horiz-adv-x="25.9" d="M8.2 71.4 L8.2 0 L17.7 0 L17.7 71.4 Z"
        /><glyph unicode=" " horiz-adv-x="27.8" d=""
        /><glyph unicode="N" horiz-adv-x="72.2" d="M7.7 71.4 L7.7 0 L16.7 0 L16.7 57.3 L16.9 57.3 L54.2 0 L64.6 0 L64.6 71.4 L55.6 71.4 L55.6 13.5 L55.4 13.5 L17.8 71.4 Z"
        /><glyph unicode="-" horiz-adv-x="38.9" d="M5 31.8 L5 23.8 L33.9 23.8 L33.9 31.8 Z"
        /><glyph unicode=")" horiz-adv-x="25.9" d="M-0.9 -19.7 L5.5 -19.7 Q13.3 -9.4 17.25 2.55 Q21.2 14.5 21.2 26.3 Q21.2 32.9 20.1 38.9 Q19 44.9 16.95 50.65 Q14.9 56.4 12 61.95 Q9.1 67.5 5.5 73.1 L-0.9 73.1 Q6.1 61.6 9.15 50.25 Q12.2 38.9 12.2 26.3 Q12.2 14.1 9.2 2.85 Q6.2 -8.4 -0.9 -19.7 Z"
        /><glyph unicode="x" horiz-adv-x="51.8" d="M20.3 27.2 L0.9 0 L11.2 0 L25.6 21.4 L40 0 L50.9 0 L30.9 27.9 L48.7 51.7 L38.5 51.7 L25.6 33.6 L13.2 51.7 L2.3 51.7 Z"
        /><glyph unicode="(" horiz-adv-x="25.9" d="M20.4 -19.7 L26.9 -19.7 Q19.8 -8.2 16.75 3.1 Q13.7 14.4 13.7 27 Q13.7 39.3 16.7 50.5 Q19.7 61.7 26.9 73.1 L20.4 73.1 Q12.6 62.8 8.65 50.8 Q4.7 38.8 4.7 27 Q4.7 20.4 5.8 14.4 Q6.9 8.4 8.95 2.7 Q11 -3 13.9 -8.55 Q16.8 -14.1 20.4 -19.7 Z"
        /><glyph unicode="f" horiz-adv-x="29.6" d="M9.9 44.2 L9.9 0 L18.4 0 L18.4 44.2 L28.4 44.2 L28.4 51.7 L18.4 51.7 L18.4 58.9 Q18.4 62.3 20.1 63.5 Q21.8 64.7 24.9 64.7 Q26 64.7 27.3 64.55 Q28.6 64.4 29.7 64 L29.7 71.4 Q28.5 71.8 26.95 72 Q25.4 72.2 24.2 72.2 Q17.2 72.2 13.55 68.95 Q9.9 65.7 9.9 59.4 L9.9 51.7 L1.2 51.7 L1.2 44.2 Z"
        /><glyph unicode="M" horiz-adv-x="87.1" d="M8 71.4 L8 0 L17 0 L17 59.4 L17.2 59.4 L39.5 0 L47.6 0 L69.9 59.4 L70.1 59.4 L70.1 0 L79.1 0 L79.1 71.4 L66.1 71.4 L43.5 11.4 L21 71.4 Z"
        /><glyph unicode="A" horiz-adv-x="64.8" d="M20.1 29.5 L32.2 62.8 L32.4 62.8 L44.3 29.5 ZM27.2 71.4 L-0.6 0 L9.1 0 L17.1 21.5 L47.3 21.5 L55.1 0 L65.6 0 L37.7 71.4 Z"
        /><glyph unicode="S" horiz-adv-x="64.8" d="M49.1 50.5 L58.1 50.5 Q57.9 56.4 55.85 60.65 Q53.8 64.9 50.25 67.7 Q46.7 70.5 42 71.8 Q37.3 73.1 31.8 73.1 Q26.9 73.1 22.25 71.85 Q17.6 70.6 13.95 68.05 Q10.3 65.5 8.1 61.55 Q5.9 57.6 5.9 52.2 Q5.9 47.3 7.85 44.05 Q9.8 40.8 13.05 38.75 Q16.3 36.7 20.4 35.45 Q24.5 34.2 28.75 33.25 Q33 32.3 37.1 31.4 Q41.2 30.5 44.45 29.05 Q47.7 27.6 49.65 25.3 Q51.6 23 51.6 19.3 Q51.6 15.4 50 12.9 Q48.4 10.4 45.8 8.95 Q43.2 7.5 39.95 6.9 Q36.7 6.3 33.5 6.3 Q29.5 6.3 25.7 7.3 Q21.9 8.3 19.05 10.4 Q16.2 12.5 14.45 15.75 Q12.7 19 12.7 23.5 L3.7 23.5 Q3.7 17 6.05 12.25 Q8.4 7.5 12.45 4.45 Q16.5 1.4 21.85 -0.1 Q27.2 -1.6 33.2 -1.6 Q38.1 -1.6 43.05 -0.45 Q48 0.7 52 3.25 Q56 5.8 58.55 9.85 Q61.1 13.9 61.1 19.6 Q61.1 24.9 59.15 28.4 Q57.2 31.9 53.95 34.2 Q50.7 36.5 46.6 37.85 Q42.5 39.2 38.25 40.2 Q34 41.2 29.9 42.05 Q25.8 42.9 22.55 44.2 Q19.3 45.5 17.35 47.55 Q15.4 49.6 15.4 52.9 Q15.4 56.4 16.75 58.75 Q18.1 61.1 20.35 62.5 Q22.6 63.9 25.5 64.5 Q28.4 65.1 31.4 65.1 Q38.8 65.1 43.55 61.65 Q48.3 58.2 49.1 50.5 Z"
        /><glyph unicode="G" horiz-adv-x="75.9" d="M61.2 8.9 L63.7 0 L69.7 0 L69.7 37.6 L38.4 37.6 L38.4 29.6 L61.2 29.6 Q61.4 24.7 59.9 20.45 Q58.4 16.2 55.45 13.05 Q52.5 9.9 48.2 8.1 Q43.9 6.3 38.3 6.3 Q32.3 6.3 27.75 8.65 Q23.2 11 20.1 14.95 Q17 18.9 15.4 24.05 Q13.8 29.2 13.8 34.8 Q13.8 40.5 15.2 45.95 Q16.6 51.4 19.55 55.65 Q22.5 59.9 27.15 62.5 Q31.8 65.1 38.3 65.1 Q42.3 65.1 45.85 64.15 Q49.4 63.2 52.2 61.3 Q55 59.4 56.9 56.45 Q58.8 53.5 59.5 49.4 L69 49.4 Q68 55.7 65.25 60.15 Q62.5 64.6 58.45 67.5 Q54.4 70.4 49.25 71.75 Q44.1 73.1 38.3 73.1 Q29.8 73.1 23.45 69.95 Q17.1 66.8 12.85 61.5 Q8.6 56.2 6.45 49.15 Q4.3 42.1 4.3 34.3 Q4.3 27.3 6.6 20.8 Q8.9 14.3 13.3 9.3 Q17.7 4.3 24 1.35 Q30.3 -1.6 38.3 -1.6 Q44.6 -1.6 50.8 0.85 Q57 3.3 61.2 8.9 Z"
        /><glyph unicode="C" horiz-adv-x="72.2" d="M58 49.9 L67.5 49.9 Q66.7 55.6 64.1 59.95 Q61.5 64.3 57.6 67.2 Q53.7 70.1 48.7 71.6 Q43.7 73.1 38.1 73.1 Q29.9 73.1 23.55 70.15 Q17.2 67.2 12.95 62.1 Q8.7 57 6.5 50.15 Q4.3 43.3 4.3 35.5 Q4.3 27.7 6.35 20.9 Q8.4 14.1 12.5 9.1 Q16.6 4.1 22.8 1.25 Q29 -1.6 37.3 -1.6 Q51 -1.6 58.9 5.9 Q66.8 13.4 68.2 26.9 L58.7 26.9 Q58.4 22.5 56.9 18.7 Q55.4 14.9 52.75 12.15 Q50.1 9.4 46.45 7.85 Q42.8 6.3 38.1 6.3 Q31.7 6.3 27.1 8.7 Q22.5 11.1 19.55 15.15 Q16.6 19.2 15.2 24.65 Q13.8 30.1 13.8 36.2 Q13.8 41.8 15.2 47 Q16.6 52.2 19.55 56.25 Q22.5 60.3 27.05 62.7 Q31.6 65.1 38 65.1 Q45.5 65.1 50.95 61.3 Q56.4 57.5 58 49.9 Z"
      /></font
      ><font horiz-adv-x="50.0" id="font2"
      ><font-face ascent="97.5" descent="21.699999" units-per-em="100" style="font-style:normal; font-family:Helvetica Neue; font-weight:bold;"
        /><missing-glyph horiz-adv-x="50.0" d="M39.1 60.7 L11.1 60.7 L11.1 9.5 L39.1 9.5 ZM48.2 69.8 L48.2 0.3 L1.7 0.3 L1.7 69.8 Z"
        /><glyph unicode="9" horiz-adv-x="55.6" d="M27 33.7 Q24.3 33.7 22.25 34.85 Q20.2 36 18.9 37.85 Q17.6 39.7 16.95 42.05 Q16.3 44.4 16.3 46.9 Q16.3 49.3 17 51.6 Q17.7 53.9 19.1 55.7 Q20.5 57.5 22.5 58.6 Q24.5 59.7 27 59.7 Q29.7 59.7 31.8 58.6 Q33.9 57.5 35.35 55.65 Q36.8 53.8 37.55 51.45 Q38.3 49.1 38.3 46.7 Q38.3 44.1 37.6 41.75 Q36.9 39.4 35.5 37.6 Q34.1 35.8 32 34.75 Q29.9 33.7 27 33.7 ZM16.8 18 L3.3 18 Q3.9 13.4 5.8 9.8 Q7.7 6.2 10.7 3.7 Q13.7 1.2 17.6 -0.05 Q21.5 -1.3 26 -1.3 Q33.5 -1.3 38.7 1.95 Q43.9 5.2 47.2 10.45 Q50.5 15.7 52 22.2 Q53.5 28.7 53.5 35.2 Q53.5 41.8 52.3 48.3 Q51.1 54.8 48 59.95 Q44.9 65.1 39.75 68.25 Q34.6 71.4 26.6 71.4 Q21.1 71.4 16.6 69.4 Q12.1 67.4 8.85 63.95 Q5.6 60.5 3.85 55.85 Q2.1 51.2 2.1 45.8 Q2.1 41.6 3.4 37.5 Q4.7 33.4 7.5 30.2 Q10.5 26.9 14.8 24.95 Q19.1 23 23.6 23 Q28.7 23 32.6 24.8 Q36.5 26.6 39.4 30.8 L39.6 30.6 Q39.4 27.7 38.75 24 Q38.1 20.3 36.6 17.05 Q35.1 13.8 32.6 11.55 Q30.1 9.3 26.2 9.3 Q22.5 9.3 20 11.9 Q17.5 14.5 16.8 18 Z"
        /><glyph unicode=" " horiz-adv-x="27.8" d=""
        /><glyph unicode="m" horiz-adv-x="90.6" d="M5.8 51.7 L5.8 0 L20 0 L20 30 Q20 33.8 21.1 36.15 Q22.2 38.5 23.75 39.75 Q25.3 41 26.95 41.45 Q28.6 41.9 29.6 41.9 Q33 41.9 34.75 40.75 Q36.5 39.6 37.25 37.7 Q38 35.8 38.1 33.55 Q38.2 31.3 38.2 29 L38.2 0 L52.4 0 L52.4 28.8 Q52.4 31.2 52.75 33.55 Q53.1 35.9 54.15 37.75 Q55.2 39.6 57.05 40.75 Q58.9 41.9 61.9 41.9 Q64.9 41.9 66.65 40.9 Q68.4 39.9 69.3 38.2 Q70.2 36.5 70.4 34.2 Q70.6 31.9 70.6 29.3 L70.6 0 L84.8 0 L84.8 34.6 Q84.8 39.6 83.4 43.15 Q82 46.7 79.5 48.9 Q77 51.1 73.5 52.1 Q70 53.1 65.9 53.1 Q60.5 53.1 56.55 50.5 Q52.6 47.9 50.3 44.5 Q48.2 49.3 44.15 51.2 Q40.1 53.1 35.2 53.1 Q30.1 53.1 26.15 50.9 Q22.2 48.7 19.4 44.7 L19.2 44.7 L19.2 51.7 Z"
        /><glyph unicode="e" horiz-adv-x="57.4" d="M40.2 31.4 L17.1 31.4 Q17.2 32.9 17.75 34.8 Q18.3 36.7 19.65 38.4 Q21 40.1 23.25 41.25 Q25.5 42.4 28.9 42.4 Q34.1 42.4 36.65 39.6 Q39.2 36.8 40.2 31.4 ZM17.1 22.4 L54.4 22.4 Q54.8 28.4 53.4 33.9 Q52 39.4 48.85 43.7 Q45.7 48 40.8 50.55 Q35.9 53.1 29.3 53.1 Q23.4 53.1 18.55 51 Q13.7 48.9 10.2 45.25 Q6.7 41.6 4.8 36.6 Q2.9 31.6 2.9 25.8 Q2.9 19.8 4.75 14.8 Q6.6 9.8 10 6.2 Q13.4 2.6 18.3 0.65 Q23.2 -1.3 29.3 -1.3 Q38.1 -1.3 44.3 2.7 Q50.5 6.7 53.5 16 L41 16 Q40.3 13.6 37.2 11.45 Q34.1 9.3 29.8 9.3 Q23.8 9.3 20.6 12.4 Q17.4 15.5 17.1 22.4 Z"
        /><glyph unicode="l" horiz-adv-x="25.8" d="M5.8 71.4 L5.8 0 L20 0 L20 71.4 Z"
        /><glyph unicode="b" horiz-adv-x="61.1" d="M43.3 25.8 Q43.3 22.6 42.6 19.6 Q41.9 16.6 40.4 14.3 Q38.9 12 36.65 10.65 Q34.4 9.3 31.2 9.3 Q28.1 9.3 25.8 10.65 Q23.5 12 22 14.3 Q20.5 16.6 19.8 19.6 Q19.1 22.6 19.1 25.8 Q19.1 29.1 19.8 32.1 Q20.5 35.1 22 37.4 Q23.5 39.7 25.8 41.05 Q28.1 42.4 31.2 42.4 Q34.4 42.4 36.65 41.05 Q38.9 39.7 40.4 37.4 Q41.9 35.1 42.6 32.1 Q43.3 29.1 43.3 25.8 ZM5.4 71.4 L5.4 0 L18.9 0 L18.9 6.6 L19.1 6.6 Q21.4 2.3 25.9 0.5 Q30.4 -1.3 36.1 -1.3 Q40 -1.3 43.8 0.3 Q47.6 1.9 50.65 5.2 Q53.7 8.5 55.6 13.65 Q57.5 18.8 57.5 25.9 Q57.5 33 55.6 38.15 Q53.7 43.3 50.65 46.6 Q47.6 49.9 43.8 51.5 Q40 53.1 36.1 53.1 Q31.3 53.1 26.85 51.25 Q22.4 49.4 19.8 45.4 L19.6 45.4 L19.6 71.4 Z"
        /><glyph unicode="o" horiz-adv-x="61.1" d="M18 25.8 Q18 28.9 18.6 31.9 Q19.2 34.9 20.65 37.2 Q22.1 39.5 24.5 40.95 Q26.9 42.4 30.5 42.4 Q34.1 42.4 36.55 40.95 Q39 39.5 40.45 37.2 Q41.9 34.9 42.5 31.9 Q43.1 28.9 43.1 25.8 Q43.1 22.7 42.5 19.75 Q41.9 16.8 40.45 14.45 Q39 12.1 36.55 10.7 Q34.1 9.3 30.5 9.3 Q26.9 9.3 24.5 10.7 Q22.1 12.1 20.65 14.45 Q19.2 16.8 18.6 19.75 Q18 22.7 18 25.8 ZM3.8 25.8 Q3.8 19.6 5.7 14.6 Q7.6 9.6 11.1 6.05 Q14.6 2.5 19.5 0.6 Q24.4 -1.3 30.5 -1.3 Q36.6 -1.3 41.55 0.6 Q46.5 2.5 50 6.05 Q53.5 9.6 55.4 14.6 Q57.3 19.6 57.3 25.8 Q57.3 32 55.4 37.05 Q53.5 42.1 50 45.65 Q46.5 49.2 41.55 51.15 Q36.6 53.1 30.5 53.1 Q24.4 53.1 19.5 51.15 Q14.6 49.2 11.1 45.65 Q7.6 42.1 5.7 37.05 Q3.8 32 3.8 25.8 Z"
        /><glyph unicode="r" horiz-adv-x="38.9" d="M5.4 51.7 L5.4 0 L19.6 0 L19.6 23.3 Q19.6 26.8 20.3 29.8 Q21 32.8 22.65 35.05 Q24.3 37.3 27 38.6 Q29.7 39.9 33.6 39.9 Q34.9 39.9 36.3 39.75 Q37.7 39.6 38.7 39.4 L38.7 52.6 Q37 53.1 35.6 53.1 Q32.9 53.1 30.4 52.3 Q27.9 51.5 25.7 50.05 Q23.5 48.6 21.8 46.55 Q20.1 44.5 19.1 42.1 L18.9 42.1 L18.9 51.7 Z"
        /><glyph unicode="P" horiz-adv-x="66.7" d="M22.6 37.8 L22.6 59.2 L34.8 59.2 Q37.5 59.2 40 58.8 Q42.5 58.4 44.4 57.25 Q46.3 56.1 47.45 54 Q48.6 51.9 48.6 48.5 Q48.6 45.1 47.45 43 Q46.3 40.9 44.4 39.75 Q42.5 38.6 40 38.2 Q37.5 37.8 34.8 37.8 ZM6.9 71.4 L6.9 0 L22.6 0 L22.6 25.6 L39.1 25.6 Q45.8 25.6 50.5 27.55 Q55.2 29.5 58.15 32.7 Q61.1 35.9 62.45 40.05 Q63.8 44.2 63.8 48.5 Q63.8 52.9 62.45 57 Q61.1 61.1 58.15 64.3 Q55.2 67.5 50.5 69.45 Q45.8 71.4 39.1 71.4 Z"
      /></font
    ></defs
    ><g style="fill:white; stroke:white;"
    ><rect x="0" y="0" width="560" style="clip-path:url(#clipPath1); stroke:none;" height="420"
    /></g
    ><g style="fill:white; text-rendering:optimizeSpeed; color-rendering:optimizeSpeed; image-rendering:optimizeSpeed; shape-rendering:crispEdges; stroke:white; color-interpolation:sRGB;"
    ><rect x="0" width="560" height="420" y="0" style="stroke:none;"
      /><path style="stroke:none;" d="M73 374 L507 374 L507 31.5 L73 31.5 Z"
    /></g
    ><g style="fill:rgb(38,38,38); text-rendering:geometricPrecision; image-rendering:optimizeQuality; color-rendering:optimizeQuality; stroke-linejoin:round; stroke:rgb(38,38,38); color-interpolation:linearRGB; stroke-width:0.5;"
    ><line y2="374" style="fill:none;" x1="73" x2="507" y1="374"
      /><line y2="369.66" style="fill:none;" x1="73" x2="73" y1="374"
      /><line y2="369.66" style="fill:none;" x1="116.4" x2="116.4" y1="374"
      /><line y2="369.66" style="fill:none;" x1="159.8" x2="159.8" y1="374"
      /><line y2="369.66" style="fill:none;" x1="203.2" x2="203.2" y1="374"
      /><line y2="369.66" style="fill:none;" x1="246.6" x2="246.6" y1="374"
      /><line y2="369.66" style="fill:none;" x1="290" x2="290" y1="374"
      /><line y2="369.66" style="fill:none;" x1="333.4" x2="333.4" y1="374"
      /><line y2="369.66" style="fill:none;" x1="376.8" x2="376.8" y1="374"
      /><line y2="369.66" style="fill:none;" x1="420.2" x2="420.2" y1="374"
      /><line y2="369.66" style="fill:none;" x1="463.6" x2="463.6" y1="374"
      /><line y2="369.66" style="fill:none;" x1="507" x2="507" y1="374"
    /></g
    ><g transform="translate(73,378)" style="font-size:10px; fill:rgb(38,38,38); text-rendering:geometricPrecision; image-rendering:optimizeQuality; color-rendering:optimizeQuality; font-family:'Helvetica Neue'; stroke:rgb(38,38,38); color-interpolation:linearRGB;"
    ><text x="-3" xml:space="preserve" y="10" style="stroke:none;"
      >0</text
    ></g
    ><g transform="translate(116.4,378)" style="font-size:10px; fill:rgb(38,38,38); text-rendering:geometricPrecision; image-rendering:optimizeQuality; color-rendering:optimizeQuality; font-family:'Helvetica Neue'; stroke:rgb(38,38,38); color-interpolation:linearRGB;"
    ><text x="-6" xml:space="preserve" y="10" style="stroke:none;"
      >50</text
    ></g
    ><g transform="translate(159.8,378)" style="font-size:10px; fill:rgb(38,38,38); text-rendering:geometricPrecision; image-rendering:optimizeQuality; color-rendering:optimizeQuality; font-family:'Helvetica Neue'; stroke:rgb(38,38,38); color-interpolation:linearRGB;"
    ><text x="-8.5" xml:space="preserve" y="10" style="stroke:none;"
      >100</text
    ></g
    ><g transform="translate(203.2,378)" style="font-size:10px; fill:rgb(38,38,38); text-rendering:geometricPrecision; image-rendering:optimizeQuality; color-rendering:optimizeQuality; font-family:'Helvetica Neue'; stroke:rgb(38,38,38); color-interpolation:linearRGB;"
    ><text x="-8.5" xml:space="preserve" y="10" style="stroke:none;"
      >150</text
    ></g
    ><g transform="translate(246.6,378)" style="font-size:10px; fill:rgb(38,38,38); text-rendering:geometricPrecision; image-rendering:optimizeQuality; color-rendering:optimizeQuality; font-family:'Helvetica Neue'; stroke:rgb(38,38,38); color-interpolation:linearRGB;"
    ><text x="-8.5" xml:space="preserve" y="10" style="stroke:none;"
      >200</text
    ></g
    ><g transform="translate(290,378)" style="font-size:10px; fill:rgb(38,38,38); text-rendering:geometricPrecision; image-rendering:optimizeQuality; color-rendering:optimizeQuality; font-family:'Helvetica Neue'; stroke:rgb(38,38,38); color-interpolation:linearRGB;"
    ><text x="-8.5" xml:space="preserve" y="10" style="stroke:none;"
      >250</text
    ></g
    ><g transform="translate(333.4,378)" style="font-size:10px; fill:rgb(38,38,38); text-rendering:geometricPrecision; image-rendering:optimizeQuality; color-rendering:optimizeQuality; font-family:'Helvetica Neue'; stroke:rgb(38,38,38); color-interpolation:linearRGB;"
    ><text x="-8.5" xml:space="preserve" y="10" style="stroke:none;"
      >300</text
    ></g
    ><g transform="translate(376.8,378)" style="font-size:10px; fill:rgb(38,38,38); text-rendering:geometricPrecision; image-rendering:optimizeQuality; color-rendering:optimizeQuality; font-family:'Helvetica Neue'; stroke:rgb(38,38,38); color-interpolation:linearRGB;"
    ><text x="-8.5" xml:space="preserve" y="10" style="stroke:none;"
      >350</text
    ></g
    ><g transform="translate(420.2,378)" style="font-size:10px; fill:rgb(38,38,38); text-rendering:geometricPrecision; image-rendering:optimizeQuality; color-rendering:optimizeQuality; font-family:'Helvetica Neue'; stroke:rgb(38,38,38); color-interpolation:linearRGB;"
    ><text x="-8.5" xml:space="preserve" y="10" style="stroke:none;"
      >400</text
    ></g
    ><g transform="translate(463.6,378)" style="font-size:10px; fill:rgb(38,38,38); text-rendering:geometricPrecision; image-rendering:optimizeQuality; color-rendering:optimizeQuality; font-family:'Helvetica Neue'; stroke:rgb(38,38,38); color-interpolation:linearRGB;"
    ><text x="-8.5" xml:space="preserve" y="10" style="stroke:none;"
      >450</text
    ></g
    ><g transform="translate(507,378)" style="font-size:10px; fill:rgb(38,38,38); text-rendering:geometricPrecision; image-rendering:optimizeQuality; color-rendering:optimizeQuality; font-family:'Helvetica Neue'; stroke:rgb(38,38,38); color-interpolation:linearRGB;"
    ><text x="-8.5" xml:space="preserve" y="10" style="stroke:none;"
      >500</text
    ></g
    ><g transform="translate(290.0002,391.5)" style="font-size:11px; fill:rgb(38,38,38); text-rendering:geometricPrecision; image-rendering:optimizeQuality; color-rendering:optimizeQuality; font-family:'Helvetica Neue'; stroke:rgb(38,38,38); color-interpolation:linearRGB;"
    ><text x="-28.5" xml:space="preserve" y="11" style="stroke:none;"
      >N Iterations</text
    ></g
    ><g style="fill:rgb(38,38,38); text-rendering:geometricPrecision; image-rendering:optimizeQuality; color-rendering:optimizeQuality; stroke-linejoin:round; stroke:rgb(38,38,38); color-interpolation:linearRGB; stroke-width:0.5;"
    ><line y2="31.5" style="fill:none;" x1="73" x2="73" y1="374"
      /><line y2="374" style="fill:none;" x1="73" x2="77.34" y1="374"
      /><line y2="339.75" style="fill:none;" x1="73" x2="77.34" y1="339.75"
      /><line y2="305.5" style="fill:none;" x1="73" x2="77.34" y1="305.5"
      /><line y2="271.25" style="fill:none;" x1="73" x2="77.34" y1="271.25"
      /><line y2="237" style="fill:none;" x1="73" x2="77.34" y1="237"
      /><line y2="202.75" style="fill:none;" x1="73" x2="77.34" y1="202.75"
      /><line y2="168.5" style="fill:none;" x1="73" x2="77.34" y1="168.5"
      /><line y2="134.25" style="fill:none;" x1="73" x2="77.34" y1="134.25"
      /><line y2="100" style="fill:none;" x1="73" x2="77.34" y1="100"
      /><line y2="65.75" style="fill:none;" x1="73" x2="77.34" y1="65.75"
      /><line y2="31.5" style="fill:none;" x1="73" x2="77.34" y1="31.5"
    /></g
    ><g transform="translate(69,374)" style="font-size:10px; fill:rgb(38,38,38); text-rendering:geometricPrecision; image-rendering:optimizeQuality; color-rendering:optimizeQuality; font-family:'Helvetica Neue'; stroke:rgb(38,38,38); color-interpolation:linearRGB;"
    ><text x="-16" xml:space="preserve" y="3.5" style="stroke:none;"
      >-50</text
    ></g
    ><g transform="translate(69,339.75)" style="font-size:10px; fill:rgb(38,38,38); text-rendering:geometricPrecision; image-rendering:optimizeQuality; color-rendering:optimizeQuality; font-family:'Helvetica Neue'; stroke:rgb(38,38,38); color-interpolation:linearRGB;"
    ><text x="-6" xml:space="preserve" y="3.5" style="stroke:none;"
      >0</text
    ></g
    ><g transform="translate(69,305.5)" style="font-size:10px; fill:rgb(38,38,38); text-rendering:geometricPrecision; image-rendering:optimizeQuality; color-rendering:optimizeQuality; font-family:'Helvetica Neue'; stroke:rgb(38,38,38); color-interpolation:linearRGB;"
    ><text x="-12" xml:space="preserve" y="3.5" style="stroke:none;"
      >50</text
    ></g
    ><g transform="translate(69,271.25)" style="font-size:10px; fill:rgb(38,38,38); text-rendering:geometricPrecision; image-rendering:optimizeQuality; color-rendering:optimizeQuality; font-family:'Helvetica Neue'; stroke:rgb(38,38,38); color-interpolation:linearRGB;"
    ><text x="-17" xml:space="preserve" y="3.5" style="stroke:none;"
      >100</text
    ></g
    ><g transform="translate(69,237)" style="font-size:10px; fill:rgb(38,38,38); text-rendering:geometricPrecision; image-rendering:optimizeQuality; color-rendering:optimizeQuality; font-family:'Helvetica Neue'; stroke:rgb(38,38,38); color-interpolation:linearRGB;"
    ><text x="-17" xml:space="preserve" y="3.5" style="stroke:none;"
      >150</text
    ></g
    ><g transform="translate(69,202.75)" style="font-size:10px; fill:rgb(38,38,38); text-rendering:geometricPrecision; image-rendering:optimizeQuality; color-rendering:optimizeQuality; font-family:'Helvetica Neue'; stroke:rgb(38,38,38); color-interpolation:linearRGB;"
    ><text x="-17" xml:space="preserve" y="3.5" style="stroke:none;"
      >200</text
    ></g
    ><g transform="translate(69,168.5)" style="font-size:10px; fill:rgb(38,38,38); text-rendering:geometricPrecision; image-rendering:optimizeQuality; color-rendering:optimizeQuality; font-family:'Helvetica Neue'; stroke:rgb(38,38,38); color-interpolation:linearRGB;"
    ><text x="-17" xml:space="preserve" y="3.5" style="stroke:none;"
      >250</text
    ></g
    ><g transform="translate(69,134.25)" style="font-size:10px; fill:rgb(38,38,38); text-rendering:geometricPrecision; image-rendering:optimizeQuality; color-rendering:optimizeQuality; font-family:'Helvetica Neue'; stroke:rgb(38,38,38); color-interpolation:linearRGB;"
    ><text x="-17" xml:space="preserve" y="3.5" style="stroke:none;"
      >300</text
    ></g
    ><g transform="translate(69,100)" style="font-size:10px; fill:rgb(38,38,38); text-rendering:geometricPrecision; image-rendering:optimizeQuality; color-rendering:optimizeQuality; font-family:'Helvetica Neue'; stroke:rgb(38,38,38); color-interpolation:linearRGB;"
    ><text x="-17" xml:space="preserve" y="3.5" style="stroke:none;"
      >350</text
    ></g
    ><g transform="translate(69,65.75)" style="font-size:10px; fill:rgb(38,38,38); text-rendering:geometricPrecision; image-rendering:optimizeQuality; color-rendering:optimizeQuality; font-family:'Helvetica Neue'; stroke:rgb(38,38,38); color-interpolation:linearRGB;"
    ><text x="-17" xml:space="preserve" y="3.5" style="stroke:none;"
      >400</text
    ></g
    ><g transform="translate(69,31.5)" style="font-size:10px; fill:rgb(38,38,38); text-rendering:geometricPrecision; image-rendering:optimizeQuality; color-rendering:optimizeQuality; font-family:'Helvetica Neue'; stroke:rgb(38,38,38); color-interpolation:linearRGB;"
    ><text x="-17" xml:space="preserve" y="3.5" style="stroke:none;"
      >450</text
    ></g
    ><g transform="translate(49,202.7498) rotate(-90)" style="font-size:11px; fill:rgb(38,38,38); text-rendering:geometricPrecision; image-rendering:optimizeQuality; color-rendering:optimizeQuality; font-family:'Helvetica Neue'; stroke:rgb(38,38,38); color-interpolation:linearRGB;"
    ><text x="-23" xml:space="preserve" y="-3" style="stroke:none;"
      >Mean f(x)</text
    ></g
    ><g transform="translate(290.0003,30.125)" style="font-size:11px; text-rendering:geometricPrecision; image-rendering:optimizeQuality; color-rendering:optimizeQuality; font-family:'Helvetica Neue'; color-interpolation:linearRGB; font-weight:bold;"
    ><text x="-27" xml:space="preserve" y="-3" style="stroke:none;"
      >Problem 9</text
    ></g
    ><g style="stroke-linecap:butt; fill:lime; text-rendering:geometricPrecision; image-rendering:optimizeQuality; color-rendering:optimizeQuality; stroke-linejoin:round; stroke:lime; color-interpolation:linearRGB; stroke-width:3;"
    ><path d="M73.868 226.2737 L74.736 226.2737 L75.604 231.6808 L76.472 231.6808 L77.34 237.7473 L78.208 237.7473 L79.076 237.7473 L79.944 237.7473 L80.812 242.1547 L81.68 242.1547 L82.548 246.1758 L83.416 246.1758 L84.284 246.1758 L85.152 246.1758 L86.02 246.1758 L86.888 246.1758 L87.756 250.9693 L88.624 250.9693 L89.492 250.9693 L90.36 250.9693 L91.228 250.9693 L92.096 250.9693 L92.964 250.9693 L93.832 250.9693 L94.7 254.8768 L95.568 254.8768 L96.436 254.8768 L97.304 254.8768 L98.172 254.8768 L99.04 254.8768 L99.908 254.8768 L100.776 254.8768 L101.644 254.8768 L102.512 254.8768 L103.38 257.6938 L104.248 261.306 L105.116 261.306 L105.984 261.306 L106.852 264.8046 L107.72 268.7575 L108.588 272.0757 L109.456 272.0757 L110.324 275.0063 L111.192 275.0063 L112.06 275.0063 L112.928 282.5944 L113.796 282.5944 L114.664 287.0699 L115.532 287.0699 L116.4 287.0699 L117.268 287.0699 L118.136 287.0699 L119.004 287.0699 L119.872 287.0699 L120.74 287.0699 L121.608 287.0699 L122.476 290.7048 L123.344 290.7048 L124.212 290.7048 L125.08 290.7048 L125.948 290.7048 L126.816 290.7048 L127.684 290.7048 L128.552 290.7048 L129.42 290.7048 L130.288 290.7048 L131.156 294.0216 L132.024 297.7474 L132.892 297.7474 L133.76 297.7474 L134.628 297.7474 L135.496 297.7474 L136.364 297.7474 L137.232 301.3141 L138.1 301.3141 L138.968 301.3141 L139.836 301.3141 L140.704 305.2216 L141.572 305.2216 L142.44 305.2216 L143.308 305.2216 L144.176 305.2216 L145.044 305.2216 L145.912 305.2216 L146.78 305.2216 L147.648 305.2216 L148.516 305.2216 L149.384 305.2216 L150.252 305.2216 L151.12 305.2216 L151.988 305.2216 L152.856 305.2216 L153.724 305.2216 L154.592 305.2216 L155.46 307.607 L156.328 307.607 L157.196 307.607 L158.064 307.607 L158.932 307.607 L159.8 307.607 L160.668 307.607 L161.536 310.8103 L162.404 310.8103 L163.272 310.8103 L164.14 310.8103 L165.008 310.8103 L165.876 314.4453 L166.744 314.4453 L167.612 314.4453 L168.48 314.4453 L169.348 314.4453 L170.216 314.4453 L171.084 314.4453 L171.952 314.4453 L172.82 314.4453 L173.688 314.4453 L174.556 317.1035 L175.424 317.1035 L176.292 317.1035 L177.16 317.1035 L178.028 317.1035 L178.896 320.8066 L179.764 320.8066 L180.632 320.8066 L181.5 320.8066 L182.368 323.6918 L183.236 323.6918 L184.104 323.6918 L184.972 323.6918 L185.84 323.6918 L186.708 323.6918 L187.576 323.6918 L188.444 323.6918 L189.312 323.6918 L190.18 323.6918 L191.048 323.6918 L191.916 323.6918 L192.784 323.6918 L193.652 323.6918 L194.52 323.6918 L195.388 323.6918 L196.256 323.6918 L197.124 323.6918 L197.992 323.6918 L198.86 323.6918 L199.728 323.6918 L200.596 323.6918 L201.464 323.6918 L202.332 323.6918 L203.2 323.6918 L204.068 323.6918 L204.936 323.6918 L205.804 323.6918 L206.672 323.6918 L207.54 323.6918 L208.408 323.6918 L209.276 323.6918 L210.144 323.6918 L211.012 323.6918 L211.88 323.6918 L212.748 323.6918 L213.616 323.6918 L214.484 323.6918 L215.352 323.6918 L216.22 325.8727 L217.088 325.8727 L217.956 325.8727 L218.824 325.8727 L219.692 325.8727 L220.56 325.8727 L221.428 325.8727 L222.296 325.8727 L223.164 325.8727 L224.032 325.8727 L224.9 325.8727 L225.768 325.8727 L226.636 325.8727 L227.504 325.8727 L228.372 325.8727 L229.24 327.9401 L230.108 327.9401 L230.976 327.9401 L231.844 327.9401 L232.712 327.9401 L233.58 327.9401 L234.448 327.9401 L235.316 327.9401 L236.184 327.9401 L237.052 327.9401 L237.92 327.9401 L238.788 327.9401 L239.656 327.9401 L240.524 327.9401 L241.392 329.985 L242.26 329.985 L243.128 329.985 L243.996 329.985 L244.864 329.985 L245.732 329.985 L246.6 329.985 L247.468 329.985 L248.336 329.985 L249.204 329.985 L250.072 329.985 L250.94 329.985 L251.808 329.985 L252.676 329.985 L253.544 329.985 L254.412 331.6434 L255.28 331.6434 L256.148 331.6434 L257.016 331.6434 L257.884 331.6434 L258.752 331.6434 L259.62 331.6434 L260.488 331.6434 L261.356 331.6434 L262.224 331.6434 L263.092 331.6434 L263.96 331.6434 L264.828 331.6434 L265.696 331.6434 L266.564 331.6434 L267.432 331.6434 L268.3 331.6434 L269.168 331.6434 L270.036 331.6434 L270.904 331.6434 L271.772 331.6434 L272.64 331.6434 L273.508 331.6434 L274.376 331.6434 L275.244 331.6434 L276.112 331.6434 L276.98 331.6434 L277.848 331.6434 L278.716 331.6434 L279.584 331.6434 L280.452 331.6434 L281.32 331.6434 L282.188 331.6434 L283.056 331.6434 L283.924 331.6434 L284.792 331.6434 L285.66 331.6434 L286.528 331.6434 L287.396 331.6434 L288.264 331.6434 L289.132 331.6434 L290 331.6434 L290.868 331.6434 L291.736 331.6434 L292.604 331.6434 L293.472 331.6434 L294.34 331.6434 L295.208 331.6434 L296.076 331.6434 L296.944 331.6434 L297.812 331.6434 L298.68 331.6434 L299.548 331.6434 L300.416 331.6434 L301.284 331.6434 L302.152 331.6434 L303.02 331.6434 L303.888 331.6434 L304.756 331.6434 L305.624 331.6434 L306.492 331.6434 L307.36 331.6434 L308.228 331.6434 L309.096 331.6434 L309.964 331.6434 L310.832 331.6434 L311.7 331.6434 L312.568 331.6434 L313.436 331.6434 L314.304 331.6434 L315.172 331.6434 L316.04 331.6434 L316.908 331.6434 L317.776 331.6434 L318.644 331.6434 L319.512 331.6434 L320.38 331.6434 L321.248 331.6434 L322.116 331.6434 L322.984 331.6434 L323.852 331.6434 L324.72 331.6434 L325.588 331.6434 L326.456 331.6434 L327.324 331.6434 L328.192 331.6434 L329.06 331.6434 L329.928 332.6884 L330.796 332.6884 L331.664 332.6884 L332.532 332.6884 L333.4 332.6884 L334.268 332.6884 L335.136 332.6884 L336.004 332.6884 L336.872 332.6884 L337.74 332.6884 L338.608 332.6884 L339.476 332.6884 L340.344 332.6884 L341.212 332.6884 L342.08 332.6884 L342.948 332.6884 L343.816 332.6884 L344.684 332.6884 L345.552 332.6884 L346.42 332.6884 L347.288 332.6884 L348.156 332.6884 L349.024 332.6884 L349.892 332.6884 L350.76 332.6884 L351.628 332.6884 L352.496 332.6884 L353.364 332.6884 L354.232 332.6884 L355.1 332.6884 L355.968 332.6884 L356.836 332.6884 L357.704 332.6884 L358.572 332.6884 L359.44 332.6884 L360.308 332.6884 L361.176 332.6884 L362.044 332.6884 L362.912 332.6884 L363.78 332.6884 L364.648 332.6884 L365.516 332.6884 L366.384 332.6884 L367.252 332.6884 L368.12 332.6884 L368.988 332.6884 L369.856 332.6884 L370.724 332.6884 L371.592 332.6884 L372.46 332.6884 L373.328 332.6884 L374.196 332.6884 L375.064 332.6884 L375.932 332.6884 L376.8 332.6884 L377.668 332.6884 L378.536 332.6884 L379.404 332.6884 L380.272 332.6884 L381.14 332.6884 L382.008 332.6884 L382.876 332.6884 L383.744 332.6884 L384.612 333.37 L385.48 333.37 L386.348 333.37 L387.216 333.37 L388.084 333.37 L388.952 333.37 L389.82 333.37 L390.688 333.37 L391.556 333.37 L392.424 333.37 L393.292 333.37 L394.16 333.37 L395.028 333.37 L395.896 333.37 L396.764 333.37 L397.632 333.37 L398.5 333.37 L399.368 333.37 L400.236 333.37 L401.104 333.37 L401.972 333.37 L402.84 333.37 L403.708 333.8698 L404.576 333.8698 L405.444 333.8698 L406.312 333.8698 L407.18 333.8698 L408.048 333.8698 L408.916 333.8698 L409.784 333.8698 L410.652 333.8698 L411.52 333.8698 L412.388 333.8698 L413.256 333.8698 L414.124 333.8698 L414.992 333.8698 L415.86 333.8698 L416.728 333.8698 L417.596 333.8698 L418.464 333.8698 L419.332 333.8698 L420.2 333.8698 L421.068 334.415 L421.936 334.415 L422.804 334.415 L423.672 334.415 L424.54 334.415 L425.408 334.415 L426.276 334.415 L427.144 334.415 L428.012 334.415 L428.88 334.415 L429.748 334.415 L430.616 334.415 L431.484 334.415 L432.352 334.415 L433.22 334.415 L434.088 334.415 L434.956 334.415 L435.824 334.415 L436.692 334.415 L437.56 335.0511 L438.428 335.0511 L439.296 335.0511 L440.164 335.0511 L441.032 335.0511 L441.9 335.0511 L442.768 335.0511 L443.636 335.0511 L444.504 335.0511 L445.372 335.0511 L446.24 335.0511 L447.108 335.0511 L447.976 335.0511 L448.844 335.0511 L449.712 335.0511 L450.58 335.0511 L451.448 335.0511 L452.316 335.0511 L453.184 335.1647 L454.052 335.1647 L454.92 335.1647 L455.788 335.1647 L456.656 335.1647 L457.524 335.1647 L458.392 335.1647 L459.26 335.1647 L460.128 335.1647 L460.996 335.1647 L461.864 335.1647 L462.732 335.1647 L463.6 335.1647 L464.468 335.1647 L465.336 335.1647 L466.204 335.1647 L467.072 335.1647 L467.94 335.1647 L468.808 335.1647 L469.676 335.1647 L470.544 335.1647 L471.412 335.1647 L472.28 335.1647 L473.148 335.1647 L474.016 335.1647 L474.884 335.1647 L475.752 335.1647 L476.62 335.1647 L477.488 335.1647 L478.356 335.1647 L479.224 335.1647 L480.092 335.1647 L480.96 335.1647 L481.828 335.1647 L482.696 335.1647 L483.564 335.1647 L484.432 335.1647 L485.3 335.1647 L486.168 335.1647 L487.036 335.1647 L487.904 335.1647 L488.772 335.1647 L489.64 335.1647 L490.508 335.1647 L491.376 335.1647 L492.244 335.1647 L493.112 335.1647 L493.98 335.1647 L494.848 335.1647 L495.716 335.1647 L496.584 335.1647 L497.452 335.1647 L498.32 335.1647 L499.188 335.1647 L500.056 335.1647 L500.924 335.1647 L501.792 335.1647 L502.66 335.1647 L503.528 335.1647 L504.396 335.1647 L505.264 335.1647 L506.132 335.1647 L507 335.1647" style="fill:none; fill-rule:evenodd;"
    /></g
    ><g style="stroke-linecap:butt; fill:blue; text-rendering:geometricPrecision; image-rendering:optimizeQuality; color-rendering:optimizeQuality; stroke-linejoin:bevel; stroke-dasharray:12,12; stroke:blue; color-interpolation:linearRGB; stroke-width:3; stroke-miterlimit:1;"
    ><path d="M73.868 46.7007 L74.736 61.5624 L75.604 146.8972 L76.472 147.3309 L77.34 174.2587 L78.208 175.4527 L79.076 183.7186 L79.944 184.7088 L80.812 191.9246 L81.68 193.1663 L82.548 197.5779 L83.416 198.1279 L84.284 203.2731 L85.152 203.3218 L86.02 205.2478 L86.888 206.7641 L87.756 207.9973 L88.624 209.416 L89.492 210.6529 L90.36 214.6807 L91.228 215.4905 L92.096 215.8962 L92.964 216.0564 L93.832 216.2656 L94.7 217.4899 L95.568 217.4899 L96.436 219.5522 L97.304 220.1975 L98.172 221.7723 L99.04 221.8474 L99.908 223.648 L100.776 223.648 L101.644 224.9174 L102.512 225.5759 L103.38 227.5453 L104.248 228.8199 L105.116 229.9649 L105.984 230.1816 L106.852 232.0195 L107.72 232.034 L108.588 234.2665 L109.456 234.2801 L110.324 234.6304 L111.192 234.7307 L112.06 235.6732 L112.928 235.6732 L113.796 237.2043 L114.664 237.6015 L115.532 237.7854 L116.4 239.4705 L117.268 241.4816 L118.136 241.981 L119.004 244.1118 L119.872 245.2331 L120.74 247.903 L121.608 249.2771 L122.476 251.2779 L123.344 252.55 L124.212 255.2795 L125.08 256.9373 L125.948 258.9101 L126.816 260.6363 L127.684 263.5685 L128.552 265.451 L129.42 268.4305 L130.288 270.0997 L131.156 272.5168 L132.024 275.8275 L132.892 279.186 L133.76 279.9852 L134.628 285.5332 L135.496 286.7436 L136.364 291.4865 L137.232 292.814 L138.1 297.7946 L138.968 298.3587 L139.836 303.3832 L140.704 304.9356 L141.572 309.4112 L142.44 310.7087 L143.308 314.3262 L144.176 315.2514 L145.044 318.7267 L145.912 319.149 L146.78 323.0909 L147.648 323.8142 L148.516 326.2561 L149.384 327.1674 L150.252 330.0963 L151.12 330.8093 L151.988 332.3719 L152.856 332.8235 L153.724 335.0721 L154.592 335.6258 L155.46 337.1015 L156.328 337.5911 L157.196 339.0034 L158.064 339.2234 L158.932 340.8323 L159.8 341.0908 L160.668 341.9596 L161.536 342.2614 L162.404 343.2454 L163.272 343.3725 L164.14 344.0743 L165.008 344.1772 L165.876 344.7431 L166.744 344.7509 L167.612 345.4268 L168.48 345.4593 L169.348 345.912 L170.216 345.9821 L171.084 346.5208 L171.952 346.5441 L172.82 346.9356 L173.688 347.038 L174.556 347.331 L175.424 347.4026 L176.292 347.7251 L177.16 347.8978 L178.028 348.0533 L178.896 348.1333 L179.764 348.308 L180.632 348.4254 L181.5 348.6101 L182.368 348.6842 L183.236 348.8329 L184.104 348.9093 L184.972 349.0579 L185.84 349.0947 L186.708 349.235 L187.576 349.2763 L188.444 349.3785 L189.312 349.4344 L190.18 349.5046 L191.048 349.5704 L191.916 349.6603 L192.784 349.7015 L193.652 349.7539 L194.52 349.7773 L195.388 349.8342 L196.256 349.8764 L197.124 349.9249 L197.992 349.9482 L198.86 349.9983 L199.728 350.0292 L200.596 350.0542 L201.464 350.0944 L202.332 350.1233 L203.2 350.1507 L204.068 350.1773 L204.936 350.2164 L205.804 350.2416 L206.672 350.2673 L207.54 350.2997 L208.408 350.3118 L209.276 350.349 L210.144 350.3622 L211.012 350.3966 L211.88 350.4108 L212.748 350.4431 L213.616 350.4558 L214.484 350.4872 L215.352 350.5034 L216.22 350.5247 L217.088 350.537 L217.956 350.5522 L218.824 350.5635 L219.692 350.576 L220.56 350.5826 L221.428 350.5935 L222.296 350.6017 L223.164 350.611 L224.032 350.6195 L224.9 350.628 L225.768 350.639 L226.636 350.6467 L227.504 350.6597 L228.372 350.6675 L229.24 350.6781 L230.108 350.6895 L230.976 350.6989 L231.844 350.7102 L232.712 350.7207 L233.58 350.7323 L234.448 350.7442 L235.316 350.7569 L236.184 350.7702 L237.052 350.7842 L237.92 350.8011 L238.788 350.816 L239.656 350.8351 L240.524 350.851 L241.392 350.8699 L242.26 350.8847 L243.128 350.9034 L243.996 350.92 L244.864 350.9353 L245.732 350.9543 L246.6 350.9666 L247.468 350.9817 L248.336 350.9965 L249.204 351.0101 L250.072 351.0216 L250.94 351.0314 L251.808 351.0402 L252.676 351.0484 L253.544 351.0548 L254.412 351.0604 L255.28 351.0627 L256.148 351.0649 L257.016 351.0668 L257.884 351.0694 L258.752 351.0719 L259.62 351.0755 L260.488 351.0779 L261.356 351.0813 L262.224 351.0845 L263.092 351.0892 L263.96 351.0935 L264.828 351.098 L265.696 351.1021 L266.564 351.1077 L267.432 351.1117 L268.3 351.1164 L269.168 351.1214 L270.036 351.1264 L270.904 351.1313 L271.772 351.1363 L272.64 351.1419 L273.508 351.1465 L274.376 351.1516 L275.244 351.1552 L276.112 351.1611 L276.98 351.1658 L277.848 351.1673 L278.716 351.1735 L279.584 351.179 L280.452 351.1819 L281.32 351.1862 L282.188 351.1901 L283.056 351.1927 L283.924 351.1952 L284.792 351.1978 L285.66 351.2001 L286.528 351.203 L287.396 351.205 L288.264 351.2069 L289.132 351.2096 L290 351.2123 L290.868 351.2138 L291.736 351.216 L292.604 351.218 L293.472 351.22 L294.34 351.2224 L295.208 351.2246 L296.076 351.2265 L296.944 351.2292 L297.812 351.2308 L298.68 351.2328 L299.548 351.235 L300.416 351.2367 L301.284 351.2384 L302.152 351.2404 L303.02 351.2417 L303.888 351.2434 L304.756 351.2451 L305.624 351.2463 L306.492 351.2478 L307.36 351.2497 L308.228 351.2513 L309.096 351.252 L309.964 351.2529 L310.832 351.254 L311.7 351.2548 L312.568 351.2559 L313.436 351.2562 L314.304 351.257 L315.172 351.2582 L316.04 351.2587 L316.908 351.2593 L317.776 351.2603 L318.644 351.2612 L319.512 351.2616 L320.38 351.262 L321.248 351.2624 L322.116 351.2632 L322.984 351.2639 L323.852 351.2643 L324.72 351.2646 L325.588 351.2653 L326.456 351.2658 L327.324 351.2661 L328.192 351.2664 L329.06 351.2667 L329.928 351.2671 L330.796 351.2673 L331.664 351.2676 L332.532 351.2679 L333.4 351.2682 L334.268 351.2684 L335.136 351.2688 L336.004 351.269 L336.872 351.2694 L337.74 351.2697 L338.608 351.27 L339.476 351.2703 L340.344 351.2704 L341.212 351.2706 L342.08 351.2709 L342.948 351.271 L343.816 351.2712 L344.684 351.2715 L345.552 351.2715 L346.42 351.2717 L347.288 351.2718 L348.156 351.2719 L349.024 351.272 L349.892 351.2721 L350.76 351.2722 L351.628 351.2723 L352.496 351.2724 L353.364 351.2725 L354.232 351.2726 L355.1 351.2727 L355.968 351.2728 L356.836 351.2729 L357.704 351.273 L358.572 351.273 L359.44 351.2731 L360.308 351.2732 L361.176 351.2733 L362.044 351.2733 L362.912 351.2734 L363.78 351.2735 L364.648 351.2736 L365.516 351.2737 L366.384 351.2737 L367.252 351.2738 L368.12 351.2738 L368.988 351.2739 L369.856 351.2739 L370.724 351.274 L371.592 351.274 L372.46 351.2741 L373.328 351.2741 L374.196 351.2742 L375.064 351.2742 L375.932 351.2742 L376.8 351.2743 L377.668 351.2743 L378.536 351.2743 L379.404 351.2744 L380.272 351.2744 L381.14 351.2744 L382.008 351.2744 L382.876 351.2745 L383.744 351.2745 L384.612 351.2745 L385.48 351.2745 L386.348 351.2746 L387.216 351.2746 L388.084 351.2746 L388.952 351.2746 L389.82 351.2746 L390.688 351.2747 L391.556 351.2747 L392.424 351.2747 L393.292 351.2747 L394.16 351.2747 L395.028 351.2747 L395.896 351.2747 L396.764 351.2747 L397.632 351.2747 L398.5 351.2747 L399.368 351.2748 L400.236 351.2748 L401.104 351.2748 L401.972 351.2748 L402.84 351.2748 L403.708 351.2748 L404.576 351.2748 L405.444 351.2748 L406.312 351.2748 L407.18 351.2748 L408.048 351.2748 L408.916 351.2749 L409.784 351.2749 L410.652 351.2749 L411.52 351.2749 L412.388 351.2749 L413.256 351.2749 L414.124 351.2749 L414.992 351.2749 L415.86 351.2749 L416.728 351.2749 L417.596 351.2749 L418.464 351.2749 L419.332 351.2749 L420.2 351.2749 L421.068 351.2749 L421.936 351.2749 L422.804 351.2749 L423.672 351.2749 L424.54 351.2749 L425.408 351.2749 L426.276 351.2749 L427.144 351.2749 L428.012 351.2749 L428.88 351.275 L429.748 351.275 L430.616 351.275 L431.484 351.275 L432.352 351.275 L433.22 351.275 L434.088 351.275 L434.956 351.275 L435.824 351.275 L436.692 351.275 L437.56 351.275 L438.428 351.275 L439.296 351.275 L440.164 351.275 L441.032 351.275 L441.9 351.275 L442.768 351.275 L443.636 351.275 L444.504 351.275 L445.372 351.275 L446.24 351.275 L447.108 351.275 L447.976 351.275 L448.844 351.275 L449.712 351.275 L450.58 351.275 L451.448 351.275 L452.316 351.275 L453.184 351.275 L454.052 351.275 L454.92 351.275 L455.788 351.275 L456.656 351.275 L457.524 351.275 L458.392 351.275 L459.26 351.275 L460.128 351.275 L460.996 351.275 L461.864 351.275 L462.732 351.275 L463.6 351.275 L464.468 351.275 L465.336 351.275 L466.204 351.275 L467.072 351.275 L467.94 351.275 L468.808 351.275 L469.676 351.275 L470.544 351.275 L471.412 351.275 L472.28 351.275 L473.148 351.275 L474.016 351.275 L474.884 351.275 L475.752 351.275 L476.62 351.275 L477.488 351.275 L478.356 351.275 L479.224 351.275 L480.092 351.275 L480.96 351.275 L481.828 351.275 L482.696 351.275 L483.564 351.275 L484.432 351.275 L485.3 351.275 L486.168 351.275 L487.036 351.275 L487.904 351.275 L488.772 351.275 L489.64 351.275 L490.508 351.275 L491.376 351.275 L492.244 351.275 L493.112 351.275 L493.98 351.275 L494.848 351.275 L495.716 351.275 L496.584 351.275 L497.452 351.275 L498.32 351.275 L499.188 351.275 L500.056 351.275 L500.924 351.275 L501.792 351.275 L502.66 351.275 L503.528 351.275 L504.396 351.275 L505.264 351.275 L506.132 351.275 L507 351.275" style="fill:none; fill-rule:evenodd;"
    /></g
    ><g style="stroke-linecap:butt; fill:red; text-rendering:geometricPrecision; image-rendering:optimizeQuality; color-rendering:optimizeQuality; stroke-linejoin:bevel; stroke-dasharray:10,6; stroke:red; color-interpolation:linearRGB; stroke-width:0.5; stroke-miterlimit:1;"
    ><path d="M73.868 41.143 L74.736 43.5721 L75.604 138.516 L76.472 139.8507 L77.34 161.4052 L78.208 165.4522 L79.076 171.8458 L79.944 173.1145 L80.812 180.9505 L81.68 182.691 L82.548 188.3855 L83.416 189.1057 L84.284 190.5811 L85.152 192.4197 L86.02 195.7218 L86.888 196.0385 L87.756 196.9977 L88.624 197.9259 L89.492 198.2616 L90.36 198.8841 L91.228 201.3864 L92.096 201.5392 L92.964 203.279 L93.832 204.5366 L94.7 207.4581 L95.568 209.5316 L96.436 211.0284 L97.304 211.9515 L98.172 212.0905 L99.04 213.1557 L99.908 213.505 L100.776 214.6679 L101.644 216.5647 L102.512 218.7181 L103.38 218.7957 L104.248 219.867 L105.116 221.6907 L105.984 221.6907 L106.852 222.2523 L107.72 223.1793 L108.588 223.2172 L109.456 223.6095 L110.324 225.7762 L111.192 225.7762 L112.06 226.1127 L112.928 226.4071 L113.796 226.628 L114.664 226.9106 L115.532 227.5722 L116.4 229.1251 L117.268 229.4853 L118.136 230.7944 L119.004 230.8919 L119.872 231.2208 L120.74 231.2208 L121.608 232.904 L122.476 232.904 L123.344 233.1789 L124.212 233.5459 L125.08 234.068 L125.948 234.1482 L126.816 235.3006 L127.684 235.3006 L128.552 236.0056 L129.42 236.2306 L130.288 237.0338 L131.156 237.0338 L132.024 237.9262 L132.892 237.9262 L133.76 238.6726 L134.628 238.972 L135.496 239.0043 L136.364 239.4506 L137.232 239.6289 L138.1 240.5593 L138.968 241.0732 L139.836 241.505 L140.704 241.505 L141.572 241.505 L142.44 241.8885 L143.308 242.0309 L144.176 242.2007 L145.044 242.3903 L145.912 242.3903 L146.78 243.0885 L147.648 243.0885 L148.516 243.3488 L149.384 243.4879 L150.252 243.8024 L151.12 244.0767 L151.988 244.1861 L152.856 244.5019 L153.724 245.1612 L154.592 246.1984 L155.46 246.7379 L156.328 247.2592 L157.196 247.5406 L158.064 247.6344 L158.932 248.9909 L159.8 249.1919 L160.668 250.2445 L161.536 251.1615 L162.404 251.6502 L163.272 251.6502 L164.14 252.1751 L165.008 252.4338 L165.876 253.3287 L166.744 253.3287 L167.612 253.6837 L168.48 253.7037 L169.348 254.1721 L170.216 255.1006 L171.084 255.5274 L171.952 255.7919 L172.82 256.2027 L173.688 256.8216 L174.556 257.5115 L175.424 257.5115 L176.292 257.5201 L177.16 257.8632 L178.028 257.9767 L178.896 258.5027 L179.764 258.5027 L180.632 258.9128 L181.5 259.077 L182.368 259.338 L183.236 259.338 L184.104 259.3892 L184.972 259.7398 L185.84 260.2517 L186.708 261.35 L187.576 261.749 L188.444 262.8441 L189.312 263.3058 L190.18 263.3058 L191.048 263.9565 L191.916 264.1685 L192.784 265.1135 L193.652 265.1135 L194.52 265.1219 L195.388 265.1219 L196.256 265.1219 L197.124 265.5751 L197.992 265.884 L198.86 266.0081 L199.728 266.2277 L200.596 266.3196 L201.464 266.3196 L202.332 266.3196 L203.2 266.3196 L204.068 266.3752 L204.936 266.3752 L205.804 266.3752 L206.672 266.5031 L207.54 266.5031 L208.408 266.5581 L209.276 266.8083 L210.144 266.8083 L211.012 266.8214 L211.88 267.0245 L212.748 267.0245 L213.616 267.057 L214.484 267.0641 L215.352 267.6915 L216.22 268.3587 L217.088 268.4874 L217.956 268.6225 L218.824 268.7864 L219.692 268.7864 L220.56 268.861 L221.428 269.0703 L222.296 269.4665 L223.164 270.1762 L224.032 270.7282 L224.9 270.7546 L225.768 271.3963 L226.636 271.3963 L227.504 271.6233 L228.372 271.7138 L229.24 272.1854 L230.108 272.3207 L230.976 272.4344 L231.844 273.0948 L232.712 273.0948 L233.58 273.0948 L234.448 273.36 L235.316 273.36 L236.184 273.36 L237.052 273.36 L237.92 273.9998 L238.788 274.5818 L239.656 274.8979 L240.524 274.8979 L241.392 275.1614 L242.26 275.2414 L243.128 275.3105 L243.996 275.3105 L244.864 275.6379 L245.732 275.8345 L246.6 275.985 L247.468 275.9884 L248.336 275.9884 L249.204 276.4814 L250.072 276.4814 L250.94 276.4814 L251.808 276.7177 L252.676 276.7177 L253.544 276.7504 L254.412 277.436 L255.28 277.436 L256.148 277.4401 L257.016 278.282 L257.884 278.4346 L258.752 278.5741 L259.62 278.9379 L260.488 279.1026 L261.356 279.2157 L262.224 280.028 L263.092 280.1813 L263.96 280.6132 L264.828 280.9582 L265.696 281.3343 L266.564 282.0985 L267.432 282.5139 L268.3 282.5139 L269.168 282.6965 L270.036 282.6965 L270.904 282.6965 L271.772 283.2198 L272.64 283.2198 L273.508 283.2619 L274.376 284.4325 L275.244 284.5123 L276.112 284.5123 L276.98 284.5123 L277.848 284.5747 L278.716 284.5747 L279.584 284.5747 L280.452 284.5747 L281.32 284.7237 L282.188 284.7237 L283.056 284.7823 L283.924 285.0042 L284.792 285.0042 L285.66 285.0116 L286.528 285.0116 L287.396 285.0116 L288.264 285.0116 L289.132 285.2919 L290 285.3545 L290.868 285.3545 L291.736 285.3545 L292.604 285.3545 L293.472 285.7646 L294.34 285.8304 L295.208 285.8304 L296.076 286.0792 L296.944 286.19 L297.812 286.19 L298.68 286.19 L299.548 286.19 L300.416 286.7227 L301.284 287.3033 L302.152 289.0423 L303.02 289.2782 L303.888 289.5048 L304.756 290.2535 L305.624 290.6865 L306.492 291.3068 L307.36 291.4808 L308.228 291.584 L309.096 292.0476 L309.964 292.3072 L310.832 292.5142 L311.7 293.3257 L312.568 293.3257 L313.436 293.3257 L314.304 293.3257 L315.172 293.4974 L316.04 293.9647 L316.908 293.9647 L317.776 294.2552 L318.644 294.2552 L319.512 294.2552 L320.38 294.2905 L321.248 294.7133 L322.116 294.7133 L322.984 294.7575 L323.852 295.0812 L324.72 295.3177 L325.588 295.4882 L326.456 295.5054 L327.324 295.734 L328.192 296.0142 L329.06 296.2896 L329.928 297.0975 L330.796 297.2075 L331.664 297.2075 L332.532 297.4267 L333.4 297.885 L334.268 298.4766 L335.136 298.7489 L336.004 298.9991 L336.872 299.2848 L337.74 299.4689 L338.608 299.7782 L339.476 300.1237 L340.344 300.1237 L341.212 300.263 L342.08 300.263 L342.948 300.263 L343.816 300.3605 L344.684 300.4283 L345.552 300.4854 L346.42 301.0076 L347.288 301.3565 L348.156 301.9035 L349.024 302.1265 L349.892 302.2508 L350.76 302.3971 L351.628 302.584 L352.496 302.8366 L353.364 302.9602 L354.232 303.1344 L355.1 303.5881 L355.968 303.8777 L356.836 304.653 L357.704 304.6758 L358.572 304.7036 L359.44 304.7828 L360.308 304.9657 L361.176 304.9712 L362.044 305.3824 L362.912 305.4854 L363.78 305.803 L364.648 305.803 L365.516 305.803 L366.384 305.803 L367.252 306.035 L368.12 306.035 L368.988 306.4916 L369.856 306.5024 L370.724 306.6713 L371.592 306.7252 L372.46 306.7428 L373.328 307.1206 L374.196 307.1206 L375.064 307.3284 L375.932 307.5466 L376.8 307.6032 L377.668 308.2156 L378.536 308.2156 L379.404 308.2733 L380.272 308.5992 L381.14 308.7667 L382.008 308.8862 L382.876 309.6551 L383.744 310.0542 L384.612 310.1207 L385.48 310.3274 L386.348 310.4254 L387.216 310.762 L388.084 310.8295 L388.952 310.8888 L389.82 311.1611 L390.688 311.1996 L391.556 311.3571 L392.424 311.6235 L393.292 311.8667 L394.16 312.0145 L395.028 312.23 L395.896 312.3943 L396.764 312.4422 L397.632 312.6183 L398.5 312.627 L399.368 312.7892 L400.236 312.8689 L401.104 312.9586 L401.972 313.0884 L402.84 313.3768 L403.708 313.5103 L404.576 313.5669 L405.444 313.7349 L406.312 313.9874 L407.18 314.0685 L408.048 314.191 L408.916 314.5781 L409.784 314.8823 L410.652 315.0858 L411.52 315.3308 L412.388 315.5681 L413.256 315.7108 L414.124 315.8997 L414.992 316.0807 L415.86 316.2761 L416.728 316.353 L417.596 316.3763 L418.464 316.4765 L419.332 316.4765 L420.2 316.7144 L421.068 316.8052 L421.936 316.8667 L422.804 316.982 L423.672 317.1352 L424.54 317.1799 L425.408 317.207 L426.276 317.3593 L427.144 317.3789 L428.012 317.4769 L428.88 317.7018 L429.748 317.8321 L430.616 317.8826 L431.484 318.0417 L432.352 318.2492 L433.22 318.3949 L434.088 318.4601 L434.956 318.4814 L435.824 318.5146 L436.692 318.6093 L437.56 318.6982 L438.428 318.7912 L439.296 318.9445 L440.164 319.026 L441.032 319.0586 L441.9 319.1303 L442.768 319.2216 L443.636 319.3393 L444.504 319.4508 L445.372 319.5357 L446.24 319.5745 L447.108 319.6089 L447.976 319.6371 L448.844 319.7062 L449.712 319.7363 L450.58 319.7726 L451.448 319.8635 L452.316 319.898 L453.184 319.9263 L454.052 319.9748 L454.92 320.0317 L455.788 320.0907 L456.656 320.1338 L457.524 320.2491 L458.392 320.348 L459.26 320.3842 L460.128 320.4286 L460.996 320.4941 L461.864 320.5415 L462.732 320.5673 L463.6 320.59 L464.468 320.6213 L465.336 320.6475 L466.204 320.6748 L467.072 320.7179 L467.94 320.7593 L468.808 320.7935 L469.676 320.8251 L470.544 320.8528 L471.412 320.8911 L472.28 320.9188 L473.148 320.9594 L474.016 320.999 L474.884 321.0271 L475.752 321.0456 L476.62 321.0825 L477.488 321.1179 L478.356 321.1624 L479.224 321.1861 L480.092 321.1951 L480.96 321.2321 L481.828 321.2763 L482.696 321.3083 L483.564 321.3519 L484.432 321.4047 L485.3 321.4501 L486.168 321.4949 L487.036 321.5187 L487.904 321.5567 L488.772 321.5997 L489.64 321.6392 L490.508 321.6688 L491.376 321.6996 L492.244 321.7352 L493.112 321.7713 L493.98 321.7952 L494.848 321.8071 L495.716 321.8183 L496.584 321.8336 L497.452 321.849 L498.32 321.8657 L499.188 321.8805 L500.056 321.8946 L500.924 321.9052 L501.792 321.9105 L502.66 321.9195 L503.528 321.9247 L504.396 321.9311 L505.264 321.9351 L506.132 321.9388 L507 321.9409" style="fill:none; fill-rule:evenodd;"
    /></g
    ><g transform="translate(73.868,41.143)" style="stroke-linecap:butt; fill:red; text-rendering:geometricPrecision; color-rendering:optimizeQuality; image-rendering:optimizeQuality; color-interpolation:linearRGB; stroke:red;"
    ><circle r="3" style="fill:none;" cx="0" cy="0"
      /><circle r="3" style="fill:none;" cx="0" transform="translate(17.36,160.2434)" cy="0"
      /><circle r="3" style="fill:none;" cx="0" transform="translate(34.72,182.0743)" cy="0"
      /><circle r="3" style="fill:none;" cx="0" transform="translate(52.08,193.0052)" cy="0"
      /><circle r="3" style="fill:none;" cx="0" transform="translate(69.44,200.8879)" cy="0"
      /><circle r="3" style="fill:none;" cx="0" transform="translate(86.8,209.1015)" cy="0"
      /><circle r="3" style="fill:none;" cx="0" transform="translate(104.16,216.8337)" cy="0"
      /><circle r="3" style="fill:none;" cx="0" transform="translate(121.52,223.9789)" cy="0"
      /><circle r="3" style="fill:none;" cx="0" transform="translate(138.88,225.8815)" cy="0"
      /><circle r="3" style="fill:none;" cx="0" transform="translate(156.24,231.1777)" cy="0"
      /><circle r="3" style="fill:none;" cx="0" transform="translate(173.6,234.8454)" cy="0"
      /><circle r="3" style="fill:none;" cx="0" transform="translate(190.96,239.8153)" cy="0"
      /><circle r="3" style="fill:none;" cx="0" transform="translate(208.32,243.5808)" cy="0"
      /><circle r="3" style="fill:none;" cx="0" transform="translate(225.68,245.047)" cy="0"
      /><circle r="3" style="fill:none;" cx="0" transform="translate(243.04,252.8217)" cy="0"
      /><circle r="3" style="fill:none;" cx="0" transform="translate(260.4,257.3336)" cy="0"
      /><circle r="3" style="fill:none;" cx="0" transform="translate(277.76,261.441)" cy="0"
      /><circle r="3" style="fill:none;" cx="0" transform="translate(295.12,265.3486)" cy="0"
      /><circle r="3" style="fill:none;" cx="0" transform="translate(312.48,269.2824)" cy="0"
      /><circle r="3" style="fill:none;" cx="0" transform="translate(329.84,272.3673)" cy="0"
      /><circle r="3" style="fill:none;" cx="0" transform="translate(347.2,275.6623)" cy="0"
      /><circle r="3" style="fill:none;" cx="0" transform="translate(364.56,277.6482)" cy="0"
      /><circle r="3" style="fill:none;" cx="0" transform="translate(381.92,278.9477)" cy="0"
      /><circle r="3" style="fill:none;" cx="0" transform="translate(399.28,279.8164)" cy="0"
      /><circle r="3" style="fill:none;" cx="0" transform="translate(416.64,280.5259)" cy="0"
    /></g
    ><g style="stroke-linecap:butt; text-rendering:geometricPrecision; image-rendering:optimizeQuality; color-rendering:optimizeQuality; stroke-linejoin:bevel; stroke-dasharray:10,6; color-interpolation:linearRGB; stroke-width:0.5; stroke-miterlimit:1;"
    ><path d="M73.868 231.6313 L74.736 231.6313 L75.604 236.5157 L76.472 236.5157 L77.34 241.3091 L78.208 241.3091 L79.076 251.4413 L79.944 251.4413 L80.812 251.4413 L81.68 251.4413 L82.548 255.5988 L83.416 255.5988 L84.284 255.5988 L85.152 255.5988 L86.02 255.5988 L86.888 259.211 L87.756 259.211 L88.624 259.211 L89.492 267.9582 L90.36 267.9582 L91.228 271.8884 L92.096 271.8884 L92.964 271.8884 L93.832 271.8884 L94.7 271.8884 L95.568 271.8884 L96.436 271.8884 L97.304 271.8884 L98.172 276.6142 L99.04 276.6142 L99.908 276.6142 L100.776 280.2945 L101.644 280.2945 L102.512 280.2945 L103.38 283.9976 L104.248 283.9976 L105.116 283.9976 L105.984 283.9976 L106.852 283.9976 L107.72 283.9976 L108.588 283.9976 L109.456 283.9976 L110.324 288.0923 L111.192 288.0923 L112.06 288.0923 L112.928 291.7726 L113.796 295.1577 L114.664 295.1577 L115.532 298.4519 L116.4 298.4519 L117.268 298.4519 L118.136 302.2458 L119.004 305.4264 L119.872 305.4264 L120.74 315.5588 L121.608 315.5588 L122.476 322.7832 L123.344 325.782 L124.212 331.6887 L125.08 335.2554 L125.948 339.0041 L126.816 339.0041 L127.684 339.0041 L128.552 339.0041 L129.42 341.185 L130.288 341.185 L131.156 345.3424 L132.024 345.3424 L132.892 345.3424 L133.76 345.3424 L134.628 345.3424 L135.496 345.3424 L136.364 345.3424 L137.232 345.3424 L138.1 345.3424 L138.968 345.3424 L139.836 345.3424 L140.704 346.4783 L141.572 346.4783 L142.44 346.4783 L143.308 346.4783 L144.176 346.4783 L145.044 347.6369 L145.912 347.6369 L146.78 347.6369 L147.648 347.6369 L148.516 348.6365 L149.384 348.6365 L150.252 348.6365 L151.12 348.6365 L151.988 348.6365 L152.856 348.6365 L153.724 348.6365 L154.592 348.6365 L155.46 348.6365 L156.328 348.6365 L157.196 348.6365 L158.064 348.6365 L158.932 349.2954 L159.8 349.2954 L160.668 349.2954 L161.536 349.2954 L162.404 349.2954 L163.272 349.2954 L164.14 349.8179 L165.008 349.8179 L165.876 349.8179 L166.744 349.8179 L167.612 349.9996 L168.48 350.136 L169.348 350.4767 L170.216 350.4767 L171.084 350.4767 L171.952 350.4767 L172.82 350.4767 L173.688 350.4767 L174.556 350.4767 L175.424 350.4767 L176.292 350.5449 L177.16 350.5449 L178.028 350.5449 L178.896 350.5449 L179.764 350.6812 L180.632 350.6812 L181.5 350.6812 L182.368 350.6812 L183.236 350.7948 L184.104 350.7948 L184.972 350.7948 L185.84 350.7948 L186.708 350.7948 L187.576 350.7948 L188.444 350.8175 L189.312 350.8175 L190.18 350.8175 L191.048 350.8175 L191.916 350.8402 L192.784 350.8402 L193.652 350.8857 L194.52 350.8857 L195.388 350.8857 L196.256 350.8857 L197.124 350.8857 L197.992 350.8857 L198.86 351.0219 L199.728 351.0219 L200.596 351.0219 L201.464 351.0219 L202.332 351.0901 L203.2 351.0901 L204.068 351.0901 L204.936 351.0901 L205.804 351.0901 L206.672 351.0901 L207.54 351.0901 L208.408 351.0901 L209.276 351.0901 L210.144 351.0901 L211.012 351.0901 L211.88 351.0901 L212.748 351.0901 L213.616 351.0901 L214.484 351.0901 L215.352 351.0901 L216.22 351.0901 L217.088 351.0901 L217.956 351.0901 L218.824 351.0901 L219.692 351.0901 L220.56 351.0901 L221.428 351.1128 L222.296 351.1128 L223.164 351.1128 L224.032 351.1128 L224.9 351.1128 L225.768 351.1128 L226.636 351.1128 L227.504 351.1128 L228.372 351.1128 L229.24 351.1128 L230.108 351.1128 L230.976 351.1128 L231.844 351.1128 L232.712 351.1128 L233.58 351.1128 L234.448 351.1128 L235.316 351.1128 L236.184 351.1128 L237.052 351.1128 L237.92 351.1128 L238.788 351.1128 L239.656 351.1128 L240.524 351.1128 L241.392 351.1128 L242.26 351.1128 L243.128 351.1128 L243.996 351.1128 L244.864 351.1128 L245.732 351.1128 L246.6 351.1128 L247.468 351.1128 L248.336 351.1128 L249.204 351.1128 L250.072 351.1128 L250.94 351.1128 L251.808 351.1128 L252.676 351.1128 L253.544 351.1128 L254.412 351.1128 L255.28 351.1128 L256.148 351.1128 L257.016 351.1128 L257.884 351.1128 L258.752 351.1128 L259.62 351.1128 L260.488 351.1128 L261.356 351.1128 L262.224 351.1128 L263.092 351.1128 L263.96 351.1128 L264.828 351.1128 L265.696 351.1128 L266.564 351.1128 L267.432 351.1128 L268.3 351.1128 L269.168 351.1128 L270.036 351.1128 L270.904 351.1128 L271.772 351.1128 L272.64 351.1128 L273.508 351.1128 L274.376 351.1128 L275.244 351.1128 L276.112 351.1128 L276.98 351.1128 L277.848 351.1128 L278.716 351.1128 L279.584 351.1128 L280.452 351.1128 L281.32 351.1128 L282.188 351.1128 L283.056 351.1128 L283.924 351.1128 L284.792 351.1128 L285.66 351.1128 L286.528 351.1128 L287.396 351.1128 L288.264 351.1128 L289.132 351.1128 L290 351.1128 L290.868 351.1128 L291.736 351.1128 L292.604 351.1128 L293.472 351.1128 L294.34 351.1128 L295.208 351.1128 L296.076 351.1128 L296.944 351.1128 L297.812 351.1128 L298.68 351.1128 L299.548 351.1128 L300.416 351.1128 L301.284 351.1128 L302.152 351.1128 L303.02 351.1128 L303.888 351.1128 L304.756 351.1128 L305.624 351.1128 L306.492 351.1128 L307.36 351.1128 L308.228 351.1128 L309.096 351.1128 L309.964 351.1128 L310.832 351.1128 L311.7 351.1128 L312.568 351.1128 L313.436 351.1128 L314.304 351.1128 L315.172 351.1128 L316.04 351.1128 L316.908 351.1128 L317.776 351.1128 L318.644 351.1128 L319.512 351.1128 L320.38 351.1128 L321.248 351.1128 L322.116 351.1128 L322.984 351.1128 L323.852 351.1128 L324.72 351.1128 L325.588 351.1128 L326.456 351.1128 L327.324 351.1128 L328.192 351.1128 L329.06 351.1128 L329.928 351.1128 L330.796 351.1128 L331.664 351.1128 L332.532 351.1128 L333.4 351.1128 L334.268 351.1128 L335.136 351.1128 L336.004 351.1128 L336.872 351.1128 L337.74 351.1128 L338.608 351.1128 L339.476 351.1128 L340.344 351.1128 L341.212 351.1128 L342.08 351.1128 L342.948 351.1128 L343.816 351.1128 L344.684 351.1128 L345.552 351.1128 L346.42 351.1128 L347.288 351.1128 L348.156 351.1128 L349.024 351.1128 L349.892 351.1128 L350.76 351.1128 L351.628 351.1128 L352.496 351.1128 L353.364 351.1128 L354.232 351.1128 L355.1 351.1128 L355.968 351.1128 L356.836 351.1128 L357.704 351.1128 L358.572 351.1128 L359.44 351.1128 L360.308 351.1128 L361.176 351.1128 L362.044 351.1128 L362.912 351.1128 L363.78 351.1128 L364.648 351.1128 L365.516 351.1128 L366.384 351.1128 L367.252 351.1128 L368.12 351.1128 L368.988 351.1128 L369.856 351.1128 L370.724 351.1128 L371.592 351.1128 L372.46 351.1128 L373.328 351.1128 L374.196 351.1128 L375.064 351.1128 L375.932 351.1128 L376.8 351.1128 L377.668 351.1128 L378.536 351.1128 L379.404 351.1128 L380.272 351.1128 L381.14 351.1128 L382.008 351.1128 L382.876 351.1128 L383.744 351.1128 L384.612 351.1128 L385.48 351.1128 L386.348 351.1128 L387.216 351.1128 L388.084 351.1128 L388.952 351.1128 L389.82 351.1128 L390.688 351.1128 L391.556 351.1128 L392.424 351.1128 L393.292 351.1128 L394.16 351.1128 L395.028 351.1128 L395.896 351.1128 L396.764 351.1128 L397.632 351.1128 L398.5 351.1128 L399.368 351.1128 L400.236 351.1128 L401.104 351.1128 L401.972 351.1128 L402.84 351.1128 L403.708 351.1128 L404.576 351.1128 L405.444 351.1128 L406.312 351.1128 L407.18 351.1128 L408.048 351.1128 L408.916 351.1128 L409.784 351.1128 L410.652 351.1128 L411.52 351.1128 L412.388 351.1128 L413.256 351.1128 L414.124 351.1128 L414.992 351.1128 L415.86 351.1128 L416.728 351.1128 L417.596 351.1128 L418.464 351.1128 L419.332 351.1128 L420.2 351.1128 L421.068 351.1128 L421.936 351.1128 L422.804 351.1128 L423.672 351.1128 L424.54 351.1128 L425.408 351.1128 L426.276 351.1128 L427.144 351.1128 L428.012 351.1128 L428.88 351.1128 L429.748 351.1128 L430.616 351.1128 L431.484 351.1128 L432.352 351.1128 L433.22 351.1128 L434.088 351.1128 L434.956 351.1128 L435.824 351.1128 L436.692 351.1128 L437.56 351.1128 L438.428 351.1128 L439.296 351.1128 L440.164 351.1128 L441.032 351.1128 L441.9 351.1128 L442.768 351.1128 L443.636 351.1128 L444.504 351.1128 L445.372 351.1128 L446.24 351.1128 L447.108 351.1128 L447.976 351.1128 L448.844 351.1128 L449.712 351.1128 L450.58 351.1128 L451.448 351.1128 L452.316 351.1128 L453.184 351.1128 L454.052 351.1128 L454.92 351.1128 L455.788 351.1128 L456.656 351.1128 L457.524 351.1128 L458.392 351.1128 L459.26 351.1128 L460.128 351.1128 L460.996 351.1128 L461.864 351.1128 L462.732 351.1128 L463.6 351.1128 L464.468 351.1128 L465.336 351.1128 L466.204 351.1128 L467.072 351.1128 L467.94 351.1128 L468.808 351.1128 L469.676 351.1128 L470.544 351.1128 L471.412 351.1128 L472.28 351.1128 L473.148 351.1128 L474.016 351.1128 L474.884 351.1128 L475.752 351.1128 L476.62 351.1128 L477.488 351.1128 L478.356 351.1128 L479.224 351.1128 L480.092 351.1128 L480.96 351.1128 L481.828 351.1128 L482.696 351.1128 L483.564 351.1128 L484.432 351.1128 L485.3 351.1128 L486.168 351.1128 L487.036 351.1128 L487.904 351.1128 L488.772 351.1128 L489.64 351.1128 L490.508 351.1128 L491.376 351.1128 L492.244 351.1128 L493.112 351.1128 L493.98 351.1128 L494.848 351.1128 L495.716 351.1128 L496.584 351.1128 L497.452 351.1128 L498.32 351.1128 L499.188 351.1128 L500.056 351.1128 L500.924 351.1128 L501.792 351.1128 L502.66 351.1128 L503.528 351.1128 L504.396 351.1128 L505.264 351.1128 L506.132 351.1128 L507 351.1128" style="fill:none; fill-rule:evenodd;"
    /></g
    ><g transform="translate(73.868,231.6313)" style="text-rendering:geometricPrecision; color-rendering:optimizeQuality; color-interpolation:linearRGB; stroke-linecap:butt; image-rendering:optimizeQuality;"
    ><path style="fill:none;" d="M-3 0 L0 3.99 L3 0 L0 -3.99 Z"
      /><path d="M-3 0 L0 3.99 L3 0 L0 -3.99 Z" style="fill:none;" transform="translate(17.36,40.2571)"
      /><path d="M-3 0 L0 3.99 L3 0 L0 -3.99 Z" style="fill:none;" transform="translate(34.72,52.3663)"
      /><path d="M-3 0 L0 3.99 L3 0 L0 -3.99 Z" style="fill:none;" transform="translate(52.08,107.3728)"
      /><path d="M-3 0 L0 3.99 L3 0 L0 -3.99 Z" style="fill:none;" transform="translate(69.44,114.8471)"
      /><path d="M-3 0 L0 3.99 L3 0 L0 -3.99 Z" style="fill:none;" transform="translate(86.8,117.6641)"
      /><path d="M-3 0 L0 3.99 L3 0 L0 -3.99 Z" style="fill:none;" transform="translate(104.16,118.9136)"
      /><path d="M-3 0 L0 3.99 L3 0 L0 -3.99 Z" style="fill:none;" transform="translate(121.52,119.2544)"
      /><path d="M-3 0 L0 3.99 L3 0 L0 -3.99 Z" style="fill:none;" transform="translate(138.88,119.4589)"
      /><path d="M-3 0 L0 3.99 L3 0 L0 -3.99 Z" style="fill:none;" transform="translate(156.24,119.4816)"
      /><path d="M-3 0 L0 3.99 L3 0 L0 -3.99 Z" style="fill:none;" transform="translate(173.6,119.4816)"
      /><path d="M-3 0 L0 3.99 L3 0 L0 -3.99 Z" style="fill:none;" transform="translate(190.96,119.4816)"
      /><path d="M-3 0 L0 3.99 L3 0 L0 -3.99 Z" style="fill:none;" transform="translate(208.32,119.4816)"
      /><path d="M-3 0 L0 3.99 L3 0 L0 -3.99 Z" style="fill:none;" transform="translate(225.68,119.4816)"
      /><path d="M-3 0 L0 3.99 L3 0 L0 -3.99 Z" style="fill:none;" transform="translate(243.04,119.4816)"
      /><path d="M-3 0 L0 3.99 L3 0 L0 -3.99 Z" style="fill:none;" transform="translate(260.4,119.4816)"
      /><path d="M-3 0 L0 3.99 L3 0 L0 -3.99 Z" style="fill:none;" transform="translate(277.76,119.4816)"
      /><path d="M-3 0 L0 3.99 L3 0 L0 -3.99 Z" style="fill:none;" transform="translate(295.12,119.4816)"
      /><path d="M-3 0 L0 3.99 L3 0 L0 -3.99 Z" style="fill:none;" transform="translate(312.48,119.4816)"
      /><path d="M-3 0 L0 3.99 L3 0 L0 -3.99 Z" style="fill:none;" transform="translate(329.84,119.4816)"
      /><path d="M-3 0 L0 3.99 L3 0 L0 -3.99 Z" style="fill:none;" transform="translate(347.2,119.4816)"
      /><path d="M-3 0 L0 3.99 L3 0 L0 -3.99 Z" style="fill:none;" transform="translate(364.56,119.4816)"
      /><path d="M-3 0 L0 3.99 L3 0 L0 -3.99 Z" style="fill:none;" transform="translate(381.92,119.4816)"
      /><path d="M-3 0 L0 3.99 L3 0 L0 -3.99 Z" style="fill:none;" transform="translate(399.28,119.4816)"
      /><path d="M-3 0 L0 3.99 L3 0 L0 -3.99 Z" style="fill:none;" transform="translate(416.64,119.4816)"
    /></g
    ><g style="fill:white; text-rendering:optimizeSpeed; color-rendering:optimizeSpeed; image-rendering:optimizeSpeed; shape-rendering:crispEdges; stroke:white; color-interpolation:sRGB;"
    ><path style="stroke:none;" d="M497 91 L497 41.5 L423 41.5 L423 91 Z"
    /></g
    ><g transform="translate(460,49)" style="font-size:9px; text-rendering:geometricPrecision; color-rendering:optimizeQuality; image-rendering:optimizeQuality; font-family:'Helvetica Neue'; color-interpolation:linearRGB;"
    ><text x="0" xml:space="preserve" y="3.5" style="stroke:none;"
      >MCGSA</text
    ></g
    ><g style="stroke-linecap:butt; fill:lime; text-rendering:geometricPrecision; image-rendering:optimizeQuality; color-rendering:optimizeQuality; stroke-linejoin:round; stroke:lime; color-interpolation:linearRGB; stroke-width:3;"
    ><line y2="49" style="fill:none;" x1="427" x2="457" y1="49"
    /></g
    ><g transform="translate(460,60.5)" style="font-size:9px; text-rendering:geometricPrecision; color-rendering:optimizeQuality; image-rendering:optimizeQuality; font-family:'Helvetica Neue'; color-interpolation:linearRGB;"
    ><text x="0" xml:space="preserve" y="3.5" style="stroke:none;"
      >GSA</text
    ></g
    ><g style="stroke-linecap:butt; fill:blue; text-rendering:geometricPrecision; image-rendering:optimizeQuality; color-rendering:optimizeQuality; stroke-linejoin:bevel; stroke-dasharray:12,12; stroke:blue; color-interpolation:linearRGB; stroke-width:3; stroke-miterlimit:1;"
    ><line y2="60.5" style="fill:none;" x1="427" x2="457" y1="60.5"
    /></g
    ><g transform="translate(460,72)" style="font-size:9px; text-rendering:geometricPrecision; color-rendering:optimizeQuality; image-rendering:optimizeQuality; font-family:'Helvetica Neue'; color-interpolation:linearRGB;"
    ><text x="0" xml:space="preserve" y="3.5" style="stroke:none;"
      >CGSA</text
    ></g
    ><g style="stroke-linecap:butt; fill:red; text-rendering:geometricPrecision; image-rendering:optimizeQuality; color-rendering:optimizeQuality; stroke-linejoin:bevel; stroke-dasharray:10,6; stroke:red; color-interpolation:linearRGB; stroke-width:0.5; stroke-miterlimit:1;"
    ><line y2="72" style="fill:none;" x1="427" x2="457" y1="72"
    /></g
    ><g transform="translate(442,72)" style="stroke-linecap:butt; fill:red; text-rendering:geometricPrecision; color-rendering:optimizeQuality; image-rendering:optimizeQuality; color-interpolation:linearRGB; stroke:red;"
    ><circle r="3" style="fill:none;" cx="0" cy="0"
    /></g
    ><g transform="translate(460,83.5)" style="font-size:9px; text-rendering:geometricPrecision; color-rendering:optimizeQuality; image-rendering:optimizeQuality; font-family:'Helvetica Neue'; color-interpolation:linearRGB;"
    ><text x="0" xml:space="preserve" y="3.5" style="stroke:none;"
      >MGSA</text
    ></g
    ><g style="stroke-linecap:butt; text-rendering:geometricPrecision; image-rendering:optimizeQuality; color-rendering:optimizeQuality; stroke-linejoin:bevel; stroke-dasharray:10,6; color-interpolation:linearRGB; stroke-width:0.5; stroke-miterlimit:1;"
    ><line y2="83.5" style="fill:none;" x1="427" x2="457" y1="83.5"
    /></g
    ><g transform="translate(442,83.5)" style="text-rendering:geometricPrecision; color-rendering:optimizeQuality; color-interpolation:linearRGB; stroke-linecap:butt; image-rendering:optimizeQuality;"
    ><path style="fill:none;" d="M-3 0 L0 3.99 L3 0 L0 -3.99 Z"
      /><path transform="translate(-442,-83.5)" style="fill:none; stroke-width:0.5; fill-rule:evenodd; stroke:rgb(38,38,38);" d="M423 91 L423 41.5 L497 41.5 L497 91 Z"
    /></g
  ></g
></svg
>
